what are the u15 4th iv , u15 3rd iv , and u16 1st viii for each head ?	SELECT t1.u15_4th_iv , t1.u15_3rd_iv , t1.u16_1st_viii from head as t1	1-11318462-5
which u16 3rd viii have less than 3 in head ?	SELECT t1.u16_3rd_viii from head as t1 GROUP BY t1.u16_3rd_viii HAVING COUNT ( * ) < 3	1-11318462-5
find the u15 4th iv of head which are u15 5th iv 10 but not u15 5th iv 99 .	SELECT t1.u15_4th_iv from head as t1 WHERE t1.u15_5th_iv = 10 EXCEPT SELECT t1.u15_4th_iv from head as t1 WHERE t1.u15_5th_iv = 99	1-11318462-5
find the distinct u15 1st iv of head having crew between 10 and 66 .	SELECT DISTINCT t1.u15_1st_iv from head as t1 WHERE t1.crew BETWEEN 10 AND 66	1-11318462-5
list open 3rd viii of head that have the number of head greater than 10 .	SELECT t1.open_3rd_viii from head as t1 GROUP BY t1.open_3rd_viii HAVING COUNT ( * ) > 10	1-11318462-5
what are the average crew of head for different open 2nd viii ?	SELECT AVG ( t1.crew ) , t1.open_2nd_viii from head as t1 GROUP BY t1.open_2nd_viii	1-11318462-5
how many distinct u15 6th iv correspond to each u15 6th iv ?	SELECT t1.u15_6th_iv , COUNT ( DISTINCT t1.u15_6th_iv ) from head as t1 GROUP BY t1.u15_6th_iv	1-11318462-5
find the u16 1st viii which have exactly 10 head .	SELECT t1.u16_1st_viii from head as t1 GROUP BY t1.u16_1st_viii HAVING COUNT ( * ) = 10	1-11318462-5
find the u15 6th iv which have exactly 10 head .	SELECT t1.u15_6th_iv from head as t1 GROUP BY t1.u15_6th_iv HAVING COUNT ( * ) = 10	1-11318462-5
how many head are there in u15 6th iv 10 or 20 ?	SELECT COUNT ( * ) from head as t1 WHERE t1.u15_6th_iv = 10 OR t1.u15_6th_iv = 20	1-11318462-5
