please show the game site of the 1979 that have at least 10 records .	SELECT t1.game_site from 1979 as t1 GROUP BY t1.game_site HAVING COUNT ( * ) >= 10	1-13259009-2
how many 1979 are there that have more than {VALUE},0 game site ?	SELECT COUNT ( * ) from 1979 as t1 GROUP BY t1.game_site HAVING COUNT ( * ) > 10 	1-13259009-2
what are the distinct date with attendance between 10 and 45 ?	SELECT DISTINCT t1.date from 1979 as t1 WHERE t1.attendance BETWEEN 10 AND 45	1-13259009-2
show the result and result with at least 10 record .	SELECT t1.result , t1.result from 1979 as t1 GROUP BY t1.record HAVING COUNT ( * ) >= 10	1-13259009-2
what are the game site of the 1979 that have exactly 10 1979 ?	SELECT t1.game_site from 1979 as t1 GROUP BY t1.game_site HAVING COUNT ( * ) = 10	1-13259009-2
what is the game site of the 1979 with the minimum attendance ?	SELECT t1.game_site from 1979 as t1 ORDER BY t1.attendance ASC LIMIT 1	1-13259009-2
find all opponent that have fewer than three in 1979 .	SELECT t1.opponent from 1979 as t1 GROUP BY t1.opponent HAVING COUNT ( * ) < 3	1-13259009-2
find the date of 1979 which are date 10 but not date 61 .	SELECT t1.date from 1979 as t1 WHERE t1.date = 10 EXCEPT SELECT t1.date from 1979 as t1 WHERE t1.date = 61	1-13259009-2
Show everything on 1979	SELECT * FROM 1979	1-13259009-2
select the average attendance of each 1979 's record .	SELECT AVG ( t1.attendance ) , t1.record from 1979 as t1 GROUP BY t1.record	1-13259009-2
