count the number of 2003 in team 10 or 64 .	SELECT COUNT ( * ) from 2003 as t1 WHERE t1.team = 10 OR t1.team = 64	1-14911550-1
what is the minimum position in each team ?	SELECT MIN ( t1.position ) , t1.team from 2003 as t1 GROUP BY t1.team	1-14911550-1
list the team , team and the team of the 2003 .	SELECT t1.team , t1.team , t1.team from 2003 as t1	1-14911550-1
show team and team of 2003 .	SELECT t1.team , t1.team from 2003 as t1	1-14911550-1
how many 2003 have team that contains 10 ?	SELECT COUNT ( * ) from 2003 as t1 WHERE t1.team LIKE 10	1-14911550-1
what are the team of the 2003 with team other than 10 ?	SELECT t1.team from 2003 as t1 WHERE t1.team ! = 10	1-14911550-1
give the t1.team with the fewest 2003 .	SELECT t1.team from 2003 as t1 GROUP BY t1.team ORDER BY COUNT ( * ) LIMIT 1	1-14911550-1
what is all the information on the 2003 with the largest number of team ?	SELECT * from 2003 as t1 ORDER BY t1.team DESC LIMIT 1	1-14911550-1
what is the count of 2003 with more than 10 team ?	SELECT COUNT ( * ) from 2003 as t1 GROUP BY t1.team HAVING COUNT ( * ) > 10 	1-14911550-1
what are the average position of 2003 for different team ?	SELECT AVG ( t1.position ) , t1.team from 2003 as t1 GROUP BY t1.team	1-14911550-1
