which difference have an average played over 10 ?	SELECT t1.difference from 1943 as t1 GROUP BY t1.difference HAVING AVG ( t1.played ) >= 10	1-15331868-1
find the distinct team of 1943 having for between 10 and 57 .	SELECT DISTINCT t1.team from 1943 as t1 WHERE t1.for BETWEEN 10 AND 57	1-15331868-1
return the team of the 1943 with the fewest drawn .	SELECT t1.team from 1943 as t1 ORDER BY t1.drawn ASC LIMIT 1	1-15331868-1
give the difference that has the most 1943 .	SELECT t1.difference from 1943 as t1 GROUP BY t1.difference ORDER BY COUNT ( * ) DESC LIMIT 1	1-15331868-1
list the team of {1943 which has number of 1943 greater than 10 .	SELECT t1.team from 1943 as t1 GROUP BY t1.team HAVING COUNT ( * ) > 10	1-15331868-1
find the team and difference of the 1943 with at least 10 difference .	SELECT t1.team , t1.difference from 1943 as t1 GROUP BY t1.difference HAVING COUNT ( * ) >= 10	1-15331868-1
find the distinct COLUMN_NAME,0} of all 1943 that have position higher than some 1943 from 10 {COLUMN_NAME_2} .	SELECT DISTINCT t1.difference from 1943 as t1 WHERE t1.position > ( SELECT MIN ( t1.difference ) from 1943 as t1 WHERE t1.difference = 10 )	1-15331868-1
find the team of 1943 who have both 10 and 51 won .	SELECT t1.team from 1943 as t1 WHERE t1.won = 10 INTERSECT SELECT t1.team from 1943 as t1 WHERE t1.won = 51	1-15331868-1
list the difference , difference and the difference of the 1943 .	SELECT t1.difference , t1.difference , t1.difference from 1943 as t1	1-15331868-1
what are the difference more than 10 1943 have ?	SELECT t1.difference from 1943 as t1 GROUP BY t1.difference HAVING COUNT ( * ) > 10	1-15331868-1
