show the skip of 2008 who have at least 10 2008 .	SELECT t1.skip from 2008 as t1 GROUP BY t1.skip HAVING COUNT ( * ) >= 10	1-15597975-2
what are the locale of all 2008 that have 10 or more 2008 ?	SELECT t1.locale from 2008 as t1 GROUP BY t1.locale HAVING COUNT ( * ) >= 10	1-15597975-2
which t1.locale has the smallest amount of 2008?	SELECT t1.locale from 2008 as t1 GROUP BY t1.locale ORDER BY COUNT ( * ) LIMIT 1	1-15597975-2
what are the locale for all 2008 , and what is the total {ends won for each ?	SELECT t1.locale , SUM ( t1.ends_won ) from 2008 as t1 GROUP BY t1.locale	1-15597975-2
Return all columns in 2008 .	SELECT * FROM 2008	1-15597975-2
return the locale of the 2008 that has the fewest corresponding locale .	SELECT t1.locale from 2008 as t1 GROUP BY t1.locale ORDER BY COUNT ( * ) ASC LIMIT 1	1-15597975-2
what is the skip and skip of the 2008 with maximum ends lost ?	SELECT t1.skip , t1.skip from 2008 as t1 WHERE t1.ends_lost = ( SELECT MAX ( t1.ends_lost ) {FROM, 3} )	1-15597975-2
what is the skip and locale of the 2008 with maximum pa ?	SELECT t1.skip , t1.locale from 2008 as t1 WHERE t1.pa = ( SELECT MAX ( t1.pa ) {FROM, 3} )	1-15597975-2
show skip and the number of distinct skip in each skip .	SELECT t1.skip , COUNT ( DISTINCT t1.skip ) from 2008 as t1 GROUP BY t1.skip	1-15597975-2
which locale has both 2008 with less than 10 blank ends and 2008 with more than 3 blank ends ?	SELECT t1.locale from 2008 as t1 WHERE t1.blank_ends < 10 INTERSECT SELECT t1.locale from 2008 as t1 WHERE t1.blank_ends > 3	1-15597975-2
