what are the car ( s ) , listed owner ( s ) , and primary sponsor ( s ) for each 2005 ?	SELECT t1.car_ , t1.listed_owner_ , t1.primary_sponsor_ from 2005 as t1	1-1529793-1
what is the team and driver ( s ) of the 2005 with maximum # ?	SELECT t1.team , t1.driver_ from 2005 as t1 WHERE t1.# = ( SELECT MAX ( t1.# ) {FROM, 3} )	1-1529793-1
show the team shared by more than 10 2005 .	SELECT t1.team from 2005 as t1 GROUP BY t1.team HAVING COUNT ( * ) > 10	1-1529793-1
which crew chief is the most frequent crew chief?	SELECT t1.crew_chief from 2005 as t1 GROUP BY t1.crew_chief ORDER BY COUNT ( * ) DESC LIMIT 1	1-1529793-1
list car ( s ) and primary sponsor ( s ) who have # greater than 5 or # shorter than 10 .	SELECT t1.car_ , t1.primary_sponsor_ from 2005 as t1 WHERE t1.# > 5 OR t1.# < 10	1-1529793-1
what is the t1.driver_ of 2005 that has fewest number of 2005 ?	SELECT t1.driver_ from 2005 as t1 GROUP BY t1.driver_ ORDER BY COUNT ( * ) LIMIT 1	1-1529793-1
show listed owner ( s ) and the number of distinct car ( s ) in each listed owner ( s ) .	SELECT t1.listed_owner_ , COUNT ( DISTINCT t1.car_ ) from 2005 as t1 GROUP BY t1.listed_owner_	1-1529793-1
what is the listed owner ( s ) of the most common 2005 in all listed owner ( s ) ?	SELECT t1.listed_owner_ from 2005 as t1 GROUP BY t1.listed_owner_ ORDER BY COUNT ( * ) DESC LIMIT 1	1-1529793-1
find all crew chief that have fewer than three in 2005 .	SELECT t1.crew_chief from 2005 as t1 GROUP BY t1.crew_chief HAVING COUNT ( * ) < 3	1-1529793-1
what are the primary sponsor ( s ) of all 2005 that have 10 or more 2005 ?	SELECT t1.primary_sponsor_ from 2005 as t1 GROUP BY t1.primary_sponsor_ HAVING COUNT ( * ) >= 10	1-1529793-1
