what is the maximum and mininum south asians 2011 {COLUMN} for all south ?	SELECT MAX ( t1.south_asians_2011 ) , MIN ( t1.south_asians_2011 ) from south as t1	1-1717824-1
show % 2011 and the number of distinct province in each % 2011 .	SELECT t1.% , COUNT ( DISTINCT t1.province ) from south as t1 GROUP BY t1.%	1-1717824-1
how many south are there in % 2011 10 or 71 ?	SELECT COUNT ( * ) from south as t1 WHERE t1.% = 10 OR t1.% = 71	1-1717824-1
how many distinct province correspond to each % 2011 ?	SELECT t1.% , COUNT ( DISTINCT t1.province ) from south as t1 GROUP BY t1.%	1-1717824-1
return the province of the largest south asians 2001.	SELECT t1.province from south as t1 ORDER BY t1.south_asians_2001 DESC LIMIT 1	1-1717824-1
find the number of south whose province contain the word 10 .	SELECT COUNT ( * ) from south as t1 WHERE t1.province LIKE 10	1-1717824-1
how many distinct % 2001 correspond to each % 2011 ?	SELECT t1.% , COUNT ( DISTINCT t1.% ) from south as t1 GROUP BY t1.%	1-1717824-1
what are the % 2011 and % 2011 of all south sorted by decreasing south asians 2001 ?	SELECT t1.% , t1.% from south as t1 ORDER BY t1.south_asians_2001 DESC	1-1717824-1
show the % 2001 and the number of south for each % 2001 in the ascending order.	SELECT t1.% , COUNT ( * ) from south as t1 GROUP BY t1.% ORDER BY COUNT ( * )	1-1717824-1
what are the province for south that have an south asians 2011 greater than the average .	SELECT t1.province from south as t1 WHERE t1.south_asians_2011 > ( SELECT AVG ( t1.south_asians_2011 ) from south as t1	1-1717824-1
