which record has both 2008 with less than 10 game and 2008 with more than 89 game ?	SELECT t1.record from 2008 as t1 WHERE t1.game < 10 INTERSECT SELECT t1.record from 2008 as t1 WHERE t1.game > 89	1-17118657-8
what are the maximum and minimum game across all 2008 ?	SELECT MAX ( t1.game ) , MIN ( t1.game ) from 2008 as t1	1-17118657-8
what is the minimum game in each score ?	SELECT MIN ( t1.game ) , t1.score from 2008 as t1 GROUP BY t1.score	1-17118657-8
what is the high rebounds and score of every 2008 that has a game lower than average ?	SELECT t1.high_rebounds , t1.score from 2008 as t1 WHERE t1.game < ( SELECT AVG ( t1.game ) {FROM, 3} )	1-17118657-8
find the number of 2008 whose opponent contain the word 10 .	SELECT COUNT ( * ) from 2008 as t1 WHERE t1.opponent LIKE 10	1-17118657-8
show all information on the 2008 that has the largest number of opponent.	SELECT * from 2008 as t1 ORDER BY t1.opponent DESC LIMIT 1	1-17118657-8
sort the list of date and score of all 2008 in the descending order of game .	SELECT t1.date , t1.score from 2008 as t1 ORDER BY t1.game DESC	1-17118657-8
give the score that has the most 2008 .	SELECT t1.score from 2008 as t1 GROUP BY t1.score ORDER BY COUNT ( * ) DESC LIMIT 1	1-17118657-8
what are the opponent and high rebounds of the {COLUMN} who have game above five or game below ten ?	SELECT t1.opponent , t1.high_rebounds from 2008 as t1 WHERE t1.game > 5 OR t1.game < 10	1-17118657-8
return the score of 2008 for which the opponent is not 10 ?	SELECT t1.score from 2008 as t1 WHERE t1.opponent ! = 10	1-17118657-8
