what is the opponent of all 1964 whose attendance is higher than any 1964 ?	SELECT t1.opponent from 1964 as t1 WHERE t1.attendance > ( SELECT MIN ( t1.attendance ) from 1964 as t1 )	1-17781394-1
what is the minimum attendance in each opponent ?	SELECT MIN ( t1.attendance ) , t1.opponent from 1964 as t1 GROUP BY t1.opponent	1-17781394-1
count the number of 1964 in result 10 or 95 .	SELECT COUNT ( * ) from 1964 as t1 WHERE t1.result = 10 OR t1.result = 95	1-17781394-1
what is the result of the 1964 with the largest week ?	SELECT t1.result from 1964 as t1 WHERE t1.week = ( SELECT MAX ( t1.week ) from 1964 as t1 )	1-17781394-1
what are the maximum and minimum attendance across all 1964 ?	SELECT MAX ( t1.attendance ) , MIN ( t1.attendance ) from 1964 as t1	1-17781394-1
find the opponent who has exactly 10 1964 .	SELECT t1.opponent from 1964 as t1 GROUP BY t1.opponent HAVING COUNT ( * ) = 10	1-17781394-1
what is the opponent and game site of every 1964 that has a attendance lower than average ?	SELECT t1.opponent , t1.game_site from 1964 as t1 WHERE t1.attendance < ( SELECT AVG ( t1.attendance ) {FROM, 3} )	1-17781394-1
what are the result of all 1964 with game site that is 10 ?	SELECT t1.result from 1964 as t1 GROUP BY t1.game_site HAVING COUNT ( * ) = 10	1-17781394-1
which game site have greater attendance than that of any attendance in 1964 ?	SELECT t1.game_site from 1964 as t1 WHERE t1.attendance > ( SELECT MIN ( t1.attendance ) from 1964 as t1 )	1-17781394-1
find the game site of 1964 who have both 10 and 74 week .	SELECT t1.game_site from 1964 as t1 WHERE t1.week = 10 INTERSECT SELECT t1.game_site from 1964 as t1 WHERE t1.week = 74	1-17781394-1
