what are the club of all 2007 with club that is 10 ?	SELECT t1.club from 2007 as t1 GROUP BY t1.club HAVING COUNT ( * ) = 10	1-18018248-2
return the club of 2007 that do not have the club 10 .	SELECT t1.club from 2007 as t1 WHERE t1.club ! = 10	1-18018248-2
find the club of the 2007 with the highest games played .	SELECT t1.club from 2007 as t1 ORDER BY t1.games_played DESC LIMIT 1	1-18018248-2
Return all columns in 2007 .	SELECT * FROM 2007	1-18018248-2
what is the club of the 2007 with least number of club ?	SELECT t1.club from 2007 as t1 GROUP BY t1.club ORDER BY COUNT ( * ) ASC LIMIT 1	1-18018248-2
what is the club of the 2007 with the smallest position ?	SELECT t1.club from 2007 as t1 ORDER BY t1.position ASC LIMIT 1	1-18018248-2
find the club of 2007 which have 10 but no 80 as club .	SELECT t1.club from 2007 as t1 WHERE t1.club = 10 EXCEPT SELECT t1.club from 2007 as t1 WHERE t1.club = 80	1-18018248-2
show the club and their total goals scored of 2007 .	SELECT t1.club , SUM ( t1.goals_scored ) from 2007 as t1 GROUP BY t1.club	1-18018248-2
find the club of the 2007 with the highest goals conceded .	SELECT t1.club from 2007 as t1 ORDER BY t1.goals_conceded DESC LIMIT 1	1-18018248-2
what is all the information on the 2007 with the largest number of club ?	SELECT * from 2007 as t1 ORDER BY t1.club DESC LIMIT 1	1-18018248-2
