how many 2009 have driver that contain the word 10 ?	SELECT COUNT ( * ) from 2009 as t1 WHERE t1.driver LIKE 10	1-18811741-15
find the number of 2009 that have more than 10 driver .	SELECT COUNT ( * ) from 2009 as t1 GROUP BY t1.driver HAVING COUNT ( * ) > 10 	1-18811741-15
how many 2009 are there in driver 10 or 46 ?	SELECT COUNT ( * ) from 2009 as t1 WHERE t1.driver = 10 OR t1.driver = 46	1-18811741-15
what are the driver and driver of each 2009 ?	SELECT t1.driver , t1.driver from 2009 as t1	1-18811741-15
what is the driver and driver of the 2009 with maximum points ?	SELECT t1.driver , t1.driver from 2009 as t1 WHERE t1.points = ( SELECT MAX ( t1.points ) {FROM, 3} )	1-18811741-15
what are the maximum and minimum starts across all 2009 ?	SELECT MAX ( t1.starts ) , MIN ( t1.starts ) from 2009 as t1	1-18811741-15
what is the driver of the 2009 with the minimum points ?	SELECT t1.driver from 2009 as t1 ORDER BY t1.points ASC LIMIT 1	1-18811741-15
show the driver with fewer than 3 2009 .	SELECT t1.driver from 2009 as t1 GROUP BY t1.driver HAVING COUNT ( * ) < 3	1-18811741-15
find the driver and driver of the 2009 whose stage wins is lower than the average stage wins of all 2009 .	SELECT t1.driver , t1.driver from 2009 as t1 WHERE t1.stage_wins < ( SELECT AVG ( t1.stage_wins ) {FROM, 3} )	1-18811741-15
find the driver of 2009 which are in 10 driver but not in 39 driver .	SELECT t1.driver from 2009 as t1 WHERE t1.driver = 10 EXCEPT SELECT t1.driver from 2009 as t1 WHERE t1.driver = 39	1-18811741-15
