how many 2009 have 3-dart average that contains 10 ?	SELECT COUNT ( * ) from 2009 as t1 WHERE t1.3-dart_average LIKE 10	1-20301877-2
find the player of 2009 who have more than 10 2009 .	SELECT t1.player from 2009 as t1 GROUP BY t1.player HAVING COUNT ( * ) > 10	1-20301877-2
what are the 3-dart average of all 2009 that have 10 or more 2009 ?	SELECT t1.3-dart_average from 2009 as t1 GROUP BY t1.3-dart_average HAVING COUNT ( * ) >= 10	1-20301877-2
how many 2009 are there in player 10 or 12 ?	SELECT COUNT ( * ) from 2009 as t1 WHERE t1.player = 10 OR t1.player = 12	1-20301877-2
what are the 3-dart average of all 2009 with 3-dart average that is 10 ?	SELECT t1.3-dart_average from 2009 as t1 GROUP BY t1.3-dart_average HAVING COUNT ( * ) = 10	1-20301877-2
please show the different 3-dart average , ordered by the number of 2009 that have each .	SELECT t1.3-dart_average from 2009 as t1 GROUP BY t1.3-dart_average ORDER BY COUNT ( * ) ASC LIMIT 1	1-20301877-2
what are the player more than 10 2009 have ?	SELECT t1.player from 2009 as t1 GROUP BY t1.player HAVING COUNT ( * ) > 10	1-20301877-2
display the player , player , and 3-dart average for each 2009 .	SELECT t1.player , t1.player , t1.3-dart_average from 2009 as t1	1-20301877-2
Show everything on 2009	SELECT * FROM 2009	1-20301877-2
show all information on the 2009 that has the largest number of 3-dart average.	SELECT * from 2009 as t1 ORDER BY t1.3-dart_average DESC LIMIT 1	1-20301877-2
