what are all the player and player?	SELECT t1.player , t1.player from 2009 as t1	1-20463779-22
what are the distinct COLUMN_NAME,0} of 2009 with legs lost higher than any 2009 from 10 {COLUMN_NAME_2} .	SELECT DISTINCT t1.3-dart_average from 2009 as t1 WHERE t1.legs_lost > ( SELECT MIN ( t1.3-dart_average ) from 2009 as t1 WHERE t1.player = 10 )	1-20463779-22
what are the average played of 2009 for different 3-dart average ?	SELECT AVG ( t1.played ) , t1.3-dart_average from 2009 as t1 GROUP BY t1.3-dart_average	1-20463779-22
show all information on the 2009 that has the largest number of player.	SELECT * from 2009 as t1 ORDER BY t1.player DESC LIMIT 1	1-20463779-22
find the 3-dart average of 2009 which have 10 but no 22 as player .	SELECT t1.3-dart_average from 2009 as t1 WHERE t1.player = 10 EXCEPT SELECT t1.3-dart_average from 2009 as t1 WHERE t1.player = 22	1-20463779-22
list the 3-dart average which average 100 + is above 10 .	SELECT t1.3-dart_average from 2009 as t1 GROUP BY t1.3-dart_average HAVING AVG ( t1.100_+ ) >= 10	1-20463779-22
show the player of the 2009 that has the most 2009 .	SELECT t1.player from 2009 as t1 GROUP BY t1.player ORDER BY COUNT ( * ) DESC LIMIT 1	1-20463779-22
return the player and player of 2009 with the five lowest 100 + .	SELECT t1.player , t1.player from 2009 as t1 ORDER BY t1.100_+ LIMIT 5	1-20463779-22
how many 2009 are there that have more than {VALUE},0 player ?	SELECT COUNT ( * ) from 2009 as t1 GROUP BY t1.player HAVING COUNT ( * ) > 10 	1-20463779-22
show all information on the 2009 that has the largest number of player.	SELECT * from 2009 as t1 ORDER BY t1.player DESC LIMIT 1	1-20463779-22
