show the rr4 pts . and their total races of 1995 .	SELECT t1.rr4_pts_ , SUM ( t1.races ) from 1995 as t1 GROUP BY t1.rr4_pts_	1-21489362-2
what are the team name , team name , and team name of each 1995 ?	SELECT t1.team_name , t1.team_name , t1.team_name from 1995 as t1	1-21489362-2
please show the team name of the 1995 that have at least 10 records .	SELECT t1.team_name from 1995 as t1 GROUP BY t1.team_name HAVING COUNT ( * ) >= 10	1-21489362-2
show the team name and the number of unique team name containing each team name .	SELECT t1.team_name , COUNT ( DISTINCT t1.team_name ) from 1995 as t1 GROUP BY t1.team_name	1-21489362-2
what are the team name of all 1995 with rr4 pts . that is 10 ?	SELECT t1.team_name from 1995 as t1 GROUP BY t1.rr4_pts_ HAVING COUNT ( * ) = 10	1-21489362-2
please list the team name and team name of 1995 in descending order of rr1 pts . .	SELECT t1.team_name , t1.team_name from 1995 as t1 ORDER BY t1.rr1_pts_ DESC	1-21489362-2
what are the average rr3 pts . of 1995 , grouped by rr4 pts . ?	SELECT AVG ( t1.rr3_pts_ ) , t1.rr4_pts_ from 1995 as t1 GROUP BY t1.rr4_pts_	1-21489362-2
show the rr4 pts . of the 1995 that has the greatest number of 1995 .	SELECT t1.rr4_pts_ from 1995 as t1 GROUP BY t1.rr4_pts_ ORDER BY COUNT ( * ) DESC LIMIT 1	1-21489362-2
show the team name of the 1995 that has the most 1995 .	SELECT t1.team_name from 1995 as t1 GROUP BY t1.team_name ORDER BY COUNT ( * ) DESC LIMIT 1	1-21489362-2
what is the rr4 pts . and team name of the 1995 with maximum total pts . ?	SELECT t1.rr4_pts_ , t1.team_name from 1995 as t1 WHERE t1.total_pts_ = ( SELECT MAX ( t1.total_pts_ ) {FROM, 3} )	1-21489362-2
