what is the total pts . and team name of every 2003 that has a rr2 pts . lower than average ?	SELECT t1.total_pts_ , t1.team_name from 2003 as t1 WHERE t1.rr2_pts_ < ( SELECT AVG ( t1.rr2_pts_ ) {FROM, 3} )	1-21457754-2
what is the count of 2003 with more than 10 team name ?	SELECT COUNT ( * ) from 2003 as t1 GROUP BY t1.team_name HAVING COUNT ( * ) > 10 	1-21457754-2
what are the team name of all 2003 with team name that is 10 ?	SELECT t1.team_name from 2003 as t1 GROUP BY t1.team_name HAVING COUNT ( * ) = 10	1-21457754-2
what are the team name that have greater won than any won in 2003 ?	SELECT t1.team_name from 2003 as t1 WHERE t1.won > ( SELECT MIN ( t1.won ) from 2003 as t1 )	1-21457754-2
show the team name of 2003 whose team name are not 10.	SELECT t1.team_name from 2003 as t1 WHERE t1.team_name ! = 10	1-21457754-2
how many 2003 are there in team name 10 or 18 ?	SELECT COUNT ( * ) from 2003 as t1 WHERE t1.team_name = 10 OR t1.team_name = 18	1-21457754-2
find the total pts . of the 2003 with the highest races.	SELECT t1.total_pts_ from 2003 as t1 WHERE t1.races = ( SELECT MAX ( t1.races ) from 2003 as t1 )	1-21457754-2
show the team name with fewer than 3 2003 .	SELECT t1.team_name from 2003 as t1 GROUP BY t1.team_name HAVING COUNT ( * ) < 3	1-21457754-2
which total pts . has both 2003 with less than 10 ranking and 2003 with more than 30 ranking ?	SELECT t1.total_pts_ from 2003 as t1 WHERE t1.ranking < 10 INTERSECT SELECT t1.total_pts_ from 2003 as t1 WHERE t1.ranking > 30	1-21457754-2
what is the maximum and mininum races {COLUMN} for all 2003 ?	SELECT MAX ( t1.races ) , MIN ( t1.races ) from 2003 as t1	1-21457754-2
