what are the opponent for all 1928 , and what is the total {black knights points for each ?	SELECT t1.opponent , SUM ( t1.black_knights_points ) from 1928 as t1 GROUP BY t1.opponent	1-21091157-1
what are the result and date of each 1928 ?	SELECT t1.result , t1.date from 1928 as t1	1-21091157-1
please list the record and result of 1928 in descending order of opponents .	SELECT t1.record , t1.result from 1928 as t1 ORDER BY t1.opponents DESC	1-21091157-1
find the distinct COLUMN_NAME,0} of all 1928 that have game higher than some 1928 from 10 {COLUMN_NAME_2} .	SELECT DISTINCT t1.record from 1928 as t1 WHERE t1.game > ( SELECT MIN ( t1.record ) from 1928 as t1 WHERE t1.record = 10 )	1-21091157-1
which date have greater opponents than that of any opponents in 1928 ?	SELECT t1.date from 1928 as t1 WHERE t1.opponents > ( SELECT MIN ( t1.opponents ) from 1928 as t1 )	1-21091157-1
find the result of 1928 which are record 10 but not record 76 .	SELECT t1.result from 1928 as t1 WHERE t1.record = 10 EXCEPT SELECT t1.result from 1928 as t1 WHERE t1.record = 76	1-21091157-1
find the number of 1928 whose date contain the word 10 .	SELECT COUNT ( * ) from 1928 as t1 WHERE t1.date LIKE 10	1-21091157-1
what is the result of the 1928 with the minimum black knights points ?	SELECT t1.result from 1928 as t1 ORDER BY t1.black_knights_points ASC LIMIT 1	1-21091157-1
which date have less than 3 in 1928 ?	SELECT t1.date from 1928 as t1 GROUP BY t1.date HAVING COUNT ( * ) < 3	1-21091157-1
list the record of the 1928 whose opponent is not 10 .	SELECT t1.record from 1928 as t1 WHERE t1.opponent ! = 10	1-21091157-1
