return the avg and avg of 2009 with the five lowest total pld .	SELECT t1.avg , t1.avg from 2009 as t1 ORDER BY t1.total_pld LIMIT 5	1-22011138-7
what is the avg of 2009 with the maximum pos across all 2009 ?	SELECT t1.avg from 2009 as t1 WHERE t1.pos = ( SELECT MAX ( t1.pos ) from 2009 as t1 )	1-22011138-7
how many 2009 have avg that contains 10 ?	SELECT COUNT ( * ) from 2009 as t1 WHERE t1.avg LIKE 10	1-22011138-7
find the avg of the 2009 with the highest total pts .	SELECT t1.avg from 2009 as t1 ORDER BY t1.total_pts DESC LIMIT 1	1-22011138-7
how many 2009 are there in team 10 or 41 ?	SELECT COUNT ( * ) from 2009 as t1 WHERE t1.team = 10 OR t1.team = 41	1-22011138-7
display the avg , avg , and team for each 2009 .	SELECT t1.avg , t1.avg , t1.team from 2009 as t1	1-22011138-7
which avg has both 2009 with less than 10 total pld and 2009 with more than 43 total pld ?	SELECT t1.avg from 2009 as t1 WHERE t1.total_pld < 10 INTERSECT SELECT t1.avg from 2009 as t1 WHERE t1.total_pld > 43	1-22011138-7
how many 2009 have avg that contains 10 ?	SELECT COUNT ( * ) from 2009 as t1 WHERE t1.avg LIKE 10	1-22011138-7
sort the list of avg and avg of all 2009 in the descending order of total pts .	SELECT t1.avg , t1.avg from 2009 as t1 ORDER BY t1.total_pts DESC	1-22011138-7
return the avg of the largest total pts.	SELECT t1.avg from 2009 as t1 ORDER BY t1.total_pts DESC LIMIT 1	1-22011138-7
