find the games w-l of 1970 who have both 10 and 38 standings .	SELECT t1.games_w-l from 1970 as t1 WHERE t1.standings = 10 INTERSECT SELECT t1.games_w-l from 1970 as t1 WHERE t1.standings = 38	1-23133482-1
find the player of the 1970 that is most frequent across all player .	SELECT t1.player from 1970 as t1 GROUP BY t1.player ORDER BY COUNT ( * ) DESC LIMIT 1	1-23133482-1
find the rr w-l which have exactly 10 1970 .	SELECT t1.rr_w-l from 1970 as t1 GROUP BY t1.rr_w-l HAVING COUNT ( * ) = 10	1-23133482-1
what is the minimum standings in each sets w-l ?	SELECT MIN ( t1.standings ) , t1.sets_w-l from 1970 as t1 GROUP BY t1.sets_w-l	1-23133482-1
find the distinct COLUMN_NAME,0} of all 1970 that have standings higher than some 1970 from 10 {COLUMN_NAME_2} .	SELECT DISTINCT t1.sets_w-l from 1970 as t1 WHERE t1.standings > ( SELECT MIN ( t1.sets_w-l ) from 1970 as t1 WHERE t1.games_w-l = 10 )	1-23133482-1
what is all the information on the 1970 with the largest number of player ?	SELECT * from 1970 as t1 ORDER BY t1.player DESC LIMIT 1	1-23133482-1
show all information on the 1970 that has the largest number of sets w-l.	SELECT * from 1970 as t1 ORDER BY t1.sets_w-l DESC LIMIT 1	1-23133482-1
which sets w-l has both 1970 with less than 10 standings and 1970 with more than 36 standings ?	SELECT t1.sets_w-l from 1970 as t1 WHERE t1.standings < 10 INTERSECT SELECT t1.sets_w-l from 1970 as t1 WHERE t1.standings > 36	1-23133482-1
what is the rr w-l and sets w-l of the 1970 with maximum standings ?	SELECT t1.rr_w-l , t1.sets_w-l from 1970 as t1 WHERE t1.standings = ( SELECT MAX ( t1.standings ) {FROM, 3} )	1-23133482-1
find the sets w-l of the 1970 with the highest standings.	SELECT t1.sets_w-l from 1970 as t1 WHERE t1.standings = ( SELECT MAX ( t1.standings ) from 1970 as t1 )	1-23133482-1
