how many list have period that contains 10 ?	SELECT COUNT ( * ) from list as t1 WHERE t1.period LIKE 10	1-24565004-17
what are all the name and position?	SELECT t1.name , t1.position from list as t1	1-24565004-17
display the period , name , and name for each list .	SELECT t1.period , t1.name , t1.name from list as t1	1-24565004-17
give the period that has the most list .	SELECT t1.period from list as t1 GROUP BY t1.period ORDER BY COUNT ( * ) DESC LIMIT 1	1-24565004-17
count the number of list in period 10 or 100 .	SELECT COUNT ( * ) from list as t1 WHERE t1.period = 10 OR t1.period = 100	1-24565004-17
what are all the name and period?	SELECT t1.name , t1.period from list as t1	1-24565004-17
how many list are there that have more than {VALUE},0 name ?	SELECT COUNT ( * ) from list as t1 GROUP BY t1.name HAVING COUNT ( * ) > 10 	1-24565004-17
what are the name of all list that have 10 or more list ?	SELECT t1.name from list as t1 GROUP BY t1.name HAVING COUNT ( * ) >= 10	1-24565004-17
find the number of list that have more than 10 period .	SELECT COUNT ( * ) from list as t1 GROUP BY t1.period HAVING COUNT ( * ) > 10 	1-24565004-17
find the position of list who have more than 10 list .	SELECT t1.position from list as t1 GROUP BY t1.position HAVING COUNT ( * ) > 10	1-24565004-17
