what is the count of 2004 with more than 10 player ?	SELECT COUNT ( * ) from 2004 as t1 GROUP BY t1.player HAVING COUNT ( * ) > 10 	1-24912693-4
find the player of the 2004 with the highest points.	SELECT t1.player from 2004 as t1 WHERE t1.points = ( SELECT MAX ( t1.points ) from 2004 as t1 )	1-24912693-4
please list the player and player of 2004 in descending order of assists .	SELECT t1.player , t1.player from 2004 as t1 ORDER BY t1.assists DESC	1-24912693-4
list all player which have assists higher than the average .	SELECT t1.player from 2004 as t1 WHERE t1.assists > ( SELECT AVG ( t1.assists ) from 2004 as t1	1-24912693-4
what are the player of 2004 whose player is not 10 ?	SELECT t1.player from 2004 as t1 WHERE t1.player ! = 10	1-24912693-4
how many 2004 are there for each player ? list the smallest count first .	SELECT t1.player , COUNT ( * ) from 2004 as t1 GROUP BY t1.player ORDER BY COUNT ( * )	1-24912693-4
what is the player and player of every 2004 that has a field goals lower than average ?	SELECT t1.player , t1.player from 2004 as t1 WHERE t1.field_goals < ( SELECT AVG ( t1.field_goals ) {FROM, 3} )	1-24912693-4
which player have less than 3 in 2004 ?	SELECT t1.player from 2004 as t1 GROUP BY t1.player HAVING COUNT ( * ) < 3	1-24912693-4
find the player of 2004 which have 10 but no 33 as player .	SELECT t1.player from 2004 as t1 WHERE t1.player = 10 EXCEPT SELECT t1.player from 2004 as t1 WHERE t1.player = 33	1-24912693-4
what are the distinct player with steals between 10 and 1 ?	SELECT DISTINCT t1.player from 2004 as t1 WHERE t1.steals BETWEEN 10 AND 1	1-24912693-4
