select the average rank of each 2010 's sat 29 may .	SELECT AVG ( t1.rank ) , t1.sat_29_may from 2010 as t1 GROUP BY t1.sat_29_may	1-25220821-4
which t1.thurs_3_june has least number of 2010 ?	SELECT t1.thurs_3_june from 2010 as t1 GROUP BY t1.thurs_3_june ORDER BY COUNT ( * ) LIMIT 1	1-25220821-4
which thurs 3 june has most number of 2010 ?	SELECT t1.thurs_3_june from 2010 as t1 GROUP BY t1.thurs_3_june ORDER BY COUNT ( * ) DESC LIMIT 1	1-25220821-4
find the mon 31 may of 2010 who have both 10 and 23 rank .	SELECT t1.mon_31_may from 2010 as t1 WHERE t1.rank = 10 INTERSECT SELECT t1.mon_31_may from 2010 as t1 WHERE t1.rank = 23	1-25220821-4
what are the thurs 3 june and tues 1 june of all 2010 sorted by decreasing rank ?	SELECT t1.thurs_3_june , t1.tues_1_june from 2010 as t1 ORDER BY t1.rank DESC	1-25220821-4
which thurs 3 june have less than 3 in 2010 ?	SELECT t1.thurs_3_june from 2010 as t1 GROUP BY t1.thurs_3_june HAVING COUNT ( * ) < 3	1-25220821-4
list all information about 2010 .	SELECT * FROM 2010	1-25220821-4
which tues 1 june have greater rank than that of any rank in 2010 ?	SELECT t1.tues_1_june from 2010 as t1 WHERE t1.rank > ( SELECT MIN ( t1.rank ) from 2010 as t1 )	1-25220821-4
what are the thurs 3 june more than 10 2010 have ?	SELECT t1.thurs_3_june from 2010 as t1 GROUP BY t1.thurs_3_june HAVING COUNT ( * ) > 10	1-25220821-4
how many 2010 are there in mon 31 may 10 or 98 ?	SELECT COUNT ( * ) from 2010 as t1 WHERE t1.mon_31_may = 10 OR t1.mon_31_may = 98	1-25220821-4
