what is the skip of 2010 with the maximum shot % across all 2010 ?	SELECT t1.skip from 2010 as t1 WHERE t1.shot_ = ( SELECT MAX ( t1.shot_ ) from 2010 as t1 )	1-25107064-2
what is the minimum pa in each skip ?	SELECT MIN ( t1.pa ) , t1.skip from 2010 as t1 GROUP BY t1.skip	1-25107064-2
find the skip of the 2010 with the largest l .	SELECT t1.skip from 2010 as t1 ORDER BY t1.l DESC LIMIT 1	1-25107064-2
how many 2010 does each country have ?	SELECT t1.country , COUNT ( * ) from 2010 as t1 GROUP BY t1.country ORDER BY COUNT ( * )	1-25107064-2
what is the skip of the 2010 with least number of skip ?	SELECT t1.skip from 2010 as t1 GROUP BY t1.skip ORDER BY COUNT ( * ) ASC LIMIT 1	1-25107064-2
what is the minimum pf in each skip ?	SELECT MIN ( t1.pf ) , t1.skip from 2010 as t1 GROUP BY t1.skip	1-25107064-2
list the skip which average l is above 10 .	SELECT t1.skip from 2010 as t1 GROUP BY t1.skip HAVING AVG ( t1.l ) >= 10	1-25107064-2
return the skip and country of 2010 with the five lowest blank ends .	SELECT t1.skip , t1.country from 2010 as t1 ORDER BY t1.blank_ends LIMIT 5	1-25107064-2
list the skip , skip and the skip of the 2010 .	SELECT t1.skip , t1.skip , t1.skip from 2010 as t1	1-25107064-2
select the average pa of each 2010 's country .	SELECT AVG ( t1.pa ) , t1.country from 2010 as t1 GROUP BY t1.country	1-25107064-2
