find the win of 2010 who have both 10 and 69 # .	SELECT t1.win from 2010 as t1 WHERE t1.# = 10 INTERSECT SELECT t1.win from 2010 as t1 WHERE t1.# = 69	1-28001186-8
find the distinct opponent of 2010 having # between 10 and 30 .	SELECT DISTINCT t1.opponent from 2010 as t1 WHERE t1.# BETWEEN 10 AND 30	1-28001186-8
what are the average # of 2010 for different loss ?	SELECT AVG ( t1.# ) , t1.loss from 2010 as t1 GROUP BY t1.loss	1-28001186-8
what is the minimum attendance in each date ?	SELECT MIN ( t1.attendance ) , t1.date from 2010 as t1 GROUP BY t1.date	1-28001186-8
what are the score and site/stadium of each 2010 ?	SELECT t1.score , t1.site/stadium from 2010 as t1	1-28001186-8
what are the average # of 2010 , grouped by date ?	SELECT AVG ( t1.# ) , t1.date from 2010 as t1 GROUP BY t1.date	1-28001186-8
list all score which have # higher than the average .	SELECT t1.score from 2010 as t1 WHERE t1.# > ( SELECT AVG ( t1.# ) from 2010 as t1	1-28001186-8
what is all the information on the 2010 with the largest number of date ?	SELECT * from 2010 as t1 ORDER BY t1.date DESC LIMIT 1	1-28001186-8
what are the date for all 2010 , and what is the total {attendance for each ?	SELECT t1.date , SUM ( t1.attendance ) from 2010 as t1 GROUP BY t1.date	1-28001186-8
return the score of the largest attendance.	SELECT t1.score from 2010 as t1 ORDER BY t1.attendance DESC LIMIT 1	1-28001186-8
