give the t1.skip with the fewest 2012 .	SELECT t1.skip from 2012 as t1 GROUP BY t1.skip ORDER BY COUNT ( * ) LIMIT 1	1-29704430-1
find the skip of the 2012 with the highest blank ends.	SELECT t1.skip from 2012 as t1 WHERE t1.blank_ends = ( SELECT MAX ( t1.blank_ends ) from 2012 as t1 )	1-29704430-1
what are all the skip and skip?	SELECT t1.skip , t1.skip from 2012 as t1	1-29704430-1
what are the distinct locale with pa between 10 and 34 ?	SELECT DISTINCT t1.locale from 2012 as t1 WHERE t1.pa BETWEEN 10 AND 34	1-29704430-1
find the skip of the 2012 with the largest w .	SELECT t1.skip from 2012 as t1 ORDER BY t1.w DESC LIMIT 1	1-29704430-1
what are the skip , skip , and skip of each 2012 ?	SELECT t1.skip , t1.skip , t1.locale from 2012 as t1	1-29704430-1
what are the skip and locale of the {COLUMN} who have stolen ends above five or w below ten ?	SELECT t1.skip , t1.locale from 2012 as t1 WHERE t1.stolen_ends > 5 OR t1.w < 10	1-29704430-1
what is the minimum blank ends in each locale ?	SELECT MIN ( t1.blank_ends ) , t1.locale from 2012 as t1 GROUP BY t1.locale	1-29704430-1
return the skip and locale of 2012 with the five lowest w .	SELECT t1.skip , t1.locale from 2012 as t1 ORDER BY t1.w LIMIT 5	1-29704430-1
return the locale of the 2012 with the fewest stolen ends .	SELECT t1.locale from 2012 as t1 ORDER BY t1.stolen_ends ASC LIMIT 1	1-29704430-1
