what is the fri 26 aug and fri 26 aug of the 2011 with the top 5 smallest rank ?	SELECT t1.fri_26_aug , t1.fri_26_aug from 2011 as t1 ORDER BY t1.rank LIMIT 5	1-30058355-2
which thurs 25 aug is the most frequent thurs 25 aug?	SELECT t1.thurs_25_aug from 2011 as t1 GROUP BY t1.thurs_25_aug ORDER BY COUNT ( * ) DESC LIMIT 1	1-30058355-2
show the fri 26 aug shared by more than 10 2011 .	SELECT t1.fri_26_aug from 2011 as t1 GROUP BY t1.fri_26_aug HAVING COUNT ( * ) > 10	1-30058355-2
what are the distinct sat 20 aug with rank between 10 and 7 ?	SELECT DISTINCT t1.sat_20_aug from 2011 as t1 WHERE t1.rank BETWEEN 10 AND 7	1-30058355-2
find the wed 24 aug of 2011 whose rank is more than the average rank of 2011 .	SELECT t1.wed_24_aug from 2011 as t1 WHERE t1.rank > ( SELECT AVG ( t1.rank ) from 2011 as t1	1-30058355-2
what are the rider and tues 23 aug ?	SELECT t1.rider , t1.tues_23_aug from 2011 as t1	1-30058355-2
show the tues 23 aug and the number of 2011 for each tues 23 aug in the ascending order.	SELECT t1.tues_23_aug , COUNT ( * ) from 2011 as t1 GROUP BY t1.tues_23_aug ORDER BY COUNT ( * )	1-30058355-2
how many 2011 are there that have more than {VALUE},0 mon 22 aug ?	SELECT COUNT ( * ) from 2011 as t1 GROUP BY t1.mon_22_aug HAVING COUNT ( * ) > 10 	1-30058355-2
what is the wed 24 aug of the 2011 with the smallest rank ?	SELECT t1.wed_24_aug from 2011 as t1 ORDER BY t1.rank ASC LIMIT 1	1-30058355-2
what are the thurs 25 aug of all 2011 with thurs 25 aug that is 10 ?	SELECT t1.thurs_25_aug from 2011 as t1 GROUP BY t1.thurs_25_aug HAVING COUNT ( * ) = 10	1-30058355-2
