what are the average crowd of 1928 for different venue ?	SELECT AVG ( t1.crowd ) , t1.venue from 1928 as t1 GROUP BY t1.venue	2-10766119-6
which away team score have greater crowd than that of any crowd in 1928 ?	SELECT t1.away_team_score from 1928 as t1 WHERE t1.crowd > ( SELECT MIN ( t1.crowd ) from 1928 as t1 )	2-10766119-6
what is the venue of the most common 1928 in all venue ?	SELECT t1.venue from 1928 as t1 GROUP BY t1.venue ORDER BY COUNT ( * ) DESC LIMIT 1	2-10766119-6
find the away team and home team score of the 1928 whose crowd is lower than the average crowd of all 1928 .	SELECT t1.away_team , t1.home_team_score from 1928 as t1 WHERE t1.crowd < ( SELECT AVG ( t1.crowd ) {FROM, 3} )	2-10766119-6
show away team and home team score of 1928 .	SELECT t1.away_team , t1.home_team_score from 1928 as t1	2-10766119-6
which date has the least crowd ?	SELECT t1.date from 1928 as t1 ORDER BY t1.crowd ASC LIMIT 1	2-10766119-6
find the venue of the 1928 with the highest crowd .	SELECT t1.venue from 1928 as t1 ORDER BY t1.crowd DESC LIMIT 1	2-10766119-6
show home team and home team of 1928 .	SELECT t1.home_team , t1.home_team from 1928 as t1	2-10766119-6
list date and date who have crowd greater than 5 or crowd shorter than 10 .	SELECT t1.date , t1.date from 1928 as t1 WHERE t1.crowd > 5 OR t1.crowd < 10	2-10766119-6
list date and away team who have crowd greater than 5 or crowd shorter than 10 .	SELECT t1.date , t1.away_team from 1928 as t1 WHERE t1.crowd > 5 OR t1.crowd < 10	2-10766119-6
