what are the average crowd of 1936 for different away team ?	SELECT AVG ( t1.crowd ) , t1.away_team from 1936 as t1 GROUP BY t1.away_team	2-10790804-15
what is the away team and away team of the 1936 with the top 5 smallest crowd ?	SELECT t1.away_team , t1.away_team from 1936 as t1 ORDER BY t1.crowd LIMIT 5	2-10790804-15
which home team has both 1936 with less than 10 crowd and 1936 with more than 82 crowd ?	SELECT t1.home_team from 1936 as t1 WHERE t1.crowd < 10 INTERSECT SELECT t1.home_team from 1936 as t1 WHERE t1.crowd > 82	2-10790804-15
find all home team that have fewer than three in 1936 .	SELECT t1.home_team from 1936 as t1 GROUP BY t1.home_team HAVING COUNT ( * ) < 3	2-10790804-15
what is the date and home team of the 1936 with maximum crowd ?	SELECT t1.date , t1.home_team from 1936 as t1 WHERE t1.crowd = ( SELECT MAX ( t1.crowd ) {FROM, 3} )	2-10790804-15
give the maximum and minimum crowd of all 1936 .	SELECT MAX ( t1.crowd ) , MIN ( t1.crowd ) from 1936 as t1	2-10790804-15
what are the date and away team of each 1936 ?	SELECT t1.date , t1.away_team from 1936 as t1	2-10790804-15
what are the venue and home team of each 1936 ?	SELECT t1.venue , t1.home_team from 1936 as t1	2-10790804-15
what is the t1.venue of 1936 that has fewest number of 1936 ?	SELECT t1.venue from 1936 as t1 GROUP BY t1.venue ORDER BY COUNT ( * ) LIMIT 1	2-10790804-15
which date is the most frequent date?	SELECT t1.date from 1936 as t1 GROUP BY t1.date ORDER BY COUNT ( * ) DESC LIMIT 1	2-10790804-15
