list the date which average week is above 10 .	SELECT t1.date from 1959 as t1 GROUP BY t1.date HAVING AVG ( t1.week ) >= 10	2-10651674-1
which opponent has both 1959 with less than 10 week and 1959 with more than 63 week ?	SELECT t1.opponent from 1959 as t1 WHERE t1.week < 10 INTERSECT SELECT t1.opponent from 1959 as t1 WHERE t1.week > 63	2-10651674-1
what are the opponent of all 1959 with opponent that is 10 ?	SELECT t1.opponent from 1959 as t1 GROUP BY t1.opponent HAVING COUNT ( * ) = 10	2-10651674-1
list result and opponent who have attendance greater than 5 or week shorter than 10 .	SELECT t1.result , t1.opponent from 1959 as t1 WHERE t1.attendance > 5 OR t1.week < 10	2-10651674-1
what are the opponent and date of each 1959 ?	SELECT t1.opponent , t1.date from 1959 as t1	2-10651674-1
list date and date who have attendance greater than 5 or attendance shorter than 10 .	SELECT t1.date , t1.date from 1959 as t1 WHERE t1.attendance > 5 OR t1.attendance < 10	2-10651674-1
which opponent has both 1959 with less than 10 attendance and 1959 with more than 15 attendance ?	SELECT t1.opponent from 1959 as t1 WHERE t1.attendance < 10 INTERSECT SELECT t1.opponent from 1959 as t1 WHERE t1.attendance > 15	2-10651674-1
find the result who has exactly 10 1959 .	SELECT t1.result from 1959 as t1 GROUP BY t1.result HAVING COUNT ( * ) = 10	2-10651674-1
list the date of {1959 which has number of 1959 greater than 10 .	SELECT t1.date from 1959 as t1 GROUP BY t1.date HAVING COUNT ( * ) > 10	2-10651674-1
what are the opponent for 1959 who have more than the average week?	SELECT t1.opponent from 1959 as t1 WHERE t1.week > ( SELECT AVG ( t1.week ) from 1959 as t1	2-10651674-1
