show the home team score and the number of unique home team containing each home team score .	SELECT t1.home_team_score , COUNT ( DISTINCT t1.home_team ) from 1927 as t1 GROUP BY t1.home_team_score	2-10747009-12
find the home team of 1927 which have both 10 and 54 as home team .	SELECT t1.home_team from 1927 as t1 WHERE t1.crowd = 10 INTERSECT SELECT t1.home_team from 1927 as t1 WHERE t1.crowd = 54	2-10747009-12
find the venue of 1927 which have both 10 and 13 as venue .	SELECT t1.venue from 1927 as t1 WHERE t1.crowd = 10 INTERSECT SELECT t1.venue from 1927 as t1 WHERE t1.crowd = 13	2-10747009-12
find the away team of 1927 which have both 10 and 99 as away team .	SELECT t1.away_team from 1927 as t1 WHERE t1.crowd = 10 INTERSECT SELECT t1.away_team from 1927 as t1 WHERE t1.crowd = 99	2-10747009-12
show the away team score of 1927 who have at least 10 1927 .	SELECT t1.away_team_score from 1927 as t1 GROUP BY t1.away_team_score HAVING COUNT ( * ) >= 10	2-10747009-12
what is the count of 1927 with more than 10 date ?	SELECT COUNT ( * ) from 1927 as t1 GROUP BY t1.date HAVING COUNT ( * ) > 10 	2-10747009-12
please show the home team of the 1927 that have at least 10 records .	SELECT t1.home_team from 1927 as t1 GROUP BY t1.home_team HAVING COUNT ( * ) >= 10	2-10747009-12
list all information about 1927 .	SELECT * FROM 1927	2-10747009-12
find all away team that have fewer than three in 1927 .	SELECT t1.away_team from 1927 as t1 GROUP BY t1.away_team HAVING COUNT ( * ) < 3	2-10747009-12
list all information about 1927 .	SELECT * FROM 1927	2-10747009-12
