what are the venue of 1977 with crowd greater than the average of all 1977 ?	SELECT t1.venue from 1977 as t1 WHERE t1.crowd > ( SELECT AVG ( t1.crowd ) from 1977 as t1	2-10887379-19
what is the away team score and date of the 1977 with maximum crowd ?	SELECT t1.away_team_score , t1.date from 1977 as t1 WHERE t1.crowd = ( SELECT MAX ( t1.crowd ) {FROM, 3} )	2-10887379-19
what is the venue of the 1977 with the minimum crowd ?	SELECT t1.venue from 1977 as t1 ORDER BY t1.crowd ASC LIMIT 1	2-10887379-19
what is the count of 1977 with more than 10 away team score ?	SELECT COUNT ( * ) from 1977 as t1 GROUP BY t1.away_team_score HAVING COUNT ( * ) > 10 	2-10887379-19
what is the home team score and home team score of the 1977 with maximum crowd ?	SELECT t1.home_team_score , t1.home_team_score from 1977 as t1 WHERE t1.crowd = ( SELECT MAX ( t1.crowd ) {FROM, 3} )	2-10887379-19
return the maximum and minimum crowd across all 1977 .	SELECT MAX ( t1.crowd ) , MIN ( t1.crowd ) from 1977 as t1	2-10887379-19
what are the away team score more than 10 1977 have ?	SELECT t1.away_team_score from 1977 as t1 GROUP BY t1.away_team_score HAVING COUNT ( * ) > 10	2-10887379-19
show all information on the 1977 that has the largest number of venue.	SELECT * from 1977 as t1 ORDER BY t1.venue DESC LIMIT 1	2-10887379-19
return each venue with the number of 1977 in ascending order of the number of venue .	SELECT t1.venue , COUNT ( * ) from 1977 as t1 GROUP BY t1.venue ORDER BY COUNT ( * )	2-10887379-19
what are the away team score of 1977 whose date is not 10 ?	SELECT t1.away_team_score from 1977 as t1 WHERE t1.date ! = 10	2-10887379-19
