what are the {away team of all the 1933 , and the total crowd by each ?	SELECT t1.away_team , SUM ( t1.crowd ) from 1933 as t1 GROUP BY t1.away_team	2-10790397-17
list the home team score which average crowd is above 10 .	SELECT t1.home_team_score from 1933 as t1 GROUP BY t1.home_team_score HAVING AVG ( t1.crowd ) >= 10	2-10790397-17
which venue have an average crowd over 10 ?	SELECT t1.venue from 1933 as t1 GROUP BY t1.venue HAVING AVG ( t1.crowd ) >= 10	2-10790397-17
what is the date and away team score of the 1933 with maximum crowd ?	SELECT t1.date , t1.away_team_score from 1933 as t1 WHERE t1.crowd = ( SELECT MAX ( t1.crowd ) {FROM, 3} )	2-10790397-17
show the away team score and the number of unique venue containing each away team score .	SELECT t1.away_team_score , COUNT ( DISTINCT t1.venue ) from 1933 as t1 GROUP BY t1.away_team_score	2-10790397-17
how many 1933 are there that have more than {VALUE},0 date ?	SELECT COUNT ( * ) from 1933 as t1 GROUP BY t1.date HAVING COUNT ( * ) > 10 	2-10790397-17
what are the away team for all 1933 , and what is the total {crowd for each ?	SELECT t1.away_team , SUM ( t1.crowd ) from 1933 as t1 GROUP BY t1.away_team	2-10790397-17
which t1.away_team has the smallest amount of 1933?	SELECT t1.away_team from 1933 as t1 GROUP BY t1.away_team ORDER BY COUNT ( * ) LIMIT 1	2-10790397-17
give the maximum and minimum crowd of all 1933 .	SELECT MAX ( t1.crowd ) , MIN ( t1.crowd ) from 1933 as t1	2-10790397-17
how many 1933 are there in date 10 or 11 ?	SELECT COUNT ( * ) from 1933 as t1 WHERE t1.date = 10 OR t1.date = 11	2-10790397-17
