show date for all 2004 whose week are greater than the average .	SELECT t1.date from 2004 as t1 WHERE t1.week > ( SELECT AVG ( t1.week ) from 2004 as t1	2-10653722-1
find the attendance of the 2004 which have record 10 but not 50 .	SELECT t1.attendance from 2004 as t1 WHERE t1.record = 10 EXCEPT SELECT t1.attendance from 2004 as t1 WHERE t1.record = 50	2-10653722-1
show the opponent with fewer than 3 2004 .	SELECT t1.opponent from 2004 as t1 GROUP BY t1.opponent HAVING COUNT ( * ) < 3	2-10653722-1
show date for all 2004 whose week are greater than the average .	SELECT t1.date from 2004 as t1 WHERE t1.week > ( SELECT AVG ( t1.week ) from 2004 as t1	2-10653722-1
what is the count of 2004 with more than 10 opponent ?	SELECT COUNT ( * ) from 2004 as t1 GROUP BY t1.opponent HAVING COUNT ( * ) > 10 	2-10653722-1
find the date of 2004 which have both 10 and 84 as date .	SELECT t1.date from 2004 as t1 WHERE t1.week = 10 INTERSECT SELECT t1.date from 2004 as t1 WHERE t1.week = 84	2-10653722-1
find the distinct opponent of 2004 having week between 10 and 39 .	SELECT DISTINCT t1.opponent from 2004 as t1 WHERE t1.week BETWEEN 10 AND 39	2-10653722-1
which record is the most frequent record?	SELECT t1.record from 2004 as t1 GROUP BY t1.record ORDER BY COUNT ( * ) DESC LIMIT 1	2-10653722-1
show the opponent , result , and result of all the 2004 .	SELECT t1.opponent , t1.result , t1.result from 2004 as t1	2-10653722-1
what is the result of highest week ?	SELECT t1.result from 2004 as t1 ORDER BY t1.week DESC LIMIT 1	2-10653722-1
