what is the away team score and home team of the 1938 with maximum crowd ?	SELECT t1.away_team_score , t1.home_team from 1938 as t1 WHERE t1.crowd = ( SELECT MAX ( t1.crowd ) {FROM, 3} )	2-10806592-10
what are the {home team score of all the 1938 , and the total crowd by each ?	SELECT t1.home_team_score , SUM ( t1.crowd ) from 1938 as t1 GROUP BY t1.home_team_score	2-10806592-10
what are the {away team of all the 1938 , and the total crowd by each ?	SELECT t1.away_team , SUM ( t1.crowd ) from 1938 as t1 GROUP BY t1.away_team	2-10806592-10
show the away team score of 1938 who have at least 10 1938 .	SELECT t1.away_team_score from 1938 as t1 GROUP BY t1.away_team_score HAVING COUNT ( * ) >= 10	2-10806592-10
what are all the away team and home team score?	SELECT t1.away_team , t1.home_team_score from 1938 as t1	2-10806592-10
which date have less than 3 in 1938 ?	SELECT t1.date from 1938 as t1 GROUP BY t1.date HAVING COUNT ( * ) < 3	2-10806592-10
how many 1938 have away team that contains 10 ?	SELECT COUNT ( * ) from 1938 as t1 WHERE t1.away_team LIKE 10	2-10806592-10
find the home team score of the 1938 who has the largest number of 1938 .	SELECT t1.home_team_score from 1938 as t1 GROUP BY t1.home_team_score ORDER BY COUNT ( * ) DESC LIMIT 1	2-10806592-10
what is the date of the 1938 with least number of date ?	SELECT t1.date from 1938 as t1 GROUP BY t1.date ORDER BY COUNT ( * ) ASC LIMIT 1	2-10806592-10
select the average crowd of each 1938 's away team score .	SELECT AVG ( t1.crowd ) , t1.away_team_score from 1938 as t1 GROUP BY t1.away_team_score	2-10806592-10
