what are the opponent of the 1985 that have exactly 10 1985 ?	SELECT t1.opponent from 1985 as t1 GROUP BY t1.opponent HAVING COUNT ( * ) = 10	2-10647639-1
what is the game site and opponent of the 1985 with maximum attendance ?	SELECT t1.game_site , t1.opponent from 1985 as t1 WHERE t1.attendance = ( SELECT MAX ( t1.attendance ) {FROM, 3} )	2-10647639-1
find the date of 1985 which are game site 10 but not game site 15 .	SELECT t1.date from 1985 as t1 WHERE t1.game_site = 10 EXCEPT SELECT t1.date from 1985 as t1 WHERE t1.game_site = 15	2-10647639-1
what are the result and result of each 1985 ?	SELECT t1.result , t1.result from 1985 as t1	2-10647639-1
find the number of 1985 that have more than 10 date .	SELECT COUNT ( * ) from 1985 as t1 GROUP BY t1.date HAVING COUNT ( * ) > 10 	2-10647639-1
what are the date that have greater attendance than any attendance in 1985 ?	SELECT t1.date from 1985 as t1 WHERE t1.attendance > ( SELECT MIN ( t1.attendance ) from 1985 as t1 )	2-10647639-1
find the date of the 1985 which have opponent 10 but not 73 .	SELECT t1.date from 1985 as t1 WHERE t1.opponent = 10 EXCEPT SELECT t1.date from 1985 as t1 WHERE t1.opponent = 73	2-10647639-1
find the game site of 1985 whose week is higher than the average week .	SELECT t1.game_site from 1985 as t1 WHERE t1.week > ( SELECT AVG ( t1.week ) from 1985 as t1	2-10647639-1
find the result of 1985 which are record 10 but not record 51 .	SELECT t1.result from 1985 as t1 WHERE t1.record = 10 EXCEPT SELECT t1.result from 1985 as t1 WHERE t1.record = 51	2-10647639-1
show date for all 1985 whose attendance are greater than the average .	SELECT t1.date from 1985 as t1 WHERE t1.attendance > ( SELECT AVG ( t1.attendance ) from 1985 as t1	2-10647639-1
