which team have an average against over 10 ?	SELECT t1.team from 2006 as t1 GROUP BY t1.team HAVING AVG ( t1.against ) >= 10	2-10814485-3
what are the team that have greater points than any points in 2006 ?	SELECT t1.team from 2006 as t1 WHERE t1.points > ( SELECT MIN ( t1.points ) from 2006 as t1 )	2-10814485-3
count the number of 2006 in team 10 or 91 .	SELECT COUNT ( * ) from 2006 as t1 WHERE t1.team = 10 OR t1.team = 91	2-10814485-3
what are the distinct COLUMN_NAME,0} of every 2006 that has a greater lost than some 2006 with 10 {COLUMN_NAME_2} ?	SELECT DISTINCT t1.team from 2006 as t1 WHERE t1.lost > ( SELECT MIN ( t1.team ) from 2006 as t1 WHERE t1.team = 10 )	2-10814485-3
find all team that have fewer than three in 2006 .	SELECT t1.team from 2006 as t1 GROUP BY t1.team HAVING COUNT ( * ) < 3	2-10814485-3
what is the count of 2006 with more than 10 team ?	SELECT COUNT ( * ) from 2006 as t1 GROUP BY t1.team HAVING COUNT ( * ) > 10 	2-10814485-3
what are the team of 2006 whose team is not 10 ?	SELECT t1.team from 2006 as t1 WHERE t1.team ! = 10	2-10814485-3
what are the team for all 2006 , and what is the total {drawn for each ?	SELECT t1.team , SUM ( t1.drawn ) from 2006 as t1 GROUP BY t1.team	2-10814485-3
sort the list of team and team of all 2006 in the descending order of lost .	SELECT t1.team , t1.team from 2006 as t1 ORDER BY t1.lost DESC	2-10814485-3
what are the team for 2006 that have an played greater than the average .	SELECT t1.team from 2006 as t1 WHERE t1.played > ( SELECT AVG ( t1.played ) from 2006 as t1	2-10814485-3
