please show the different away team , ordered by the number of 1968 that have each .	SELECT t1.away_team from 1968 as t1 GROUP BY t1.away_team ORDER BY COUNT ( * ) ASC LIMIT 1	2-10808933-2
what are the home team of 1968 whose away team score is not 10 ?	SELECT t1.home_team from 1968 as t1 WHERE t1.away_team_score ! = 10	2-10808933-2
what are the away team score for 1968 who have more than the average crowd?	SELECT t1.away_team_score from 1968 as t1 WHERE t1.crowd > ( SELECT AVG ( t1.crowd ) from 1968 as t1	2-10808933-2
find the away team score of 1968 who have crowd of both 10 and 87 .	SELECT t1.away_team_score from 1968 as t1 WHERE t1.crowd = 10 INTERSECT SELECT t1.away_team_score from 1968 as t1 WHERE t1.crowd = 87	2-10808933-2
what are the away team of all 1968 with away team that is 10 ?	SELECT t1.away_team from 1968 as t1 GROUP BY t1.away_team HAVING COUNT ( * ) = 10	2-10808933-2
find the distinct COLUMN_NAME,0} of all 1968 that have crowd higher than some 1968 from 10 {COLUMN_NAME_2} .	SELECT DISTINCT t1.home_team from 1968 as t1 WHERE t1.crowd > ( SELECT MIN ( t1.home_team ) from 1968 as t1 WHERE t1.away_team = 10 )	2-10808933-2
what are the away team score with exactly 10 1968 ?	SELECT t1.away_team_score from 1968 as t1 GROUP BY t1.away_team_score HAVING COUNT ( * ) = 10	2-10808933-2
find the venue and date of the 1968 with at least 10 venue .	SELECT t1.venue , t1.date from 1968 as t1 GROUP BY t1.venue HAVING COUNT ( * ) >= 10	2-10808933-2
find all home team that have fewer than three in 1968 .	SELECT t1.home_team from 1968 as t1 GROUP BY t1.home_team HAVING COUNT ( * ) < 3	2-10808933-2
what are the distinct COLUMN_NAME,0} of 1968 with crowd higher than any 1968 from 10 {COLUMN_NAME_2} .	SELECT DISTINCT t1.away_team from 1968 as t1 WHERE t1.crowd > ( SELECT MIN ( t1.away_team ) from 1968 as t1 WHERE t1.away_team_score = 10 )	2-10808933-2
