list the rank of {2005 which has number of 2005 greater than 10 .	SELECT t1.rank from 2005 as t1 GROUP BY t1.rank HAVING COUNT ( * ) > 10	2-10642140-3
show all information on the 2005 that has the largest number of rank.	SELECT * from 2005 as t1 ORDER BY t1.rank DESC LIMIT 1	2-10642140-3
show the nation and rank with at least 10 rank .	SELECT t1.nation , t1.rank from 2005 as t1 GROUP BY t1.rank HAVING COUNT ( * ) >= 10	2-10642140-3
what are the nation of all 2005 with nation that is 10 ?	SELECT t1.nation from 2005 as t1 GROUP BY t1.nation HAVING COUNT ( * ) = 10	2-10642140-3
what are the rank , nation , and rank of each 2005 ?	SELECT t1.rank , t1.nation , t1.nation from 2005 as t1	2-10642140-3
what are the rank and nation of each 2005 , listed in descending order by silver ?	SELECT t1.rank , t1.nation from 2005 as t1 ORDER BY t1.silver DESC	2-10642140-3
how many different nation correspond to each rank ?	SELECT t1.rank , COUNT ( DISTINCT t1.nation ) from 2005 as t1 GROUP BY t1.rank	2-10642140-3
return the rank of the 2005 with the fewest gold .	SELECT t1.rank from 2005 as t1 ORDER BY t1.gold ASC LIMIT 1	2-10642140-3
find all rank that have fewer than three in 2005 .	SELECT t1.rank from 2005 as t1 GROUP BY t1.rank HAVING COUNT ( * ) < 3	2-10642140-3
which rank has the least bronze ?	SELECT t1.rank from 2005 as t1 ORDER BY t1.bronze ASC LIMIT 1	2-10642140-3
