find the time of 2007 which are in 10 rider but not in 28 rider .	SELECT t1.time from 2007 as t1 WHERE t1.rider = 10 EXCEPT SELECT t1.time from 2007 as t1 WHERE t1.rider = 28	2-10282772-2
count the number of 2007 in time 10 or 95 .	SELECT COUNT ( * ) from 2007 as t1 WHERE t1.time = 10 OR t1.time = 95	2-10282772-2
find the rider which have exactly 10 2007 .	SELECT t1.rider from 2007 as t1 GROUP BY t1.rider HAVING COUNT ( * ) = 10	2-10282772-2
list all information about 2007 .	SELECT * FROM 2007	2-10282772-2
show all information on the 2007 that has the largest number of time.	SELECT * from 2007 as t1 ORDER BY t1.time DESC LIMIT 1	2-10282772-2
which bike has both 2007 with less than 10 laps and 2007 with more than 54 laps ?	SELECT t1.bike from 2007 as t1 WHERE t1.laps < 10 INTERSECT SELECT t1.bike from 2007 as t1 WHERE t1.laps > 54	2-10282772-2
what are the rider and rider of 2007 with 10 or more bike ?	SELECT t1.rider , t1.rider from 2007 as t1 GROUP BY t1.bike HAVING COUNT ( * ) >= 10	2-10282772-2
how many 2007 are there in rider 10 or 63 ?	SELECT COUNT ( * ) from 2007 as t1 WHERE t1.rider = 10 OR t1.rider = 63	2-10282772-2
what are the bike of the 2007 with bike other than 10 ?	SELECT t1.bike from 2007 as t1 WHERE t1.rider ! = 10	2-10282772-2
how many 2007 are there in time 10 or 10 ?	SELECT COUNT ( * ) from 2007 as t1 WHERE t1.time = 10 OR t1.time = 10	2-10282772-2
