show the result of the 2005 that has the most 2005 .	SELECT t1.result from 2005 as t1 GROUP BY t1.result ORDER BY COUNT ( * ) DESC LIMIT 1	2-10312569-1
what are total week for each start time ?	SELECT t1.start_time , SUM ( t1.week ) from 2005 as t1 GROUP BY t1.start_time	2-10312569-1
how many 2005 are there in date 10 or 91 ?	SELECT COUNT ( * ) from 2005 as t1 WHERE t1.date = 10 OR t1.date = 91	2-10312569-1
which t1.attendance has the fewest 2005 ?	SELECT t1.attendance from 2005 as t1 GROUP BY t1.attendance ORDER BY COUNT ( * ) LIMIT 1	2-10312569-1
show the result and the total week of 2005 .	SELECT t1.result , SUM ( t1.week ) from 2005 as t1 GROUP BY t1.result	2-10312569-1
select the average week of each 2005 's result .	SELECT AVG ( t1.week ) , t1.result from 2005 as t1 GROUP BY t1.result	2-10312569-1
what are the distinct COLUMN_NAME,0} of 2005 with week higher than any 2005 from 10 {COLUMN_NAME_2} .	SELECT DISTINCT t1.attendance from 2005 as t1 WHERE t1.week > ( SELECT MIN ( t1.attendance ) from 2005 as t1 WHERE t1.start_time = 10 )	2-10312569-1
find the attendance of 2005 which have both 10 and 25 as attendance .	SELECT t1.attendance from 2005 as t1 WHERE t1.week = 10 INTERSECT SELECT t1.attendance from 2005 as t1 WHERE t1.week = 25	2-10312569-1
find the opponent of 2005 which are in 10 attendance but not in 72 attendance .	SELECT t1.opponent from 2005 as t1 WHERE t1.attendance = 10 EXCEPT SELECT t1.opponent from 2005 as t1 WHERE t1.attendance = 72	2-10312569-1
list the opponent which average week is above 10 .	SELECT t1.opponent from 2005 as t1 GROUP BY t1.opponent HAVING AVG ( t1.week ) >= 10	2-10312569-1
