what is the venue and home team of every 1981 that has a crowd lower than average ?	SELECT t1.venue , t1.home_team from 1981 as t1 WHERE t1.crowd < ( SELECT AVG ( t1.crowd ) {FROM, 3} )	2-10823950-7
what is the away team of the 1981 with the smallest crowd ?	SELECT t1.away_team from 1981 as t1 ORDER BY t1.crowd ASC LIMIT 1	2-10823950-7
which date have an average crowd over 10 ?	SELECT t1.date from 1981 as t1 GROUP BY t1.date HAVING AVG ( t1.crowd ) >= 10	2-10823950-7
find the date which have exactly 10 1981 .	SELECT t1.date from 1981 as t1 GROUP BY t1.date HAVING COUNT ( * ) = 10	2-10823950-7
count the number of 1981 that have an home team containing 10 .	SELECT COUNT ( * ) from 1981 as t1 WHERE t1.home_team LIKE 10	2-10823950-7
what is the date of 1981 with the maximum crowd across all 1981 ?	SELECT t1.date from 1981 as t1 WHERE t1.crowd = ( SELECT MAX ( t1.crowd ) from 1981 as t1 )	2-10823950-7
count the number of 1981 that have an date containing 10 .	SELECT COUNT ( * ) from 1981 as t1 WHERE t1.date LIKE 10	2-10823950-7
what are the date of 1981 whose date are not 10 ?	SELECT t1.date from 1981 as t1 WHERE t1.date ! = 10	2-10823950-7
list the venue which average crowd is above 10 .	SELECT t1.venue from 1981 as t1 GROUP BY t1.venue HAVING AVG ( t1.crowd ) >= 10	2-10823950-7
what are all the away team score and home team?	SELECT t1.away_team_score , t1.home_team from 1981 as t1	2-10823950-7
