what are the distinct away with percentage between 10 and 100 ?	SELECT DISTINCT t1.away from 2007 as t1 WHERE t1.percentage BETWEEN 10 AND 100	2-10739773-1
find the team of 2007 who have percentage of both 10 and 93 .	SELECT t1.team from 2007 as t1 WHERE t1.percentage = 10 INTERSECT SELECT t1.team from 2007 as t1 WHERE t1.percentage = 93	2-10739773-1
what are the team and team of 2007 with 10 or more home ?	SELECT t1.team , t1.team from 2007 as t1 GROUP BY t1.home HAVING COUNT ( * ) >= 10	2-10739773-1
find the team of the 2007 that is most frequent across all team .	SELECT t1.team from 2007 as t1 GROUP BY t1.team ORDER BY COUNT ( * ) DESC LIMIT 1	2-10739773-1
which t1.away has least number of 2007 ?	SELECT t1.away from 2007 as t1 GROUP BY t1.away ORDER BY COUNT ( * ) LIMIT 1	2-10739773-1
show the streak of 2007 who have at least 10 2007 .	SELECT t1.streak from 2007 as t1 GROUP BY t1.streak HAVING COUNT ( * ) >= 10	2-10739773-1
what are all the streak and home?	SELECT t1.streak , t1.home from 2007 as t1	2-10739773-1
find the team and away of the 2007 whose wins is lower than the average wins of all 2007 .	SELECT t1.team , t1.away from 2007 as t1 WHERE t1.wins < ( SELECT AVG ( t1.wins ) {FROM, 3} )	2-10739773-1
what are the distinct COLUMN_NAME,0} of 2007 with losses higher than any 2007 from 10 {COLUMN_NAME_2} .	SELECT DISTINCT t1.streak from 2007 as t1 WHERE t1.losses > ( SELECT MIN ( t1.streak ) from 2007 as t1 WHERE t1.streak = 10 )	2-10739773-1
find the distinct team of all 2007 that have a higher percentage than some 2007 with 10 {COLUMN_NAME_2} .	SELECT DISTINCT t1.team from 2007 as t1 WHERE t1.percentage > ( SELECT MIN ( t1.team ) from 2007 as t1 WHERE t1.team = 10 )	2-10739773-1
