what is the maximum and mininum crowd {COLUMN} for all 1957 ?	SELECT MAX ( t1.crowd ) , MIN ( t1.crowd ) from 1957 as t1	2-10774891-14
what is the home team score of the 1957 with the minimum crowd ?	SELECT t1.home_team_score from 1957 as t1 ORDER BY t1.crowd ASC LIMIT 1	2-10774891-14
what is the date and date of the 1957 with maximum crowd ?	SELECT t1.date , t1.date from 1957 as t1 WHERE t1.crowd = ( SELECT MAX ( t1.crowd ) {FROM, 3} )	2-10774891-14
find the venue which have exactly 10 1957 .	SELECT t1.venue from 1957 as t1 GROUP BY t1.venue HAVING COUNT ( * ) = 10	2-10774891-14
what are the away team score and home team score of the {COLUMN} who have crowd above five or crowd below ten ?	SELECT t1.away_team_score , t1.home_team_score from 1957 as t1 WHERE t1.crowd > 5 OR t1.crowd < 10	2-10774891-14
what are the maximum and minimum crowd across all 1957 ?	SELECT MAX ( t1.crowd ) , MIN ( t1.crowd ) from 1957 as t1	2-10774891-14
what is the minimum crowd in each date ?	SELECT MIN ( t1.crowd ) , t1.date from 1957 as t1 GROUP BY t1.date	2-10774891-14
show away team and away team of 1957 .	SELECT t1.away_team , t1.away_team from 1957 as t1	2-10774891-14
what are the away team of all 1957 with date that is 10 ?	SELECT t1.away_team from 1957 as t1 GROUP BY t1.date HAVING COUNT ( * ) = 10	2-10774891-14
what are all the date and date?	SELECT t1.date , t1.date from 1957 as t1	2-10774891-14
