which venue has both 1938 with less than 10 crowd and 1938 with more than 24 crowd ?	SELECT t1.venue from 1938 as t1 WHERE t1.crowd < 10 INTERSECT SELECT t1.venue from 1938 as t1 WHERE t1.crowd > 24	2-10806592-13
which away team score has both 1938 with less than 10 crowd and 1938 with more than 7 crowd ?	SELECT t1.away_team_score from 1938 as t1 WHERE t1.crowd < 10 INTERSECT SELECT t1.away_team_score from 1938 as t1 WHERE t1.crowd > 7	2-10806592-13
find all away team score that have fewer than three in 1938 .	SELECT t1.away_team_score from 1938 as t1 GROUP BY t1.away_team_score HAVING COUNT ( * ) < 3	2-10806592-13
show home team score and away team score of 1938 .	SELECT t1.home_team_score , t1.away_team_score from 1938 as t1	2-10806592-13
how many 1938 have venue that contain the word 10 ?	SELECT COUNT ( * ) from 1938 as t1 WHERE t1.venue LIKE 10	2-10806592-13
what is the maximum and mininum crowd {COLUMN} for all 1938 ?	SELECT MAX ( t1.crowd ) , MIN ( t1.crowd ) from 1938 as t1	2-10806592-13
count the number of 1938 that have an away team score containing 10 .	SELECT COUNT ( * ) from 1938 as t1 WHERE t1.away_team_score LIKE 10	2-10806592-13
which home team score has both 1938 with less than 10 crowd and 1938 with more than 14 crowd ?	SELECT t1.home_team_score from 1938 as t1 WHERE t1.crowd < 10 INTERSECT SELECT t1.home_team_score from 1938 as t1 WHERE t1.crowd > 14	2-10806592-13
what is all the information on the 1938 with the largest number of date ?	SELECT * from 1938 as t1 ORDER BY t1.date DESC LIMIT 1	2-10806592-13
return the maximum and minimum crowd across all 1938 .	SELECT MAX ( t1.crowd ) , MIN ( t1.crowd ) from 1938 as t1	2-10806592-13
