return the smallest week for every attendance .	SELECT MIN ( t1.week ) , t1.attendance from 2005 as t1 GROUP BY t1.attendance	2-10653676-1
what are the distinct COLUMN_NAME,0} of 2005 with week higher than any 2005 from 10 {COLUMN_NAME_2} .	SELECT DISTINCT t1.date from 2005 as t1 WHERE t1.week > ( SELECT MIN ( t1.date ) from 2005 as t1 WHERE t1.date = 10 )	2-10653676-1
find all attendance that have fewer than three in 2005 .	SELECT t1.attendance from 2005 as t1 GROUP BY t1.attendance HAVING COUNT ( * ) < 3	2-10653676-1
show date and result of 2005 .	SELECT t1.date , t1.result from 2005 as t1	2-10653676-1
what are the opponent of 2005 whose date is not 10 ?	SELECT t1.opponent from 2005 as t1 WHERE t1.date ! = 10	2-10653676-1
how many 2005 correspond to each opponent? show the result in ascending order.	SELECT t1.opponent , COUNT ( * ) from 2005 as t1 GROUP BY t1.opponent ORDER BY COUNT ( * )	2-10653676-1
show all information on the 2005 that has the largest number of result.	SELECT * from 2005 as t1 ORDER BY t1.result DESC LIMIT 1	2-10653676-1
find the result of the 2005 with the highest week .	SELECT t1.result from 2005 as t1 ORDER BY t1.week DESC LIMIT 1	2-10653676-1
what are the result of 2005 whose result are not 10 ?	SELECT t1.result from 2005 as t1 WHERE t1.result ! = 10	2-10653676-1
list the date which average week is above 10 .	SELECT t1.date from 2005 as t1 GROUP BY t1.date HAVING AVG ( t1.week ) >= 10	2-10653676-1
