find the game site of the 2008 which have record 10 but not 44 .	SELECT t1.game_site from 2008 as t1 WHERE t1.record = 10 EXCEPT SELECT t1.game_site from 2008 as t1 WHERE t1.record = 44	2-10966926-4
list the result , record and the result of the 2008 .	SELECT t1.result , t1.record , t1.result from 2008 as t1	2-10966926-4
what is the match report of all 2008 whose week is higher than any 2008 ?	SELECT t1.match_report from 2008 as t1 WHERE t1.week > ( SELECT MIN ( t1.week ) from 2008 as t1 )	2-10966926-4
find the number of 2008 that have more than 10 match report .	SELECT COUNT ( * ) from 2008 as t1 GROUP BY t1.match_report HAVING COUNT ( * ) > 10 	2-10966926-4
what are the result of 2008 with week greater than the average of all 2008 ?	SELECT t1.result from 2008 as t1 WHERE t1.week > ( SELECT AVG ( t1.week ) from 2008 as t1	2-10966926-4
which t1.match_report has least number of 2008 ?	SELECT t1.match_report from 2008 as t1 GROUP BY t1.match_report ORDER BY COUNT ( * ) LIMIT 1	2-10966926-4
show the record , record , and record of all the 2008 .	SELECT t1.record , t1.record , t1.record from 2008 as t1	2-10966926-4
what is the record of the 2008 with the largest week ?	SELECT t1.record from 2008 as t1 WHERE t1.week = ( SELECT MAX ( t1.week ) from 2008 as t1 )	2-10966926-4
show the time ( et ) of 2008 whose date are not 10.	SELECT t1.time_ from 2008 as t1 WHERE t1.date ! = 10	2-10966926-4
count the number of 2008 in result 10 or 19 .	SELECT COUNT ( * ) from 2008 as t1 WHERE t1.result = 10 OR t1.result = 19	2-10966926-4
