find the distinct COLUMN_NAME,0} of all 1959 that have crowd higher than some 1959 from 10 {COLUMN_NAME_2} .	SELECT DISTINCT t1.away_team from 1959 as t1 WHERE t1.crowd > ( SELECT MIN ( t1.away_team ) from 1959 as t1 WHERE t1.away_team_score = 10 )	2-10775038-8
how many 1959 are there that have more than {VALUE},0 away team ?	SELECT COUNT ( * ) from 1959 as t1 GROUP BY t1.away_team HAVING COUNT ( * ) > 10 	2-10775038-8
list the away team of {1959 which has number of 1959 greater than 10 .	SELECT t1.away_team from 1959 as t1 GROUP BY t1.away_team HAVING COUNT ( * ) > 10	2-10775038-8
which away team score have greater crowd than that of any crowd in 1959 ?	SELECT t1.away_team_score from 1959 as t1 WHERE t1.crowd > ( SELECT MIN ( t1.crowd ) from 1959 as t1 )	2-10775038-8
what is the home team of the 1959 with the minimum crowd ?	SELECT t1.home_team from 1959 as t1 ORDER BY t1.crowd ASC LIMIT 1	2-10775038-8
which t1.date has least number of 1959 ?	SELECT t1.date from 1959 as t1 GROUP BY t1.date ORDER BY COUNT ( * ) LIMIT 1	2-10775038-8
what are the distinct venue with crowd between 10 and 90 ?	SELECT DISTINCT t1.venue from 1959 as t1 WHERE t1.crowd BETWEEN 10 AND 90	2-10775038-8
show the venue and away team score with at least 10 venue .	SELECT t1.venue , t1.away_team_score from 1959 as t1 GROUP BY t1.venue HAVING COUNT ( * ) >= 10	2-10775038-8
how many distinct home team correspond to each date ?	SELECT t1.date , COUNT ( DISTINCT t1.home_team ) from 1959 as t1 GROUP BY t1.date	2-10775038-8
show away team score and away team score of 1959 .	SELECT t1.away_team_score , t1.away_team_score from 1959 as t1	2-10775038-8
