what are the venue for all 1955 , and what is the total {crowd for each ?	SELECT t1.venue , SUM ( t1.crowd ) from 1955 as t1 GROUP BY t1.venue	2-10773753-14
count the number of 1955 in away team score 10 or 27 .	SELECT COUNT ( * ) from 1955 as t1 WHERE t1.away_team_score = 10 OR t1.away_team_score = 27	2-10773753-14
what are the distinct COLUMN_NAME,0} of every 1955 that has a greater crowd than some 1955 with 10 {COLUMN_NAME_2} ?	SELECT DISTINCT t1.venue from 1955 as t1 WHERE t1.crowd > ( SELECT MIN ( t1.venue ) from 1955 as t1 WHERE t1.away_team_score = 10 )	2-10773753-14
what are the distinct date with crowd between 10 and 53 ?	SELECT DISTINCT t1.date from 1955 as t1 WHERE t1.crowd BETWEEN 10 AND 53	2-10773753-14
show all information on the 1955 that has the largest number of away team.	SELECT * from 1955 as t1 ORDER BY t1.away_team DESC LIMIT 1	2-10773753-14
find the home team score of the 1955 that is most frequent across all home team score .	SELECT t1.home_team_score from 1955 as t1 GROUP BY t1.home_team_score ORDER BY COUNT ( * ) DESC LIMIT 1	2-10773753-14
what are the away team score , away team , and away team score of each 1955 ?	SELECT t1.away_team_score , t1.away_team , t1.away_team from 1955 as t1	2-10773753-14
what is the venue of 1955 with the maximum crowd across all 1955 ?	SELECT t1.venue from 1955 as t1 WHERE t1.crowd = ( SELECT MAX ( t1.crowd ) from 1955 as t1 )	2-10773753-14
what are the date of 1955 whose date are not 10 ?	SELECT t1.date from 1955 as t1 WHERE t1.date ! = 10	2-10773753-14
find the number of 1955 that have more than 10 venue .	SELECT COUNT ( * ) from 1955 as t1 GROUP BY t1.venue HAVING COUNT ( * ) > 10 	2-10773753-14
