return the different date of 1963 , in ascending order of frequency .	SELECT t1.date from 1963 as t1 GROUP BY t1.date ORDER BY COUNT ( * ) ASC LIMIT 1	2-10783853-1
find the home team of the 1963 with the highest crowd.	SELECT t1.home_team from 1963 as t1 WHERE t1.crowd = ( SELECT MAX ( t1.crowd ) from 1963 as t1 )	2-10783853-1
show all information on the 1963 that has the largest number of venue.	SELECT * from 1963 as t1 ORDER BY t1.venue DESC LIMIT 1	2-10783853-1
what is all the information on the 1963 with the largest number of home team ?	SELECT * from 1963 as t1 ORDER BY t1.home_team DESC LIMIT 1	2-10783853-1
what is the date of the 1963 with the largest crowd ?	SELECT t1.date from 1963 as t1 WHERE t1.crowd = ( SELECT MAX ( t1.crowd ) from 1963 as t1 )	2-10783853-1
find the home team of the 1963 with the highest crowd.	SELECT t1.home_team from 1963 as t1 WHERE t1.crowd = ( SELECT MAX ( t1.crowd ) from 1963 as t1 )	2-10783853-1
please show the date of the 1963 that have at least 10 records .	SELECT t1.date from 1963 as t1 GROUP BY t1.date HAVING COUNT ( * ) >= 10	2-10783853-1
Show everything on 1963	SELECT * FROM 1963	2-10783853-1
return the maximum and minimum crowd across all 1963 .	SELECT MAX ( t1.crowd ) , MIN ( t1.crowd ) from 1963 as t1	2-10783853-1
what is the date and home team of the 1963 with maximum crowd ?	SELECT t1.date , t1.home_team from 1963 as t1 WHERE t1.crowd = ( SELECT MAX ( t1.crowd ) {FROM, 3} )	2-10783853-1
