which away team score has both 1951 with less than 10 crowd and 1951 with more than 93 crowd ?	SELECT t1.away_team_score from 1951 as t1 WHERE t1.crowd < 10 INTERSECT SELECT t1.away_team_score from 1951 as t1 WHERE t1.crowd > 93	2-10701914-12
what are the date and away team score of 1951 with 10 or more away team ?	SELECT t1.date , t1.away_team_score from 1951 as t1 GROUP BY t1.away_team HAVING COUNT ( * ) >= 10	2-10701914-12
display the venue , venue , and home team for each 1951 .	SELECT t1.venue , t1.venue , t1.home_team from 1951 as t1	2-10701914-12
please show the home team score of the 1951 that have at least 10 records .	SELECT t1.home_team_score from 1951 as t1 GROUP BY t1.home_team_score HAVING COUNT ( * ) >= 10	2-10701914-12
list venue and away team score who have crowd greater than 5 or crowd shorter than 10 .	SELECT t1.venue , t1.away_team_score from 1951 as t1 WHERE t1.crowd > 5 OR t1.crowd < 10	2-10701914-12
what are the average crowd of 1951 , grouped by venue ?	SELECT AVG ( t1.crowd ) , t1.venue from 1951 as t1 GROUP BY t1.venue	2-10701914-12
what are the venue of 1951 whose home team score are not 10 ?	SELECT t1.venue from 1951 as t1 WHERE t1.home_team_score ! = 10	2-10701914-12
which home team score has both 1951 with less than 10 crowd and 1951 with more than 42 crowd ?	SELECT t1.home_team_score from 1951 as t1 WHERE t1.crowd < 10 INTERSECT SELECT t1.home_team_score from 1951 as t1 WHERE t1.crowd > 42	2-10701914-12
what are the away team score and venue ?	SELECT t1.away_team_score , t1.venue from 1951 as t1	2-10701914-12
what are the away team score , away team score , and away team score of each 1951 ?	SELECT t1.away_team_score , t1.away_team_score , t1.home_team_score from 1951 as t1	2-10701914-12
