what is the player of the 2008 with the smallest asst. ?	SELECT t1.player from 2008 as t1 ORDER BY t1.asst ASC LIMIT 1	2-10966926-11
show all information on the 2008 that has the largest number of player.	SELECT * from 2008 as t1 ORDER BY t1.player DESC LIMIT 1	2-10966926-11
what is the player and player of every 2008 that has a totaltk lower than average ?	SELECT t1.player , t1.player from 2008 as t1 WHERE t1.totaltk < ( SELECT AVG ( t1.totaltk ) {FROM, 3} )	2-10966926-11
show the player and the number of unique player containing each player .	SELECT t1.player , COUNT ( DISTINCT t1.player ) from 2008 as t1 GROUP BY t1.player	2-10966926-11
find the player which have exactly 10 2008 .	SELECT t1.player from 2008 as t1 GROUP BY t1.player HAVING COUNT ( * ) = 10	2-10966926-11
list the player , player and the player of the 2008 .	SELECT t1.player , t1.player , t1.player from 2008 as t1	2-10966926-11
list player of 2008 that have the number of 2008 greater than 10 .	SELECT t1.player from 2008 as t1 GROUP BY t1.player HAVING COUNT ( * ) > 10	2-10966926-11
what are the distinct COLUMN_NAME,0} of every 2008 that has a greater sack than some 2008 with 10 {COLUMN_NAME_2} ?	SELECT DISTINCT t1.player from 2008 as t1 WHERE t1.sack > ( SELECT MIN ( t1.player ) from 2008 as t1 WHERE t1.player = 10 )	2-10966926-11
how many 2008 are there in player 10 or 47 ?	SELECT COUNT ( * ) from 2008 as t1 WHERE t1.player = 10 OR t1.player = 47	2-10966926-11
give the maximum and minimum tackles of all 2008 .	SELECT MAX ( t1.tackles ) , MIN ( t1.tackles ) from 2008 as t1	2-10966926-11
