please show the away team of the 1952 with count more than 10 .	SELECT t1.away_team from 1952 as t1 GROUP BY t1.away_team HAVING COUNT ( * ) > 10	2-10750694-1
give the maximum and minimum crowd of all 1952 .	SELECT MAX ( t1.crowd ) , MIN ( t1.crowd ) from 1952 as t1	2-10750694-1
find the date who has exactly 10 1952 .	SELECT t1.date from 1952 as t1 GROUP BY t1.date HAVING COUNT ( * ) = 10	2-10750694-1
what are the date for 1952 who have more than the average crowd?	SELECT t1.date from 1952 as t1 WHERE t1.crowd > ( SELECT AVG ( t1.crowd ) from 1952 as t1	2-10750694-1
find the away team that have 10 1952 .	SELECT t1.away_team from 1952 as t1 GROUP BY t1.away_team HAVING COUNT ( * ) = 10	2-10750694-1
find the home team which have exactly 10 1952 .	SELECT t1.home_team from 1952 as t1 GROUP BY t1.home_team HAVING COUNT ( * ) = 10	2-10750694-1
which date has both 1952 with less than 10 crowd and 1952 with more than 64 crowd ?	SELECT t1.date from 1952 as t1 WHERE t1.crowd < 10 INTERSECT SELECT t1.date from 1952 as t1 WHERE t1.crowd > 64	2-10750694-1
find the away team score of 1952 who have crowd of both 10 and 24 .	SELECT t1.away_team_score from 1952 as t1 WHERE t1.crowd = 10 INTERSECT SELECT t1.away_team_score from 1952 as t1 WHERE t1.crowd = 24	2-10750694-1
which home team score have less than 3 in 1952 ?	SELECT t1.home_team_score from 1952 as t1 GROUP BY t1.home_team_score HAVING COUNT ( * ) < 3	2-10750694-1
how many 1952 are there that have more than {VALUE},0 date ?	SELECT COUNT ( * ) from 1952 as t1 GROUP BY t1.date HAVING COUNT ( * ) > 10 	2-10750694-1
