list all venue which have crowd higher than the average .	SELECT t1.venue from 1972 as t1 WHERE t1.crowd > ( SELECT AVG ( t1.crowd ) from 1972 as t1	2-10826385-19
what is the minimum crowd in each home team score ?	SELECT MIN ( t1.crowd ) , t1.home_team_score from 1972 as t1 GROUP BY t1.home_team_score	2-10826385-19
list date and away team score who have crowd greater than 5 or crowd shorter than 10 .	SELECT t1.date , t1.away_team_score from 1972 as t1 WHERE t1.crowd > 5 OR t1.crowd < 10	2-10826385-19
give the home team score that has the most 1972 .	SELECT t1.home_team_score from 1972 as t1 GROUP BY t1.home_team_score ORDER BY COUNT ( * ) DESC LIMIT 1	2-10826385-19
what are the maximum and minimum crowd across all 1972 ?	SELECT MAX ( t1.crowd ) , MIN ( t1.crowd ) from 1972 as t1	2-10826385-19
list date and date who have crowd greater than 5 or crowd shorter than 10 .	SELECT t1.date , t1.date from 1972 as t1 WHERE t1.crowd > 5 OR t1.crowd < 10	2-10826385-19
show home team and away team score of 1972 .	SELECT t1.home_team , t1.away_team_score from 1972 as t1	2-10826385-19
what are the venue that have greater crowd than any crowd in 1972 ?	SELECT t1.venue from 1972 as t1 WHERE t1.crowd > ( SELECT MIN ( t1.crowd ) from 1972 as t1 )	2-10826385-19
what is the date and away team score of the 1972 with the top 5 smallest crowd ?	SELECT t1.date , t1.away_team_score from 1972 as t1 ORDER BY t1.crowd LIMIT 5	2-10826385-19
find the date of 1972 who have more than 10 1972 .	SELECT t1.date from 1972 as t1 GROUP BY t1.date HAVING COUNT ( * ) > 10	2-10826385-19
