what are the away team score of all 1927 that have 10 or more 1927 ?	SELECT t1.away_team_score from 1927 as t1 GROUP BY t1.away_team_score HAVING COUNT ( * ) >= 10	2-10747009-10
show the venue of 1927 who have at least 10 1927 .	SELECT t1.venue from 1927 as t1 GROUP BY t1.venue HAVING COUNT ( * ) >= 10	2-10747009-10
find the number of 1927 whose away team score contain the word 10 .	SELECT COUNT ( * ) from 1927 as t1 WHERE t1.away_team_score LIKE 10	2-10747009-10
what is the minimum crowd in each away team ?	SELECT MIN ( t1.crowd ) , t1.away_team from 1927 as t1 GROUP BY t1.away_team	2-10747009-10
what is the minimum crowd in each home team ?	SELECT MIN ( t1.crowd ) , t1.home_team from 1927 as t1 GROUP BY t1.home_team	2-10747009-10
find the away team which have exactly 10 1927 .	SELECT t1.away_team from 1927 as t1 GROUP BY t1.away_team HAVING COUNT ( * ) = 10	2-10747009-10
return each home team score with the number of 1927 in ascending order of the number of home team score .	SELECT t1.home_team_score , COUNT ( * ) from 1927 as t1 GROUP BY t1.home_team_score ORDER BY COUNT ( * )	2-10747009-10
what are all the venue and home team?	SELECT t1.venue , t1.home_team from 1927 as t1	2-10747009-10
show the venue with fewer than 3 1927 .	SELECT t1.venue from 1927 as t1 GROUP BY t1.venue HAVING COUNT ( * ) < 3	2-10747009-10
how many 1927 have away team score that contain the word 10 ?	SELECT COUNT ( * ) from 1927 as t1 WHERE t1.away_team_score LIKE 10	2-10747009-10
