find the date of 1982 which are in 10 away team but not in 5 away team .	SELECT t1.date from 1982 as t1 WHERE t1.away_team = 10 EXCEPT SELECT t1.date from 1982 as t1 WHERE t1.away_team = 5	2-10824095-18
what is the away team and home team score of the 1982 with maximum crowd ?	SELECT t1.away_team , t1.home_team_score from 1982 as t1 WHERE t1.crowd = ( SELECT MAX ( t1.crowd ) {FROM, 3} )	2-10824095-18
show all information on the 1982 that has the largest number of date.	SELECT * from 1982 as t1 ORDER BY t1.date DESC LIMIT 1	2-10824095-18
find the number of 1982 that have more than 10 home team .	SELECT COUNT ( * ) from 1982 as t1 GROUP BY t1.home_team HAVING COUNT ( * ) > 10 	2-10824095-18
return the smallest crowd for every home team .	SELECT MIN ( t1.crowd ) , t1.home_team from 1982 as t1 GROUP BY t1.home_team	2-10824095-18
how many 1982 are there in away team 10 or 59 ?	SELECT COUNT ( * ) from 1982 as t1 WHERE t1.away_team = 10 OR t1.away_team = 59	2-10824095-18
find the number of 1982 whose away team contain the word 10 .	SELECT COUNT ( * ) from 1982 as t1 WHERE t1.away_team LIKE 10	2-10824095-18
which venue is the most frequent venue?	SELECT t1.venue from 1982 as t1 GROUP BY t1.venue ORDER BY COUNT ( * ) DESC LIMIT 1	2-10824095-18
find the away team score which have exactly 10 1982 .	SELECT t1.away_team_score from 1982 as t1 GROUP BY t1.away_team_score HAVING COUNT ( * ) = 10	2-10824095-18
find the date of 1982 which are in 10 away team score but not in 81 away team score .	SELECT t1.date from 1982 as t1 WHERE t1.away_team_score = 10 EXCEPT SELECT t1.date from 1982 as t1 WHERE t1.away_team_score = 81	2-10824095-18
