find all home team that have fewer than three in 1932 .	SELECT t1.home_team from 1932 as t1 GROUP BY t1.home_team HAVING COUNT ( * ) < 3	2-10790099-9
what is the maximum and mininum crowd {COLUMN} for all 1932 ?	SELECT MAX ( t1.crowd ) , MIN ( t1.crowd ) from 1932 as t1	2-10790099-9
what are the home team score and home team of 1932 with 10 or more date ?	SELECT t1.home_team_score , t1.home_team from 1932 as t1 GROUP BY t1.date HAVING COUNT ( * ) >= 10	2-10790099-9
list away team score of 1932 that have the number of 1932 greater than 10 .	SELECT t1.away_team_score from 1932 as t1 GROUP BY t1.away_team_score HAVING COUNT ( * ) > 10	2-10790099-9
find all home team score that have fewer than three in 1932 .	SELECT t1.home_team_score from 1932 as t1 GROUP BY t1.home_team_score HAVING COUNT ( * ) < 3	2-10790099-9
how many distinct home team score correspond to each away team ?	SELECT t1.away_team , COUNT ( DISTINCT t1.home_team_score ) from 1932 as t1 GROUP BY t1.away_team	2-10790099-9
list away team of 1932 that have the number of 1932 greater than 10 .	SELECT t1.away_team from 1932 as t1 GROUP BY t1.away_team HAVING COUNT ( * ) > 10	2-10790099-9
return the home team score of 1932 that do not have the away team score 10 .	SELECT t1.home_team_score from 1932 as t1 WHERE t1.away_team_score ! = 10	2-10790099-9
what are the away team and venue of each 1932 ?	SELECT t1.away_team , t1.venue from 1932 as t1	2-10790099-9
count the number of 1932 in date 10 or 52 .	SELECT COUNT ( * ) from 1932 as t1 WHERE t1.date = 10 OR t1.date = 52	2-10790099-9
