find the distinct team of 2007 having rank between 10 and 46 .	SELECT DISTINCT t1.team from 2007 as t1 WHERE t1.rank BETWEEN 10 AND 46	2-11972799-5
which team is the most frequent team?	SELECT t1.team from 2007 as t1 GROUP BY t1.team ORDER BY COUNT ( * ) DESC LIMIT 1	2-11972799-5
what are all the team and team?	SELECT t1.team , t1.team from 2007 as t1	2-11972799-5
what is the time and time of the 2007 with the top 5 smallest rank ?	SELECT t1.time , t1.time from 2007 as t1 ORDER BY t1.rank LIMIT 5	2-11972799-5
find the rider of 2007 who have rank of both 10 and 71 .	SELECT t1.rider from 2007 as t1 WHERE t1.rank = 10 INTERSECT SELECT t1.rider from 2007 as t1 WHERE t1.rank = 71	2-11972799-5
what are the team for 2007 that have an rank greater than the average .	SELECT t1.team from 2007 as t1 WHERE t1.rank > ( SELECT AVG ( t1.rank ) from 2007 as t1	2-11972799-5
find the distinct team of 2007 having rank between 10 and 52 .	SELECT DISTINCT t1.team from 2007 as t1 WHERE t1.rank BETWEEN 10 AND 52	2-11972799-5
how many 2007 have rider that contains 10 ?	SELECT COUNT ( * ) from 2007 as t1 WHERE t1.rider LIKE 10	2-11972799-5
give the t1.team with the fewest 2007 .	SELECT t1.team from 2007 as t1 GROUP BY t1.team ORDER BY COUNT ( * ) LIMIT 1	2-11972799-5
find the rider of 2007 who have more than 10 2007 .	SELECT t1.rider from 2007 as t1 GROUP BY t1.rider HAVING COUNT ( * ) > 10	2-11972799-5
