list all information about 2003 .	SELECT * FROM 2003	2-1123526-2
return the time/retired and driver of 2003 with the five lowest laps .	SELECT t1.time/retired , t1.driver from 2003 as t1 ORDER BY t1.laps LIMIT 5	2-1123526-2
what are the time/retired of 2003 whose constructor is not 10 ?	SELECT t1.time/retired from 2003 as t1 WHERE t1.constructor ! = 10	2-1123526-2
what are the distinct COLUMN_NAME,0} of every 2003 that has a greater laps than some 2003 with 10 {COLUMN_NAME_2} ?	SELECT DISTINCT t1.driver from 2003 as t1 WHERE t1.laps > ( SELECT MIN ( t1.driver ) from 2003 as t1 WHERE t1.driver = 10 )	2-1123526-2
count the number of 2003 in driver 10 or 77 .	SELECT COUNT ( * ) from 2003 as t1 WHERE t1.driver = 10 OR t1.driver = 77	2-1123526-2
show all information on the 2003 that has the largest number of constructor.	SELECT * from 2003 as t1 ORDER BY t1.constructor DESC LIMIT 1	2-1123526-2
what are the driver for all 2003 , and what is the total {grid for each ?	SELECT t1.driver , SUM ( t1.grid ) from 2003 as t1 GROUP BY t1.driver	2-1123526-2
find the time/retired and time/retired of the 2003 whose grid is lower than the average grid of all 2003 .	SELECT t1.time/retired , t1.time/retired from 2003 as t1 WHERE t1.grid < ( SELECT AVG ( t1.grid ) {FROM, 3} )	2-1123526-2
what is the time/retired and constructor of the 2003 with the top 5 smallest laps ?	SELECT t1.time/retired , t1.constructor from 2003 as t1 ORDER BY t1.laps LIMIT 5	2-1123526-2
list all information about 2003 .	SELECT * FROM 2003	2-1123526-2
