what is the position of the 1987 who has the highest number of 1987 ?	SELECT t1.position from 1987 as t1 GROUP BY t1.position ORDER BY COUNT ( * ) DESC LIMIT 1	2-11452373-1
list position and player who have pick greater than 5 or pick shorter than 10 .	SELECT t1.position , t1.player from 1987 as t1 WHERE t1.pick > 5 OR t1.pick < 10	2-11452373-1
return the school and school of 1987 with the five lowest pick .	SELECT t1.school , t1.school from 1987 as t1 ORDER BY t1.pick LIMIT 5	2-11452373-1
count the number of 1987 in school 10 or 20 .	SELECT COUNT ( * ) from 1987 as t1 WHERE t1.school = 10 OR t1.school = 20	2-11452373-1
list player and round who have pick greater than 5 or pick shorter than 10 .	SELECT t1.player , t1.round from 1987 as t1 WHERE t1.pick > 5 OR t1.pick < 10	2-11452373-1
what is the t1.school of 1987 that has fewest number of 1987 ?	SELECT t1.school from 1987 as t1 GROUP BY t1.school ORDER BY COUNT ( * ) LIMIT 1	2-11452373-1
list the position of {1987 which has number of 1987 greater than 10 .	SELECT t1.position from 1987 as t1 GROUP BY t1.position HAVING COUNT ( * ) > 10	2-11452373-1
give the maximum and minimum pick of all 1987 .	SELECT MAX ( t1.pick ) , MIN ( t1.pick ) from 1987 as t1	2-11452373-1
what are the position and school ?	SELECT t1.position , t1.school from 1987 as t1	2-11452373-1
what are the school for all 1987 , and what is the total {pick for each ?	SELECT t1.school , SUM ( t1.pick ) from 1987 as t1 GROUP BY t1.school	2-11452373-1
