show the nation of 1976 who have at least 10 1976 .	SELECT t1.nation from 1976 as t1 GROUP BY t1.nation HAVING COUNT ( * ) >= 10	2-11025881-2
find the nation of 1976 which are in 10 name but not in 3 name .	SELECT t1.nation from 1976 as t1 WHERE t1.name = 10 EXCEPT SELECT t1.nation from 1976 as t1 WHERE t1.name = 3	2-11025881-2
which name have an average sp + fs over 10 ?	SELECT t1.name from 1976 as t1 GROUP BY t1.name HAVING AVG ( t1.sp_+_fs ) >= 10	2-11025881-2
what are the name of 1976 with sp + fs above the average sp + fs across all 1976 ?	SELECT t1.name from 1976 as t1 WHERE t1.sp_+_fs > ( SELECT AVG ( t1.sp_+_fs ) from 1976 as t1	2-11025881-2
show the nation with fewer than 3 1976 .	SELECT t1.nation from 1976 as t1 GROUP BY t1.nation HAVING COUNT ( * ) < 3	2-11025881-2
list name and nation who have places greater than 5 or sp + fs shorter than 10 .	SELECT t1.name , t1.nation from 1976 as t1 WHERE t1.places > 5 OR t1.sp_+_fs < 10	2-11025881-2
show the name and name with at least 10 nation .	SELECT t1.name , t1.name from 1976 as t1 GROUP BY t1.nation HAVING COUNT ( * ) >= 10	2-11025881-2
find the number of 1976 that have more than 10 name .	SELECT COUNT ( * ) from 1976 as t1 GROUP BY t1.name HAVING COUNT ( * ) > 10 	2-11025881-2
find the name of 1976 who have places of both 10 and 99 .	SELECT t1.name from 1976 as t1 WHERE t1.places = 10 INTERSECT SELECT t1.name from 1976 as t1 WHERE t1.places = 99	2-11025881-2
find the name of the 1976 with the highest sp + fs.	SELECT t1.name from 1976 as t1 WHERE t1.sp_+_fs = ( SELECT MAX ( t1.sp_+_fs ) from 1976 as t1 )	2-11025881-2
