what is the count of 2007 with more than 10 player ?	SELECT COUNT ( * ) from 2007 as t1 GROUP BY t1.player HAVING COUNT ( * ) > 10 	2-11783766-5
give the t1.club/province with the fewest 2007 .	SELECT t1.club/province from 2007 as t1 GROUP BY t1.club/province ORDER BY COUNT ( * ) LIMIT 1	2-11783766-5
return the date of birth ( age ) of the 2007 with the fewest caps .	SELECT t1.date_of_birth_ from 2007 as t1 ORDER BY t1.caps ASC LIMIT 1	2-11783766-5
return the club/province of the 2007 with the fewest caps .	SELECT t1.club/province from 2007 as t1 ORDER BY t1.caps ASC LIMIT 1	2-11783766-5
find the player and position of the 2007 with at least 10 date of birth ( age ) .	SELECT t1.player , t1.position from 2007 as t1 GROUP BY t1.date_of_birth_ HAVING COUNT ( * ) >= 10	2-11783766-5
return the player and position of 2007 with the five lowest caps .	SELECT t1.player , t1.position from 2007 as t1 ORDER BY t1.caps LIMIT 5	2-11783766-5
please show the club/province of the 2007 that have at least 10 records .	SELECT t1.club/province from 2007 as t1 GROUP BY t1.club/province HAVING COUNT ( * ) >= 10	2-11783766-5
what is the club/province and date of birth ( age ) of the 2007 with the top 5 smallest caps ?	SELECT t1.club/province , t1.date_of_birth_ from 2007 as t1 ORDER BY t1.caps LIMIT 5	2-11783766-5
which club/province has both 2007 with less than 10 caps and 2007 with more than 10 caps ?	SELECT t1.club/province from 2007 as t1 WHERE t1.caps < 10 INTERSECT SELECT t1.club/province from 2007 as t1 WHERE t1.caps > 10	2-11783766-5
what are the date of birth ( age ) for all 2007 , and what is the total {caps for each ?	SELECT t1.date_of_birth_ , SUM ( t1.caps ) from 2007 as t1 GROUP BY t1.date_of_birth_	2-11783766-5
