how many 2007 have time/retired that contain the word 10 ?	SELECT COUNT ( * ) from 2007 as t1 WHERE t1.time/retired LIKE 10	2-11842413-1
what is the time/retired and time/retired of the 2007 with maximum grid ?	SELECT t1.time/retired , t1.time/retired from 2007 as t1 WHERE t1.grid = ( SELECT MAX ( t1.grid ) {FROM, 3} )	2-11842413-1
show the rider of 2007 who have at least 10 2007 .	SELECT t1.rider from 2007 as t1 GROUP BY t1.rider HAVING COUNT ( * ) >= 10	2-11842413-1
which t1.manufacturer has the fewest 2007 ?	SELECT t1.manufacturer from 2007 as t1 GROUP BY t1.manufacturer ORDER BY COUNT ( * ) LIMIT 1	2-11842413-1
find the rider of 2007 whose grid is higher than the average grid .	SELECT t1.rider from 2007 as t1 WHERE t1.grid > ( SELECT AVG ( t1.grid ) from 2007 as t1	2-11842413-1
what is the time/retired of all 2007 whose grid is higher than any 2007 ?	SELECT t1.time/retired from 2007 as t1 WHERE t1.grid > ( SELECT MIN ( t1.grid ) from 2007 as t1 )	2-11842413-1
what are the rider for all 2007 , and what is the total {grid for each ?	SELECT t1.rider , SUM ( t1.grid ) from 2007 as t1 GROUP BY t1.rider	2-11842413-1
what is the rider and time/retired of the 2007 with the top 5 smallest laps ?	SELECT t1.rider , t1.time/retired from 2007 as t1 ORDER BY t1.laps LIMIT 5	2-11842413-1
how many 2007 are there in time/retired 10 or 68 ?	SELECT COUNT ( * ) from 2007 as t1 WHERE t1.time/retired = 10 OR t1.time/retired = 68	2-11842413-1
which manufacturer have an average grid over 10 ?	SELECT t1.manufacturer from 2007 as t1 GROUP BY t1.manufacturer HAVING AVG ( t1.grid ) >= 10	2-11842413-1
