list the long of the 2007 whose yards is not 10 .	SELECT t1.long from 2007 as t1 WHERE t1.yards ! = 10	2-11786160-3
return the smallest car . for every long .	SELECT MIN ( t1.car_ ) , t1.long from 2007 as t1 GROUP BY t1.long	2-11786160-3
find the avg . of 2007 which are in 10 avg . but not in 25 avg . .	SELECT t1.avg_ from 2007 as t1 WHERE t1.avg_ = 10 EXCEPT SELECT t1.avg_ from 2007 as t1 WHERE t1.avg_ = 25	2-11786160-3
return the smallest td 's for every long .	SELECT MIN ( t1.td_ ) , t1.long from 2007 as t1 GROUP BY t1.long	2-11786160-3
what are the long that have greater td 's than any td 's in 2007 ?	SELECT t1.long from 2007 as t1 WHERE t1.td_ > ( SELECT MIN ( t1.td_ ) from 2007 as t1 )	2-11786160-3
how many 2007 does each avg . have ?	SELECT t1.avg_ , COUNT ( * ) from 2007 as t1 GROUP BY t1.avg_ ORDER BY COUNT ( * )	2-11786160-3
what are the player and yards of the {COLUMN} who have car . above five or td 's below ten ?	SELECT t1.player , t1.yards from 2007 as t1 WHERE t1.car_ > 5 OR t1.td_ < 10	2-11786160-3
what are the long of 2007 , sorted by their frequency?	SELECT t1.long from 2007 as t1 GROUP BY t1.long ORDER BY COUNT ( * ) ASC LIMIT 1	2-11786160-3
what are the yards of all 2007 that have 10 or more 2007 ?	SELECT t1.yards from 2007 as t1 GROUP BY t1.yards HAVING COUNT ( * ) >= 10	2-11786160-3
which yards has both 2007 with less than 10 car . and 2007 with more than 77 car . ?	SELECT t1.yards from 2007 as t1 WHERE t1.car_ < 10 INTERSECT SELECT t1.yards from 2007 as t1 WHERE t1.car_ > 77	2-11786160-3
