return the smallest pick for every player .	SELECT MIN ( t1.pick ) , t1.player from 2005 as t1 GROUP BY t1.player	2-11779131-3
find the pba team of 2005 whose pick is more than the average pick of 2005 .	SELECT t1.pba_team from 2005 as t1 WHERE t1.pick > ( SELECT AVG ( t1.pick ) from 2005 as t1	2-11779131-3
what is the minimum pick in each college ?	SELECT MIN ( t1.pick ) , t1.college from 2005 as t1 GROUP BY t1.college	2-11779131-3
which country of origin * have an average pick over 10 ?	SELECT t1.country_of_origin_* from 2005 as t1 GROUP BY t1.country_of_origin_* HAVING AVG ( t1.pick ) >= 10	2-11779131-3
please list the country of origin * and pba team of 2005 in descending order of pick .	SELECT t1.country_of_origin_* , t1.pba_team from 2005 as t1 ORDER BY t1.pick DESC	2-11779131-3
Show everything on 2005	SELECT * FROM 2005	2-11779131-3
what is the count of 2005 with more than 10 pba team ?	SELECT COUNT ( * ) from 2005 as t1 GROUP BY t1.pba_team HAVING COUNT ( * ) > 10 	2-11779131-3
what are the distinct COLUMN_NAME,0} of 2005 with pick higher than any 2005 from 10 {COLUMN_NAME_2} .	SELECT DISTINCT t1.pba_team from 2005 as t1 WHERE t1.pick > ( SELECT MIN ( t1.pba_team ) from 2005 as t1 WHERE t1.pba_team = 10 )	2-11779131-3
find the number of 2005 that have more than 10 pba team .	SELECT COUNT ( * ) from 2005 as t1 GROUP BY t1.pba_team HAVING COUNT ( * ) > 10 	2-11779131-3
give the t1.pba_team with the fewest 2005 .	SELECT t1.pba_team from 2005 as t1 GROUP BY t1.pba_team ORDER BY COUNT ( * ) LIMIT 1	2-11779131-3
