which opponent have greater attendance than that of any attendance in 2005 ?	SELECT t1.opponent from 2005 as t1 WHERE t1.attendance > ( SELECT MIN ( t1.attendance ) from 2005 as t1 )	2-11195757-1
find the record of 2005 which have both 10 and 90 as record .	SELECT t1.record from 2005 as t1 WHERE t1.attendance = 10 INTERSECT SELECT t1.record from 2005 as t1 WHERE t1.attendance = 90	2-11195757-1
which loss have an average attendance over 10 ?	SELECT t1.loss from 2005 as t1 GROUP BY t1.loss HAVING AVG ( t1.attendance ) >= 10	2-11195757-1
give the maximum and minimum attendance of all 2005 .	SELECT MAX ( t1.attendance ) , MIN ( t1.attendance ) from 2005 as t1	2-11195757-1
how many 2005 are there in date 10 or 28 ?	SELECT COUNT ( * ) from 2005 as t1 WHERE t1.date = 10 OR t1.date = 28	2-11195757-1
what is the score and record of the 2005 with the top 5 smallest attendance ?	SELECT t1.score , t1.record from 2005 as t1 ORDER BY t1.attendance LIMIT 5	2-11195757-1
find the date for all 2005 who have more than the average attendance .	SELECT t1.date from 2005 as t1 WHERE t1.attendance > ( SELECT AVG ( t1.attendance ) from 2005 as t1	2-11195757-1
what is the loss and date of the 2005 with maximum attendance ?	SELECT t1.loss , t1.date from 2005 as t1 WHERE t1.attendance = ( SELECT MAX ( t1.attendance ) {FROM, 3} )	2-11195757-1
show the date of 2005 who have at least 10 2005 .	SELECT t1.date from 2005 as t1 GROUP BY t1.date HAVING COUNT ( * ) >= 10	2-11195757-1
what are the score and record of 2005 with 10 or more record ?	SELECT t1.score , t1.record from 2005 as t1 GROUP BY t1.record HAVING COUNT ( * ) >= 10	2-11195757-1
