find the opponent of 1993 which have 10 but no 75 as date .	SELECT t1.opponent from 1993 as t1 WHERE t1.date = 10 EXCEPT SELECT t1.opponent from 1993 as t1 WHERE t1.date = 75	2-11512165-5
count the number of 1993 that have an opponent containing 10 .	SELECT COUNT ( * ) from 1993 as t1 WHERE t1.opponent LIKE 10	2-11512165-5
how many 1993 ' loss have the word 10 in them ?	SELECT COUNT ( * ) from 1993 as t1 WHERE t1.loss LIKE 10	2-11512165-5
show record for all 1993 whose attendance are greater than the average .	SELECT t1.record from 1993 as t1 WHERE t1.attendance > ( SELECT AVG ( t1.attendance ) from 1993 as t1	2-11512165-5
show the date of 1993 who have at least 10 1993 .	SELECT t1.date from 1993 as t1 GROUP BY t1.date HAVING COUNT ( * ) >= 10	2-11512165-5
show the opponent with fewer than 3 1993 .	SELECT t1.opponent from 1993 as t1 GROUP BY t1.opponent HAVING COUNT ( * ) < 3	2-11512165-5
please show the different record , ordered by the number of 1993 that have each .	SELECT t1.record from 1993 as t1 GROUP BY t1.record ORDER BY COUNT ( * ) ASC LIMIT 1	2-11512165-5
show the record and the corresponding number of 1993 sorted by the number of record in ascending order .	SELECT t1.record , COUNT ( * ) from 1993 as t1 GROUP BY t1.record ORDER BY COUNT ( * )	2-11512165-5
find the opponent of 1993 who have both 10 and 50 attendance .	SELECT t1.opponent from 1993 as t1 WHERE t1.attendance = 10 INTERSECT SELECT t1.opponent from 1993 as t1 WHERE t1.attendance = 50	2-11512165-5
what is the score of the 1993 with the largest attendance ?	SELECT t1.score from 1993 as t1 WHERE t1.attendance = ( SELECT MAX ( t1.attendance ) from 1993 as t1 )	2-11512165-5
