which player have greater long than that of any long in 2007 ?	SELECT t1.player from 2007 as t1 WHERE t1.long > ( SELECT MIN ( t1.long ) from 2007 as t1 )	2-11786940-5
how many 2007 ' player have the word 10 in them ?	SELECT COUNT ( * ) from 2007 as t1 WHERE t1.player LIKE 10	2-11786940-5
Return all columns in 2007 .	SELECT * FROM 2007	2-11786940-5
list player of 2007 that have the number of 2007 greater than 10 .	SELECT t1.player from 2007 as t1 GROUP BY t1.player HAVING COUNT ( * ) > 10	2-11786940-5
show player and the number of distinct player in each player .	SELECT t1.player , COUNT ( DISTINCT t1.player ) from 2007 as t1 GROUP BY t1.player	2-11786940-5
show the player , player , and player of all the 2007 .	SELECT t1.player , t1.player , t1.player from 2007 as t1	2-11786940-5
find the player of 2007 which have both 10 and 41 as player .	SELECT t1.player from 2007 as t1 WHERE t1.long = 10 INTERSECT SELECT t1.player from 2007 as t1 WHERE t1.long = 41	2-11786940-5
find the player of the 2007 who has the largest number of 2007 .	SELECT t1.player from 2007 as t1 GROUP BY t1.player ORDER BY COUNT ( * ) DESC LIMIT 1	2-11786940-5
show the player and the corresponding number of 2007 sorted by the number of player in ascending order .	SELECT t1.player , COUNT ( * ) from 2007 as t1 GROUP BY t1.player ORDER BY COUNT ( * )	2-11786940-5
find the distinct player of 2007 having avg . between 10 and 96 .	SELECT DISTINCT t1.player from 2007 as t1 WHERE t1.avg_ BETWEEN 10 AND 96	2-11786940-5
