what is the opponent and record of the 2006 with maximum attendance ?	SELECT t1.opponent , t1.record from 2006 as t1 WHERE t1.attendance = ( SELECT MAX ( t1.attendance ) {FROM, 3} )	2-11867642-2
list the record which average attendance is above 10 .	SELECT t1.record from 2006 as t1 GROUP BY t1.record HAVING AVG ( t1.attendance ) >= 10	2-11867642-2
show the score with fewer than 3 2006 .	SELECT t1.score from 2006 as t1 GROUP BY t1.score HAVING COUNT ( * ) < 3	2-11867642-2
find the record of 2006 who have more than 10 2006 .	SELECT t1.record from 2006 as t1 GROUP BY t1.record HAVING COUNT ( * ) > 10	2-11867642-2
find the score of 2006 which are loss 10 but not loss 93 .	SELECT t1.score from 2006 as t1 WHERE t1.loss = 10 EXCEPT SELECT t1.score from 2006 as t1 WHERE t1.loss = 93	2-11867642-2
please list the date and score of 2006 in descending order of attendance .	SELECT t1.date , t1.score from 2006 as t1 ORDER BY t1.attendance DESC	2-11867642-2
please show the opponent of the 2006 that have at least 10 records .	SELECT t1.opponent from 2006 as t1 GROUP BY t1.opponent HAVING COUNT ( * ) >= 10	2-11867642-2
find the distinct opponent of 2006 having attendance between 10 and 23 .	SELECT DISTINCT t1.opponent from 2006 as t1 WHERE t1.attendance BETWEEN 10 AND 23	2-11867642-2
what is the record and loss of the 2006 with maximum attendance ?	SELECT t1.record , t1.loss from 2006 as t1 WHERE t1.attendance = ( SELECT MAX ( t1.attendance ) {FROM, 3} )	2-11867642-2
please show the loss of the 2006 with count more than 10 .	SELECT t1.loss from 2006 as t1 GROUP BY t1.loss HAVING COUNT ( * ) > 10	2-11867642-2
