which ! late 1941 has both yugoslav with less than 10 1978 veteran membership and yugoslav with more than 56 1978 veteran membership ?	SELECT t1.! from yugoslav as t1 WHERE t1.1978_veteran_membership < 10 INTERSECT SELECT t1.! from yugoslav as t1 WHERE t1.1978_veteran_membership > 56	2-1115992-1
find the number of yugoslav that have more than 10 ! late 1941 .	SELECT COUNT ( * ) from yugoslav as t1 GROUP BY t1.! HAVING COUNT ( * ) > 10 	2-1115992-1
return the ! late 1941 of the largest late 1944.	SELECT t1.! from yugoslav as t1 ORDER BY t1.late_1944 DESC LIMIT 1	2-1115992-1
what is the ! late 1941 of yugoslav with the maximum late 1944 across all yugoslav ?	SELECT t1.! from yugoslav as t1 WHERE t1.late_1944 = ( SELECT MAX ( t1.late_1944 ) from yugoslav as t1 )	2-1115992-1
what are the ! late 1941 of all yugoslav with ! late 1941 that is 10 ?	SELECT t1.! from yugoslav as t1 GROUP BY t1.! HAVING COUNT ( * ) = 10	2-1115992-1
what are the ! late 1941 of all yugoslav that have 10 or more yugoslav ?	SELECT t1.! from yugoslav as t1 GROUP BY t1.! HAVING COUNT ( * ) >= 10	2-1115992-1
select the average late 1944 of each yugoslav 's ! late 1941 .	SELECT AVG ( t1.late_1944 ) , t1.! from yugoslav as t1 GROUP BY t1.!	2-1115992-1
what are the distinct ! late 1941 with late 1942 between 10 and 32 ?	SELECT DISTINCT t1.! from yugoslav as t1 WHERE t1.late_1942 BETWEEN 10 AND 32	2-1115992-1
return the different ! late 1941 of yugoslav , in ascending order of frequency .	SELECT t1.! from yugoslav as t1 GROUP BY t1.! ORDER BY COUNT ( * ) ASC LIMIT 1	2-1115992-1
what are the ! late 1941 and ! late 1941 of yugoslav with 10 or more ! late 1941 ?	SELECT t1.! , t1.! from yugoslav as t1 GROUP BY t1.! HAVING COUNT ( * ) >= 10	2-1115992-1
