what are the nation and nation of each 1920 ?	SELECT t1.nation , t1.nation from 1920 as t1	2-113485-1
find the nation of 1920 who have bronze of both 10 and 90 .	SELECT t1.nation from 1920 as t1 WHERE t1.bronze = 10 INTERSECT SELECT t1.nation from 1920 as t1 WHERE t1.bronze = 90	2-113485-1
Return all columns in 1920 .	SELECT * FROM 1920	2-113485-1
what are the nation of all 1920 with nation that is 10 ?	SELECT t1.nation from 1920 as t1 GROUP BY t1.nation HAVING COUNT ( * ) = 10	2-113485-1
show nation and the number of distinct nation in each nation .	SELECT t1.nation , COUNT ( DISTINCT t1.nation ) from 1920 as t1 GROUP BY t1.nation	2-113485-1
find the nation and nation of the 1920 with at least 10 nation .	SELECT t1.nation , t1.nation from 1920 as t1 GROUP BY t1.nation HAVING COUNT ( * ) >= 10	2-113485-1
what are the nation , nation , and nation of each 1920 ?	SELECT t1.nation , t1.nation , t1.nation from 1920 as t1	2-113485-1
what are the nation of all 1920 with nation that is 10 ?	SELECT t1.nation from 1920 as t1 GROUP BY t1.nation HAVING COUNT ( * ) = 10	2-113485-1
find the nation of 1920 who have both 10 and 4 gold .	SELECT t1.nation from 1920 as t1 WHERE t1.gold = 10 INTERSECT SELECT t1.nation from 1920 as t1 WHERE t1.gold = 4	2-113485-1
what are the nation and nation ?	SELECT t1.nation , t1.nation from 1920 as t1	2-113485-1
