show the record and the total attendance of 1985 .	SELECT t1.record , SUM ( t1.attendance ) from 1985 as t1 GROUP BY t1.record	2-12207474-7
find the date of 1985 who have both 10 and 10 attendance .	SELECT t1.date from 1985 as t1 WHERE t1.attendance = 10 INTERSECT SELECT t1.date from 1985 as t1 WHERE t1.attendance = 10	2-12207474-7
what is all the information on the 1985 with the largest number of opponent ?	SELECT * from 1985 as t1 ORDER BY t1.opponent DESC LIMIT 1	2-12207474-7
what is the record and record of the 1985 with maximum attendance ?	SELECT t1.record , t1.record from 1985 as t1 WHERE t1.attendance = ( SELECT MAX ( t1.attendance ) {FROM, 3} )	2-12207474-7
show the score and the number of 1985 for each score in the ascending order.	SELECT t1.score , COUNT ( * ) from 1985 as t1 GROUP BY t1.score ORDER BY COUNT ( * )	2-12207474-7
what is the score and opponent of the 1985 with maximum attendance ?	SELECT t1.score , t1.opponent from 1985 as t1 WHERE t1.attendance = ( SELECT MAX ( t1.attendance ) {FROM, 3} )	2-12207474-7
return the date of 1985 for which the opponent is not 10 ?	SELECT t1.date from 1985 as t1 WHERE t1.opponent ! = 10	2-12207474-7
which loss has both 1985 with less than 10 attendance and 1985 with more than 17 attendance ?	SELECT t1.loss from 1985 as t1 WHERE t1.attendance < 10 INTERSECT SELECT t1.loss from 1985 as t1 WHERE t1.attendance > 17	2-12207474-7
what is the count of 1985 with more than 10 loss ?	SELECT COUNT ( * ) from 1985 as t1 GROUP BY t1.loss HAVING COUNT ( * ) > 10 	2-12207474-7
find the score of 1985 which are in 10 loss but not in 44 loss .	SELECT t1.score from 1985 as t1 WHERE t1.loss = 10 EXCEPT SELECT t1.score from 1985 as t1 WHERE t1.loss = 44	2-12207474-7
