which score is the most frequent score?	SELECT t1.score from 2006 as t1 GROUP BY t1.score ORDER BY COUNT ( * ) DESC LIMIT 1	2-12523044-7
what is the player of all 2006 whose to par is higher than any 2006 ?	SELECT t1.player from 2006 as t1 WHERE t1.to_par > ( SELECT MIN ( t1.to_par ) from 2006 as t1 )	2-12523044-7
what are the place and country of the {COLUMN} who have money ( $ ) above five or to par below ten ?	SELECT t1.place , t1.country from 2006 as t1 WHERE t1.money_ > 5 OR t1.to_par < 10	2-12523044-7
what is the player of the 2006 who has the highest number of 2006 ?	SELECT t1.player from 2006 as t1 GROUP BY t1.player ORDER BY COUNT ( * ) DESC LIMIT 1	2-12523044-7
what are total money ( $ ) for each place ?	SELECT t1.place , SUM ( t1.money_ ) from 2006 as t1 GROUP BY t1.place	2-12523044-7
return the maximum and minimum to par across all 2006 .	SELECT MAX ( t1.to_par ) , MIN ( t1.to_par ) from 2006 as t1	2-12523044-7
what is the player and country of the 2006 with the top 5 smallest to par ?	SELECT t1.player , t1.country from 2006 as t1 ORDER BY t1.to_par LIMIT 5	2-12523044-7
what are the player of all 2006 that have 10 or more 2006 ?	SELECT t1.player from 2006 as t1 GROUP BY t1.player HAVING COUNT ( * ) >= 10	2-12523044-7
which t1.country has the smallest amount of 2006?	SELECT t1.country from 2006 as t1 GROUP BY t1.country ORDER BY COUNT ( * ) LIMIT 1	2-12523044-7
show player and country of 2006 .	SELECT t1.player , t1.country from 2006 as t1	2-12523044-7
