return the opponent of the 1997 with the fewest attendance .	SELECT t1.opponent from 1997 as t1 ORDER BY t1.attendance ASC LIMIT 1	2-12206243-10
what is the opponent of 1997 with the maximum attendance across all 1997 ?	SELECT t1.opponent from 1997 as t1 WHERE t1.attendance = ( SELECT MAX ( t1.attendance ) from 1997 as t1 )	2-12206243-10
what is the minimum attendance in each opponent ?	SELECT MIN ( t1.attendance ) , t1.opponent from 1997 as t1 GROUP BY t1.opponent	2-12206243-10
please show the record of the 1997 that have at least 10 records .	SELECT t1.record from 1997 as t1 GROUP BY t1.record HAVING COUNT ( * ) >= 10	2-12206243-10
what are the distinct COLUMN_NAME,0} of 1997 with attendance higher than any 1997 from 10 {COLUMN_NAME_2} .	SELECT DISTINCT t1.opponent from 1997 as t1 WHERE t1.attendance > ( SELECT MIN ( t1.opponent ) from 1997 as t1 WHERE t1.date = 10 )	2-12206243-10
list the score of the 1997 whose loss is not 10 .	SELECT t1.score from 1997 as t1 WHERE t1.loss ! = 10	2-12206243-10
what are the opponent of all 1997 with loss that is 10 ?	SELECT t1.opponent from 1997 as t1 GROUP BY t1.loss HAVING COUNT ( * ) = 10	2-12206243-10
what are the record of 1997 whose loss are not 10 ?	SELECT t1.record from 1997 as t1 WHERE t1.loss ! = 10	2-12206243-10
show the date and date with at least 10 score .	SELECT t1.date , t1.date from 1997 as t1 GROUP BY t1.score HAVING COUNT ( * ) >= 10	2-12206243-10
what are the date , date , and opponent of each 1997 ?	SELECT t1.date , t1.date , t1.opponent from 1997 as t1	2-12206243-10
