give the state that has the most list .	SELECT t1.state from list as t1 GROUP BY t1.state ORDER BY COUNT ( * ) DESC LIMIT 1	2-12102536-2
what are the % of d votes of the list that have exactly 10 list ?	SELECT t1.% from list as t1 GROUP BY t1.% HAVING COUNT ( * ) = 10	2-12102536-2
what is the state of the list with the smallest votes since 1856 ?	SELECT t1.state from list as t1 ORDER BY t1.votes_since_1856 ASC LIMIT 1	2-12102536-2
what are the o % since 1856 for all list , and what is the total {other votes for each ?	SELECT t1.o_ , SUM ( t1.other_votes ) from list as t1 GROUP BY t1.o_	2-12102536-2
show the state , % of o votes , and % of o votes of all the list .	SELECT t1.state , t1.% , t1.% from list as t1	2-12102536-2
show the % of r votes and % of d votes with at least 10 state .	SELECT t1.% , t1.% from list as t1 GROUP BY t1.state HAVING COUNT ( * ) >= 10	2-12102536-2
what is the t1.% of list that has fewest number of list ?	SELECT t1.% from list as t1 GROUP BY t1.% ORDER BY COUNT ( * ) LIMIT 1	2-12102536-2
list % of o votes and state who have votes greater than 5 or republican votes shorter than 10 .	SELECT t1.% , t1.state from list as t1 WHERE t1.votes > 5 OR t1.republican_votes < 10	2-12102536-2
what is the t1.state of list that has fewest number of list ?	SELECT t1.state from list as t1 GROUP BY t1.state ORDER BY COUNT ( * ) LIMIT 1	2-12102536-2
what are the o % since 1856 and o % since 1856 of each list ?	SELECT t1.o_ , t1.o_ from list as t1	2-12102536-2
