what are the place , player , and player of each 2007 ?	SELECT t1.place , t1.player , t1.player from 2007 as t1	2-12278571-4
what are all the to par and country?	SELECT t1.to_par , t1.country from 2007 as t1	2-12278571-4
what is the country of highest score ?	SELECT t1.country from 2007 as t1 ORDER BY t1.score DESC LIMIT 1	2-12278571-4
how many different country correspond to each place ?	SELECT t1.place , COUNT ( DISTINCT t1.country ) from 2007 as t1 GROUP BY t1.place	2-12278571-4
find the place of 2007 whose score is higher than the average score .	SELECT t1.place from 2007 as t1 WHERE t1.score > ( SELECT AVG ( t1.score ) from 2007 as t1	2-12278571-4
find the distinct COLUMN_NAME,0} of all 2007 that have score higher than some 2007 from 10 {COLUMN_NAME_2} .	SELECT DISTINCT t1.country from 2007 as t1 WHERE t1.score > ( SELECT MIN ( t1.country ) from 2007 as t1 WHERE t1.player = 10 )	2-12278571-4
what are the player and player of each 2007 , listed in descending order by score ?	SELECT t1.player , t1.player from 2007 as t1 ORDER BY t1.score DESC	2-12278571-4
what are the to par more than 10 2007 have ?	SELECT t1.to_par from 2007 as t1 GROUP BY t1.to_par HAVING COUNT ( * ) > 10	2-12278571-4
list the to par which average score is above 10 .	SELECT t1.to_par from 2007 as t1 GROUP BY t1.to_par HAVING AVG ( t1.score ) >= 10	2-12278571-4
what are the player , place , and country of each 2007 ?	SELECT t1.player , t1.place , t1.country from 2007 as t1	2-12278571-4
