what is the maximum and mininum attendance {COLUMN} for all 2004 ?	SELECT MAX ( t1.attendance ) , MIN ( t1.attendance ) from 2004 as t1	2-12205709-7
what are the date of all 2004 that have 10 or more 2004 ?	SELECT t1.date from 2004 as t1 GROUP BY t1.date HAVING COUNT ( * ) >= 10	2-12205709-7
which loss have greater attendance than that of any attendance in 2004 ?	SELECT t1.loss from 2004 as t1 WHERE t1.attendance > ( SELECT MIN ( t1.attendance ) from 2004 as t1 )	2-12205709-7
which t1.score has the fewest 2004 ?	SELECT t1.score from 2004 as t1 GROUP BY t1.score ORDER BY COUNT ( * ) LIMIT 1	2-12205709-7
what are the distinct COLUMN_NAME,0} of 2004 with attendance higher than any 2004 from 10 {COLUMN_NAME_2} .	SELECT DISTINCT t1.date from 2004 as t1 WHERE t1.attendance > ( SELECT MIN ( t1.date ) from 2004 as t1 WHERE t1.opponent = 10 )	2-12205709-7
find the loss and score of the 2004 with at least 10 score .	SELECT t1.loss , t1.score from 2004 as t1 GROUP BY t1.score HAVING COUNT ( * ) >= 10	2-12205709-7
what are the loss and score of the {COLUMN} who have attendance above five or attendance below ten ?	SELECT t1.loss , t1.score from 2004 as t1 WHERE t1.attendance > 5 OR t1.attendance < 10	2-12205709-7
what are the score of 2004 , sorted by their frequency?	SELECT t1.score from 2004 as t1 GROUP BY t1.score ORDER BY COUNT ( * ) ASC LIMIT 1	2-12205709-7
what are the loss of 2004 whose record is not 10 ?	SELECT t1.loss from 2004 as t1 WHERE t1.record ! = 10	2-12205709-7
count the number of 2004 in score 10 or 67 .	SELECT COUNT ( * ) from 2004 as t1 WHERE t1.score = 10 OR t1.score = 67	2-12205709-7
