what is the visitor and score of the 1951 with maximum attendance ?	SELECT t1.visitor , t1.score from 1951 as t1 WHERE t1.attendance = ( SELECT MAX ( t1.attendance ) {FROM, 3} )	2-12150068-2
what are the home of the 1951 that have exactly 10 1951 ?	SELECT t1.home from 1951 as t1 GROUP BY t1.home HAVING COUNT ( * ) = 10	2-12150068-2
what are the record that have greater attendance than any attendance in 1951 ?	SELECT t1.record from 1951 as t1 WHERE t1.attendance > ( SELECT MIN ( t1.attendance ) from 1951 as t1 )	2-12150068-2
what is the date of the 1951 with the minimum attendance ?	SELECT t1.date from 1951 as t1 ORDER BY t1.attendance ASC LIMIT 1	2-12150068-2
find the date of 1951 who have both 10 and 89 attendance .	SELECT t1.date from 1951 as t1 WHERE t1.attendance = 10 INTERSECT SELECT t1.date from 1951 as t1 WHERE t1.attendance = 89	2-12150068-2
what is the score and record of the 1951 with maximum attendance ?	SELECT t1.score , t1.record from 1951 as t1 WHERE t1.attendance = ( SELECT MAX ( t1.attendance ) {FROM, 3} )	2-12150068-2
return the record of the largest attendance.	SELECT t1.record from 1951 as t1 ORDER BY t1.attendance DESC LIMIT 1	2-12150068-2
what are the record and date of 1951 with 10 or more record ?	SELECT t1.record , t1.date from 1951 as t1 GROUP BY t1.record HAVING COUNT ( * ) >= 10	2-12150068-2
find the score and date of the 1951 with at least 10 score .	SELECT t1.score , t1.date from 1951 as t1 GROUP BY t1.score HAVING COUNT ( * ) >= 10	2-12150068-2
what are the home for all 1951 , and what is the total {attendance for each ?	SELECT t1.home , SUM ( t1.attendance ) from 1951 as t1 GROUP BY t1.home	2-12150068-2
