find the jews ( halakha ) in israel and jews ( halakha ) in israel of the 1990s with at least 10 jews ( halakha ) in israel .	SELECT t1.jews_ , t1.jews_ from 1990s as t1 GROUP BY t1.jews_ HAVING COUNT ( * ) >= 10	2-12885399-1
what are the year of the 1990s with year other than 10 ?	SELECT t1.year from 1990s as t1 WHERE t1.jews_ ! = 10	2-12885399-1
what is the jews ( halakha ) in israel of 1990s with the maximum israel across all 1990s ?	SELECT t1.jews_ from 1990s as t1 WHERE t1.israel = ( SELECT MAX ( t1.israel ) from 1990s as t1 )	2-12885399-1
find the jews ( halakha ) in israel of 1990s which are jews ( halakha ) in israel 10 but not jews ( halakha ) in israel 96 .	SELECT t1.jews_ from 1990s as t1 WHERE t1.jews_ = 10 EXCEPT SELECT t1.jews_ from 1990s as t1 WHERE t1.jews_ = 96	2-12885399-1
return the smallest israel for every jews ( halakha ) in israel .	SELECT MIN ( t1.israel ) , t1.jews_ from 1990s as t1 GROUP BY t1.jews_	2-12885399-1
return the year and jews ( halakha ) in israel of 1990s with the five lowest germany .	SELECT t1.year , t1.jews_ from 1990s as t1 ORDER BY t1.germany LIMIT 5	2-12885399-1
show the jews ( halakha ) in israel of 1990s who have at least 10 1990s .	SELECT t1.jews_ from 1990s as t1 GROUP BY t1.jews_ HAVING COUNT ( * ) >= 10	2-12885399-1
sort the list of jews ( halakha ) in israel and year of all 1990s in the descending order of israel .	SELECT t1.jews_ , t1.year from 1990s as t1 ORDER BY t1.israel DESC	2-12885399-1
please list the year and jews ( halakha ) in israel of 1990s in descending order of germany .	SELECT t1.year , t1.jews_ from 1990s as t1 ORDER BY t1.germany DESC	2-12885399-1
what are the jews ( halakha ) in israel and year of the {COLUMN} who have total ( 000s ) above five or total ( 000s ) below ten ?	SELECT t1.jews_ , t1.year from 1990s as t1 WHERE t1.total_ > 5 OR t1.total_ < 10	2-12885399-1
