which result has the least attendance ?	SELECT t1.result from 1982 as t1 ORDER BY t1.attendance ASC LIMIT 1	2-12536551-2
find the number of 1982 whose result contain the word 10 .	SELECT COUNT ( * ) from 1982 as t1 WHERE t1.result LIKE 10	2-12536551-2
find the result of 1982 which have 10 but no 28 as opponent .	SELECT t1.result from 1982 as t1 WHERE t1.opponent = 10 EXCEPT SELECT t1.result from 1982 as t1 WHERE t1.opponent = 28	2-12536551-2
find the date and date of the 1982 with at least 10 date .	SELECT t1.date , t1.date from 1982 as t1 GROUP BY t1.date HAVING COUNT ( * ) >= 10	2-12536551-2
what is the opponent of the 1982 with least number of opponent ?	SELECT t1.opponent from 1982 as t1 GROUP BY t1.opponent ORDER BY COUNT ( * ) ASC LIMIT 1	2-12536551-2
list the result which average attendance is above 10 .	SELECT t1.result from 1982 as t1 GROUP BY t1.result HAVING AVG ( t1.attendance ) >= 10	2-12536551-2
what are the result and result ?	SELECT t1.result , t1.result from 1982 as t1	2-12536551-2
what are the opponent of all 1982 with opponent that is 10 ?	SELECT t1.opponent from 1982 as t1 GROUP BY t1.opponent HAVING COUNT ( * ) = 10	2-12536551-2
which date is the most frequent date?	SELECT t1.date from 1982 as t1 GROUP BY t1.date ORDER BY COUNT ( * ) DESC LIMIT 1	2-12536551-2
find the date that have 10 1982 .	SELECT t1.date from 1982 as t1 GROUP BY t1.date HAVING COUNT ( * ) = 10	2-12536551-2
