what is the game site and game site of the 1994 with maximum week ?	SELECT t1.game_site , t1.game_site from 1994 as t1 WHERE t1.week = ( SELECT MAX ( t1.week ) {FROM, 3} )	2-12488251-2
what is the game site of the 1994 with the minimum week ?	SELECT t1.game_site from 1994 as t1 ORDER BY t1.week ASC LIMIT 1	2-12488251-2
list all information about 1994 .	SELECT * FROM 1994	2-12488251-2
what are the attendance , opponent , and attendance of each 1994 ?	SELECT t1.attendance , t1.opponent , t1.result from 1994 as t1	2-12488251-2
what are the result that have greater week than any week in 1994 ?	SELECT t1.result from 1994 as t1 WHERE t1.week > ( SELECT MIN ( t1.week ) from 1994 as t1 )	2-12488251-2
show the opponent of the 1994 that has the greatest number of 1994 .	SELECT t1.opponent from 1994 as t1 GROUP BY t1.opponent ORDER BY COUNT ( * ) DESC LIMIT 1	2-12488251-2
what is the attendance of 1994 with the maximum week across all 1994 ?	SELECT t1.attendance from 1994 as t1 WHERE t1.week = ( SELECT MAX ( t1.week ) from 1994 as t1 )	2-12488251-2
find the opponent of 1994 which are result 10 but not result 82 .	SELECT t1.opponent from 1994 as t1 WHERE t1.result = 10 EXCEPT SELECT t1.opponent from 1994 as t1 WHERE t1.result = 82	2-12488251-2
what is all the information on the 1994 with the largest number of result ?	SELECT * from 1994 as t1 ORDER BY t1.result DESC LIMIT 1	2-12488251-2
show the game site and the number of 1994 for each game site in the ascending order.	SELECT t1.game_site , COUNT ( * ) from 1994 as t1 GROUP BY t1.game_site ORDER BY COUNT ( * )	2-12488251-2
