find the team of the 2004 that have just 10 2004 .	SELECT t1.team from 2004 as t1 GROUP BY t1.team HAVING COUNT ( * ) = 10	2-12750254-1
please show the team of the 2004 with count more than 10 .	SELECT t1.team from 2004 as t1 GROUP BY t1.team HAVING COUNT ( * ) > 10	2-12750254-1
Return all columns in 2004 .	SELECT * FROM 2004	2-12750254-1
show the team of the 2004 that has the greatest number of 2004 .	SELECT t1.team from 2004 as t1 GROUP BY t1.team ORDER BY COUNT ( * ) DESC LIMIT 1	2-12750254-1
what are the team of all 2004 with team that is 10 ?	SELECT t1.team from 2004 as t1 GROUP BY t1.team HAVING COUNT ( * ) = 10	2-12750254-1
return the smallest played for every team .	SELECT MIN ( t1.played ) , t1.team from 2004 as t1 GROUP BY t1.team	2-12750254-1
what are the distinct team with points between 10 and 90 ?	SELECT DISTINCT t1.team from 2004 as t1 WHERE t1.points BETWEEN 10 AND 90	2-12750254-1
return the team of the 2004 that has the fewest corresponding team .	SELECT t1.team from 2004 as t1 GROUP BY t1.team ORDER BY COUNT ( * ) ASC LIMIT 1	2-12750254-1
list all information about 2004 .	SELECT * FROM 2004	2-12750254-1
show the team of the 2004 that has the most 2004 .	SELECT t1.team from 2004 as t1 GROUP BY t1.team ORDER BY COUNT ( * ) DESC LIMIT 1	2-12750254-1
