give the t1.nation with the fewest 2007 .	SELECT t1.nation from 2007 as t1 GROUP BY t1.nation ORDER BY COUNT ( * ) LIMIT 1	2-12005179-2
what are the name of all 2007 with name that is 10 ?	SELECT t1.name from 2007 as t1 GROUP BY t1.name HAVING COUNT ( * ) = 10	2-12005179-2
what are the distinct nation with pts/game between 10 and 11 ?	SELECT DISTINCT t1.nation from 2007 as t1 WHERE t1.pts/game BETWEEN 10 AND 11	2-12005179-2
which name has most number of 2007 ?	SELECT t1.name from 2007 as t1 GROUP BY t1.name ORDER BY COUNT ( * ) DESC LIMIT 1	2-12005179-2
count the number of 2007 in nation 10 or 89 .	SELECT COUNT ( * ) from 2007 as t1 WHERE t1.nation = 10 OR t1.nation = 89	2-12005179-2
return the smallest pts/game for every nation .	SELECT MIN ( t1.pts/game ) , t1.nation from 2007 as t1 GROUP BY t1.nation	2-12005179-2
please show the name of the 2007 that have at least 10 records .	SELECT t1.name from 2007 as t1 GROUP BY t1.name HAVING COUNT ( * ) >= 10	2-12005179-2
show the name , name , and nation of all the 2007 .	SELECT t1.name , t1.name , t1.nation from 2007 as t1	2-12005179-2
show the name shared by more than 10 2007 .	SELECT t1.name from 2007 as t1 GROUP BY t1.name HAVING COUNT ( * ) > 10	2-12005179-2
find the name of 2007 which are in 10 name but not in 81 name .	SELECT t1.name from 2007 as t1 WHERE t1.name = 10 EXCEPT SELECT t1.name from 2007 as t1 WHERE t1.name = 81	2-12005179-2
