find the loss of 1998 which are loss 10 but not loss 35 .	SELECT t1.loss from 1998 as t1 WHERE t1.loss = 10 EXCEPT SELECT t1.loss from 1998 as t1 WHERE t1.loss = 35	2-12206234-4
find the date of the 1998 that have just 10 1998 .	SELECT t1.date from 1998 as t1 GROUP BY t1.date HAVING COUNT ( * ) = 10	2-12206234-4
how many 1998 correspond to each opponent? show the result in ascending order.	SELECT t1.opponent , COUNT ( * ) from 1998 as t1 GROUP BY t1.opponent ORDER BY COUNT ( * )	2-12206234-4
find the date of 1998 who have more than 10 1998 .	SELECT t1.date from 1998 as t1 GROUP BY t1.date HAVING COUNT ( * ) > 10	2-12206234-4
what are the loss and loss ?	SELECT t1.loss , t1.loss from 1998 as t1	2-12206234-4
how many distinct record correspond to each opponent ?	SELECT t1.opponent , COUNT ( DISTINCT t1.record ) from 1998 as t1 GROUP BY t1.opponent	2-12206234-4
what is the count of 1998 with more than 10 loss ?	SELECT COUNT ( * ) from 1998 as t1 GROUP BY t1.loss HAVING COUNT ( * ) > 10 	2-12206234-4
what is the date and score of every 1998 that has a attendance lower than average ?	SELECT t1.date , t1.score from 1998 as t1 WHERE t1.attendance < ( SELECT AVG ( t1.attendance ) {FROM, 3} )	2-12206234-4
which t1.date has the fewest 1998 ?	SELECT t1.date from 1998 as t1 GROUP BY t1.date ORDER BY COUNT ( * ) LIMIT 1	2-12206234-4
what are the loss of 1998 whose loss is not 10 ?	SELECT t1.loss from 1998 as t1 WHERE t1.loss ! = 10	2-12206234-4
