find the time and record of the 2005 whose att . is lower than the average att . of all 2005 .	SELECT t1.time , t1.record from 2005 as t1 WHERE t1.att_ < ( SELECT AVG ( t1.att_ ) {FROM, 3} )	2-12569321-11
what are total att . for each opponent ?	SELECT t1.opponent , SUM ( t1.att_ ) from 2005 as t1 GROUP BY t1.opponent	2-12569321-11
show the date shared by more than 10 2005 .	SELECT t1.date from 2005 as t1 GROUP BY t1.date HAVING COUNT ( * ) > 10	2-12569321-11
what are the score of all 2005 that have 10 or more 2005 ?	SELECT t1.score from 2005 as t1 GROUP BY t1.score HAVING COUNT ( * ) >= 10	2-12569321-11
what are the record more than 10 2005 have ?	SELECT t1.record from 2005 as t1 GROUP BY t1.record HAVING COUNT ( * ) > 10	2-12569321-11
which time have greater att . than that of any att . in 2005 ?	SELECT t1.time from 2005 as t1 WHERE t1.att_ > ( SELECT MIN ( t1.att_ ) from 2005 as t1 )	2-12569321-11
return the opponent of the largest att ..	SELECT t1.opponent from 2005 as t1 ORDER BY t1.att_ DESC LIMIT 1	2-12569321-11
what is the minimum att . in each loss ?	SELECT MIN ( t1.att_ ) , t1.loss from 2005 as t1 GROUP BY t1.loss	2-12569321-11
what is the loss and date of the 2005 with maximum att . ?	SELECT t1.loss , t1.date from 2005 as t1 WHERE t1.att_ = ( SELECT MAX ( t1.att_ ) {FROM, 3} )	2-12569321-11
find the opponent of 2005 who have more than 10 2005 .	SELECT t1.opponent from 2005 as t1 GROUP BY t1.opponent HAVING COUNT ( * ) > 10	2-12569321-11
