what are the nation and nation of the {COLUMN} who have silver above five or total below ten ?	SELECT t1.nation , t1.nation from 1991 as t1 WHERE t1.silver > 5 OR t1.total < 10	2-12511589-1
please show the different nation , ordered by the number of 1991 that have each .	SELECT t1.nation from 1991 as t1 GROUP BY t1.nation ORDER BY COUNT ( * ) ASC LIMIT 1	2-12511589-1
list the nation which average silver is above 10 .	SELECT t1.nation from 1991 as t1 GROUP BY t1.nation HAVING AVG ( t1.silver ) >= 10	2-12511589-1
find the nation of the 1991 who has the largest number of 1991 .	SELECT t1.nation from 1991 as t1 GROUP BY t1.nation ORDER BY COUNT ( * ) DESC LIMIT 1	2-12511589-1
what are the distinct COLUMN_NAME,0} of every 1991 that has a greater rank than some 1991 with 10 {COLUMN_NAME_2} ?	SELECT DISTINCT t1.nation from 1991 as t1 WHERE t1.rank > ( SELECT MIN ( t1.nation ) from 1991 as t1 WHERE t1.nation = 10 )	2-12511589-1
select the average rank of each 1991 's nation .	SELECT AVG ( t1.rank ) , t1.nation from 1991 as t1 GROUP BY t1.nation	2-12511589-1
count the number of 1991 in nation 10 or 40 .	SELECT COUNT ( * ) from 1991 as t1 WHERE t1.nation = 10 OR t1.nation = 40	2-12511589-1
list the nation which average gold is above 10 .	SELECT t1.nation from 1991 as t1 GROUP BY t1.nation HAVING AVG ( t1.gold ) >= 10	2-12511589-1
what is the nation and nation of the 1991 with maximum gold ?	SELECT t1.nation , t1.nation from 1991 as t1 WHERE t1.gold = ( SELECT MAX ( t1.gold ) {FROM, 3} )	2-12511589-1
show nation and the number of distinct nation in each nation .	SELECT t1.nation , COUNT ( DISTINCT t1.nation ) from 1991 as t1 GROUP BY t1.nation	2-12511589-1
