show the opponent with fewer than 3 1969 .	SELECT t1.opponent from 1969 as t1 GROUP BY t1.opponent HAVING COUNT ( * ) < 3	2-12828987-1
find the opponent of 1969 which have both 10 and 12 as opponent .	SELECT t1.opponent from 1969 as t1 WHERE t1.attendance = 10 INTERSECT SELECT t1.opponent from 1969 as t1 WHERE t1.attendance = 12	2-12828987-1
show the opponent of the 1969 that has the most 1969 .	SELECT t1.opponent from 1969 as t1 GROUP BY t1.opponent ORDER BY COUNT ( * ) DESC LIMIT 1	2-12828987-1
find the date of 1969 which are result 10 but not result 51 .	SELECT t1.date from 1969 as t1 WHERE t1.result = 10 EXCEPT SELECT t1.date from 1969 as t1 WHERE t1.result = 51	2-12828987-1
what are the distinct date with week between 10 and 49 ?	SELECT DISTINCT t1.date from 1969 as t1 WHERE t1.week BETWEEN 10 AND 49	2-12828987-1
find the result that have 10 1969 .	SELECT t1.result from 1969 as t1 GROUP BY t1.result HAVING COUNT ( * ) = 10	2-12828987-1
which opponent has both 1969 with less than 10 attendance and 1969 with more than 72 attendance ?	SELECT t1.opponent from 1969 as t1 WHERE t1.attendance < 10 INTERSECT SELECT t1.opponent from 1969 as t1 WHERE t1.attendance > 72	2-12828987-1
show the date shared by more than 10 1969 .	SELECT t1.date from 1969 as t1 GROUP BY t1.date HAVING COUNT ( * ) > 10	2-12828987-1
find the date of 1969 which have both 10 and 87 as date .	SELECT t1.date from 1969 as t1 WHERE t1.week = 10 INTERSECT SELECT t1.date from 1969 as t1 WHERE t1.week = 87	2-12828987-1
Return all columns in 1969 .	SELECT * FROM 1969	2-12828987-1
