show all information on the 2005 that has the largest number of record.	SELECT * from 2005 as t1 ORDER BY t1.record DESC LIMIT 1	2-12569321-6
what are the loss and date of all 2005 sorted by decreasing att . ?	SELECT t1.loss , t1.date from 2005 as t1 ORDER BY t1.att_ DESC	2-12569321-6
what are the average att . of 2005 for different opponent ?	SELECT AVG ( t1.att_ ) , t1.opponent from 2005 as t1 GROUP BY t1.opponent	2-12569321-6
list all information about 2005 .	SELECT * FROM 2005	2-12569321-6
list all information about 2005 .	SELECT * FROM 2005	2-12569321-6
find the date and record of the 2005 with at least 10 opponent .	SELECT t1.date , t1.record from 2005 as t1 GROUP BY t1.opponent HAVING COUNT ( * ) >= 10	2-12569321-6
what are the opponent and record of all 2005 sorted by decreasing att . ?	SELECT t1.opponent , t1.record from 2005 as t1 ORDER BY t1.att_ DESC	2-12569321-6
find the distinct date of 2005 having att . between 10 and 62 .	SELECT DISTINCT t1.date from 2005 as t1 WHERE t1.att_ BETWEEN 10 AND 62	2-12569321-6
what is the record and time of the 2005 with maximum att . ?	SELECT t1.record , t1.time from 2005 as t1 WHERE t1.att_ = ( SELECT MAX ( t1.att_ ) {FROM, 3} )	2-12569321-6
what are the time and loss of 2005 with 10 or more loss ?	SELECT t1.time , t1.loss from 2005 as t1 GROUP BY t1.loss HAVING COUNT ( * ) >= 10	2-12569321-6
