what are the 2008 of the grand with 2008 other than 10 ?	SELECT t1.2008 from grand as t1 WHERE t1.2005 ! = 10	2-13802189-7
what are the 2010 more than 10 grand have ?	SELECT t1.2010 from grand as t1 GROUP BY t1.2010 HAVING COUNT ( * ) > 10	2-13802189-7
which 2013 have an average total over 10 ?	SELECT t1.2013 from grand as t1 GROUP BY t1.2013 HAVING AVG ( t1.total ) >= 10	2-13802189-7
how many grand correspond to each 2006? show the result in ascending order.	SELECT t1.2006 , COUNT ( * ) from grand as t1 GROUP BY t1.2006 ORDER BY COUNT ( * )	2-13802189-7
return the 2009 and 2013 of grand with the five lowest total .	SELECT t1.2009 , t1.2013 from grand as t1 ORDER BY t1.total LIMIT 5	2-13802189-7
what are the 2011 of all grand with 2007 that is 10 ?	SELECT t1.2011 from grand as t1 GROUP BY t1.2007 HAVING COUNT ( * ) = 10	2-13802189-7
what is the 2009 of the grand with the largest total ?	SELECT t1.2009 from grand as t1 WHERE t1.total = ( SELECT MAX ( t1.total ) from grand as t1 )	2-13802189-7
what are all the 2010 and 2011?	SELECT t1.2010 , t1.2011 from grand as t1	2-13802189-7
show the 2008 of the grand that has the most grand .	SELECT t1.2008 from grand as t1 GROUP BY t1.2008 ORDER BY COUNT ( * ) DESC LIMIT 1	2-13802189-7
find the distinct COLUMN_NAME,0} of all grand that have total higher than some grand from 10 {COLUMN_NAME_2} .	SELECT DISTINCT t1.2013 from grand as t1 WHERE t1.total > ( SELECT MIN ( t1.2013 ) from grand as t1 WHERE t1.2013 = 10 )	2-13802189-7
