count the number of 1953 that have an date containing 10 .	SELECT COUNT ( * ) from 1953 as t1 WHERE t1.date LIKE 10	2-1332371-1
what is the maximum and mininum attendance {COLUMN} for all 1953 ?	SELECT MAX ( t1.attendance ) , MIN ( t1.attendance ) from 1953 as t1	2-1332371-1
please show the score of the 1953 that have at least 10 records .	SELECT t1.score from 1953 as t1 GROUP BY t1.score HAVING COUNT ( * ) >= 10	2-1332371-1
what are the distinct score with game between 10 and 36 ?	SELECT DISTINCT t1.score from 1953 as t1 WHERE t1.game BETWEEN 10 AND 36	2-1332371-1
find the location of the 1953 who has the largest number of 1953 .	SELECT t1.location from 1953 as t1 GROUP BY t1.location ORDER BY COUNT ( * ) DESC LIMIT 1	2-1332371-1
what are the date of all 1953 with score that is 10 ?	SELECT t1.date from 1953 as t1 GROUP BY t1.score HAVING COUNT ( * ) = 10	2-1332371-1
what is the score and location of the 1953 with maximum game ?	SELECT t1.score , t1.location from 1953 as t1 WHERE t1.game = ( SELECT MAX ( t1.game ) {FROM, 3} )	2-1332371-1
find the score of 1953 which have both 10 and 82 as score .	SELECT t1.score from 1953 as t1 WHERE t1.game = 10 INTERSECT SELECT t1.score from 1953 as t1 WHERE t1.game = 82	2-1332371-1
list all information about 1953 .	SELECT * FROM 1953	2-1332371-1
find the time of the 1953 who has the largest number of 1953 .	SELECT t1.time from 1953 as t1 GROUP BY t1.time ORDER BY COUNT ( * ) DESC LIMIT 1	2-1332371-1
