what are the distinct COLUMN_NAME,0} of every 2008 that has a greater 100 + than some 2008 with 10 {COLUMN_NAME_2} ?	SELECT DISTINCT t1.player from 2008 as t1 WHERE t1.100_+ > ( SELECT MIN ( t1.player ) from 2008 as t1 WHERE t1.player = 10 )	2-13535824-1
what are the player and player of the {COLUMN} who have 100 + above five or high checkout below ten ?	SELECT t1.player , t1.player from 2008 as t1 WHERE t1.100_+ > 5 OR t1.high_checkout < 10	2-13535824-1
return the maximum and minimum 140 + across all 2008 .	SELECT MAX ( t1.140_+ ) , MIN ( t1.140_+ ) from 2008 as t1	2-13535824-1
find the player of 2008 whose sets won is more than the average sets won of 2008 .	SELECT t1.player from 2008 as t1 WHERE t1.sets_won > ( SELECT AVG ( t1.sets_won ) from 2008 as t1	2-13535824-1
show the player and the corresponding number of 2008 sorted by the number of player in ascending order .	SELECT t1.player , COUNT ( * ) from 2008 as t1 GROUP BY t1.player ORDER BY COUNT ( * )	2-13535824-1
which player is the most frequent player?	SELECT t1.player from 2008 as t1 GROUP BY t1.player ORDER BY COUNT ( * ) DESC LIMIT 1	2-13535824-1
what is the player of the 2008 who has the highest number of 2008 ?	SELECT t1.player from 2008 as t1 GROUP BY t1.player ORDER BY COUNT ( * ) DESC LIMIT 1	2-13535824-1
what is the player of all 2008 whose 100 + is higher than any 2008 ?	SELECT t1.player from 2008 as t1 WHERE t1.100_+ > ( SELECT MIN ( t1.100_+ ) from 2008 as t1 )	2-13535824-1
how many 2008 are there in player 10 or 71 ?	SELECT COUNT ( * ) from 2008 as t1 WHERE t1.player = 10 OR t1.player = 71	2-13535824-1
which t1.player has the smallest amount of 2008?	SELECT t1.player from 2008 as t1 GROUP BY t1.player ORDER BY COUNT ( * ) LIMIT 1	2-13535824-1
