how many 2008 does each winner have ?	SELECT t1.winner , COUNT ( * ) from 2008 as t1 GROUP BY t1.winner ORDER BY COUNT ( * )	2-13663314-1
how many distinct winner correspond to each prize ?	SELECT t1.prize , COUNT ( DISTINCT t1.winner ) from 2008 as t1 GROUP BY t1.prize	2-13663314-1
find the number of 2008 whose runner-up contain the word 10 .	SELECT COUNT ( * ) from 2008 as t1 WHERE t1.runner-up LIKE 10	2-13663314-1
find all prize that have fewer than three in 2008 .	SELECT t1.prize from 2008 as t1 GROUP BY t1.prize HAVING COUNT ( * ) < 3	2-13663314-1
how many 2008 have prize that contain the word 10 ?	SELECT COUNT ( * ) from 2008 as t1 WHERE t1.prize LIKE 10	2-13663314-1
find the number of 2008 whose results contain the word 10 .	SELECT COUNT ( * ) from 2008 as t1 WHERE t1.results LIKE 10	2-13663314-1
find the prize of 2008 who have more than 10 2008 .	SELECT t1.prize from 2008 as t1 GROUP BY t1.prize HAVING COUNT ( * ) > 10	2-13663314-1
find all prize that have fewer than three in 2008 .	SELECT t1.prize from 2008 as t1 GROUP BY t1.prize HAVING COUNT ( * ) < 3	2-13663314-1
what is the runner-up of 2008 with the maximum entrants across all 2008 ?	SELECT t1.runner-up from 2008 as t1 WHERE t1.entrants = ( SELECT MAX ( t1.entrants ) from 2008 as t1 )	2-13663314-1
what are the winner of all 2008 with runner-up that is 10 ?	SELECT t1.winner from 2008 as t1 GROUP BY t1.runner-up HAVING COUNT ( * ) = 10	2-13663314-1
