find the record and loss of the 1995 whose attendance is lower than the average attendance of all 1995 .	SELECT t1.record , t1.loss from 1995 as t1 WHERE t1.attendance < ( SELECT AVG ( t1.attendance ) {FROM, 3} )	2-13113490-2
what are the distinct COLUMN_NAME,0} of every 1995 that has a greater attendance than some 1995 with 10 {COLUMN_NAME_2} ?	SELECT DISTINCT t1.loss from 1995 as t1 WHERE t1.attendance > ( SELECT MIN ( t1.loss ) from 1995 as t1 WHERE t1.loss = 10 )	2-13113490-2
return each date with the number of 1995 in ascending order of the number of date .	SELECT t1.date , COUNT ( * ) from 1995 as t1 GROUP BY t1.date ORDER BY COUNT ( * )	2-13113490-2
what is the date of the 1995 with the minimum attendance ?	SELECT t1.date from 1995 as t1 ORDER BY t1.attendance ASC LIMIT 1	2-13113490-2
what are the loss of all 1995 with loss that is 10 ?	SELECT t1.loss from 1995 as t1 GROUP BY t1.loss HAVING COUNT ( * ) = 10	2-13113490-2
what is the count of 1995 with more than 10 score ?	SELECT COUNT ( * ) from 1995 as t1 GROUP BY t1.score HAVING COUNT ( * ) > 10 	2-13113490-2
show all record and corresponding number of 1995 in the ascending order of the numbers.	SELECT t1.record , COUNT ( * ) from 1995 as t1 GROUP BY t1.record ORDER BY COUNT ( * )	2-13113490-2
what are the distinct date with attendance between 10 and 15 ?	SELECT DISTINCT t1.date from 1995 as t1 WHERE t1.attendance BETWEEN 10 AND 15	2-13113490-2
show the opponent and opponent with at least 10 opponent .	SELECT t1.opponent , t1.opponent from 1995 as t1 GROUP BY t1.opponent HAVING COUNT ( * ) >= 10	2-13113490-2
find the date of 1995 which have 10 but no 66 as time .	SELECT t1.date from 1995 as t1 WHERE t1.time = 10 EXCEPT SELECT t1.date from 1995 as t1 WHERE t1.time = 66	2-13113490-2
