what is the rocket and country of the 2010 with maximum partial failures ?	SELECT t1.rocket , t1.country from 2010 as t1 WHERE t1.partial_failures = ( SELECT MAX ( t1.partial_failures ) {FROM, 3} )	2-13894411-7
find the number of 2010 whose rocket contain the word 10 .	SELECT COUNT ( * ) from 2010 as t1 WHERE t1.rocket LIKE 10	2-13894411-7
what is the rocket of all 2010 whose launches is higher than any 2010 ?	SELECT t1.rocket from 2010 as t1 WHERE t1.launches > ( SELECT MIN ( t1.launches ) from 2010 as t1 )	2-13894411-7
list the rocket , country and the family of the 2010 .	SELECT t1.rocket , t1.country , t1.family from 2010 as t1	2-13894411-7
what are the family and family of each 2010 ?	SELECT t1.family , t1.family from 2010 as t1	2-13894411-7
how many 2010 are there that have more than {VALUE},0 rocket ?	SELECT COUNT ( * ) from 2010 as t1 GROUP BY t1.rocket HAVING COUNT ( * ) > 10 	2-13894411-7
show the family and rocket with at least 10 country .	SELECT t1.family , t1.rocket from 2010 as t1 GROUP BY t1.country HAVING COUNT ( * ) >= 10	2-13894411-7
show all country and corresponding number of 2010 in the ascending order of the numbers.	SELECT t1.country , COUNT ( * ) from 2010 as t1 GROUP BY t1.country ORDER BY COUNT ( * )	2-13894411-7
what are the country and family of each 2010 ?	SELECT t1.country , t1.family from 2010 as t1	2-13894411-7
show all rocket and the total launches for each .	SELECT t1.rocket , SUM ( t1.launches ) from 2010 as t1 GROUP BY t1.rocket	2-13894411-7
