what is all the information on the 2007 with the largest number of rank ?	SELECT * from 2007 as t1 ORDER BY t1.rank DESC LIMIT 1	2-13938257-3
please list the rank and rank of 2007 in descending order of gold .	SELECT t1.rank , t1.rank from 2007 as t1 ORDER BY t1.gold DESC	2-13938257-3
find the number of 2007 that have more than 10 nation .	SELECT COUNT ( * ) from 2007 as t1 GROUP BY t1.nation HAVING COUNT ( * ) > 10 	2-13938257-3
find the distinct rank of 2007 having bronze between 10 and 47 .	SELECT DISTINCT t1.rank from 2007 as t1 WHERE t1.bronze BETWEEN 10 AND 47	2-13938257-3
show the nation and their total bronze of 2007 .	SELECT t1.nation , SUM ( t1.bronze ) from 2007 as t1 GROUP BY t1.nation	2-13938257-3
list the nation which average bronze is above 10 .	SELECT t1.nation from 2007 as t1 GROUP BY t1.nation HAVING AVG ( t1.bronze ) >= 10	2-13938257-3
find the rank of 2007 which are nation 10 but not nation 49 .	SELECT t1.rank from 2007 as t1 WHERE t1.nation = 10 EXCEPT SELECT t1.rank from 2007 as t1 WHERE t1.nation = 49	2-13938257-3
find the number of 2007 whose rank contain the word 10 .	SELECT COUNT ( * ) from 2007 as t1 WHERE t1.rank LIKE 10	2-13938257-3
how many 2007 are there that have more than {VALUE},0 nation ?	SELECT COUNT ( * ) from 2007 as t1 GROUP BY t1.nation HAVING COUNT ( * ) > 10 	2-13938257-3
please show the rank of the 2007 that have at least 10 records .	SELECT t1.rank from 2007 as t1 GROUP BY t1.rank HAVING COUNT ( * ) >= 10	2-13938257-3
