count the number of 2003 in team 10 or 63 .	SELECT COUNT ( * ) from 2003 as t1 WHERE t1.team = 10 OR t1.team = 63	2-14911550-1
what are the average points of 2003 for different team ?	SELECT AVG ( t1.points ) , t1.team from 2003 as t1 GROUP BY t1.team	2-14911550-1
what are the team of all 2003 with team that is 10 ?	SELECT t1.team from 2003 as t1 GROUP BY t1.team HAVING COUNT ( * ) = 10	2-14911550-1
which team has both 2003 with less than 10 losses and 2003 with more than 4 losses ?	SELECT t1.team from 2003 as t1 WHERE t1.losses < 10 INTERSECT SELECT t1.team from 2003 as t1 WHERE t1.losses > 4	2-14911550-1
what are the team of all 2003 with team that is 10 ?	SELECT t1.team from 2003 as t1 GROUP BY t1.team HAVING COUNT ( * ) = 10	2-14911550-1
show the team and team with at least 10 team .	SELECT t1.team , t1.team from 2003 as t1 GROUP BY t1.team HAVING COUNT ( * ) >= 10	2-14911550-1
show the team and team with at least 10 team .	SELECT t1.team , t1.team from 2003 as t1 GROUP BY t1.team HAVING COUNT ( * ) >= 10	2-14911550-1
how many team did each 2003 do, ordered by number of team ?	SELECT t1.team , COUNT ( * ) from 2003 as t1 GROUP BY t1.team ORDER BY COUNT ( * )	2-14911550-1
find the number of 2003 whose team contain the word 10 .	SELECT COUNT ( * ) from 2003 as t1 WHERE t1.team LIKE 10	2-14911550-1
please show the team of the 2003 that have at least 10 records .	SELECT t1.team from 2003 as t1 GROUP BY t1.team HAVING COUNT ( * ) >= 10	2-14911550-1
