what are the date for 1980 who have more than the average week?	SELECT t1.date from 1980 as t1 WHERE t1.week > ( SELECT AVG ( t1.week ) from 1980 as t1	2-14452460-1
what are the distinct COLUMN_NAME,0} of every 1980 that has a greater week than some 1980 with 10 {COLUMN_NAME_2} ?	SELECT DISTINCT t1.date from 1980 as t1 WHERE t1.week > ( SELECT MIN ( t1.date ) from 1980 as t1 WHERE t1.location = 10 )	2-14452460-1
show the date and opponent with at least 10 record .	SELECT t1.date , t1.opponent from 1980 as t1 GROUP BY t1.record HAVING COUNT ( * ) >= 10	2-14452460-1
find the date who has exactly 10 1980 .	SELECT t1.date from 1980 as t1 GROUP BY t1.date HAVING COUNT ( * ) = 10	2-14452460-1
which opponent has both 1980 with less than 10 week and 1980 with more than 40 week ?	SELECT t1.opponent from 1980 as t1 WHERE t1.week < 10 INTERSECT SELECT t1.opponent from 1980 as t1 WHERE t1.week > 40	2-14452460-1
which opponent have less than 3 in 1980 ?	SELECT t1.opponent from 1980 as t1 GROUP BY t1.opponent HAVING COUNT ( * ) < 3	2-14452460-1
show the opponent of 1980 who have at least 10 1980 .	SELECT t1.opponent from 1980 as t1 GROUP BY t1.opponent HAVING COUNT ( * ) >= 10	2-14452460-1
find the result of 1980 which are record 10 but not record 3 .	SELECT t1.result from 1980 as t1 WHERE t1.record = 10 EXCEPT SELECT t1.result from 1980 as t1 WHERE t1.record = 3	2-14452460-1
what are the result of all 1980 that have 10 or more 1980 ?	SELECT t1.result from 1980 as t1 GROUP BY t1.result HAVING COUNT ( * ) >= 10	2-14452460-1
what is the t1.date of 1980 that has fewest number of 1980 ?	SELECT t1.date from 1980 as t1 GROUP BY t1.date ORDER BY COUNT ( * ) LIMIT 1	2-14452460-1
