find the number of 1980 that have more than 10 player .	SELECT COUNT ( * ) from 1980 as t1 GROUP BY t1.player HAVING COUNT ( * ) > 10 	2-14656102-1
what are total overall for each position ?	SELECT t1.position , SUM ( t1.overall ) from 1980 as t1 GROUP BY t1.position	2-14656102-1
select the average round of each 1980 's college .	SELECT AVG ( t1.round ) , t1.college from 1980 as t1 GROUP BY t1.college	2-14656102-1
find all player that have fewer than three in 1980 .	SELECT t1.player from 1980 as t1 GROUP BY t1.player HAVING COUNT ( * ) < 3	2-14656102-1
what are the college of all 1980 with college that is 10 ?	SELECT t1.college from 1980 as t1 GROUP BY t1.college HAVING COUNT ( * ) = 10	2-14656102-1
what are the position and player of 1980 with 10 or more position ?	SELECT t1.position , t1.player from 1980 as t1 GROUP BY t1.position HAVING COUNT ( * ) >= 10	2-14656102-1
what is the position and position of every 1980 that has a overall lower than average ?	SELECT t1.position , t1.position from 1980 as t1 WHERE t1.overall < ( SELECT AVG ( t1.overall ) {FROM, 3} )	2-14656102-1
how many different player correspond to each college ?	SELECT t1.college , COUNT ( DISTINCT t1.player ) from 1980 as t1 GROUP BY t1.college	2-14656102-1
find the player of 1980 who have overall of both 10 and 81 .	SELECT t1.player from 1980 as t1 WHERE t1.overall = 10 INTERSECT SELECT t1.player from 1980 as t1 WHERE t1.overall = 81	2-14656102-1
show the position of the 1980 that has the most 1980 .	SELECT t1.position from 1980 as t1 GROUP BY t1.position ORDER BY COUNT ( * ) DESC LIMIT 1	2-14656102-1
