which t1.club has least number of 2008 ?	SELECT t1.club from 2008 as t1 GROUP BY t1.club ORDER BY COUNT ( * ) LIMIT 1	2-14181770-1
how many 2008 have best position that contain the word 10 ?	SELECT COUNT ( * ) from 2008 as t1 WHERE t1.best_position LIKE 10	2-14181770-1
find the club and pos . in 2007 of the 2008 whose seasons in league is lower than the average seasons in league of all 2008 .	SELECT t1.club , t1.pos_._in_2007 from 2008 as t1 WHERE t1.seasons_in_league < ( SELECT AVG ( t1.seasons_in_league ) {FROM, 3} )	2-14181770-1
what are the city of all 2008 with pos . in 2007 that is 10 ?	SELECT t1.city from 2008 as t1 GROUP BY t1.pos_._in_2007 HAVING COUNT ( * ) = 10	2-14181770-1
give the t1.club with the fewest 2008 .	SELECT t1.club from 2008 as t1 GROUP BY t1.club ORDER BY COUNT ( * ) LIMIT 1	2-14181770-1
return the smallest seasons in league for every club .	SELECT MIN ( t1.seasons_in_league ) , t1.club from 2008 as t1 GROUP BY t1.club	2-14181770-1
show the city of 2008 whose best position are not 10.	SELECT t1.city from 2008 as t1 WHERE t1.best_position ! = 10	2-14181770-1
show city and city of 2008 .	SELECT t1.city , t1.city from 2008 as t1	2-14181770-1
what is the minimum seasons in league in each city ?	SELECT MIN ( t1.seasons_in_league ) , t1.city from 2008 as t1 GROUP BY t1.city	2-14181770-1
what are the club of all 2008 that have 10 or more 2008 ?	SELECT t1.club from 2008 as t1 GROUP BY t1.club HAVING COUNT ( * ) >= 10	2-14181770-1
