what are the player of the 2001 with player other than 10 ?	SELECT t1.player from 2001 as t1 WHERE t1.country ! = 10	2-14583258-3
count the number of 2001 that have an country containing 10 .	SELECT COUNT ( * ) from 2001 as t1 WHERE t1.country LIKE 10	2-14583258-3
what is the country and player of the 2001 with maximum earnings ( $ ) ?	SELECT t1.country , t1.player from 2001 as t1 WHERE t1.earnings_ = ( SELECT MAX ( t1.earnings_ ) {FROM, 3} )	2-14583258-3
find the number of 2001 whose country contain the word 10 .	SELECT COUNT ( * ) from 2001 as t1 WHERE t1.country LIKE 10	2-14583258-3
which country has most number of 2001 ?	SELECT t1.country from 2001 as t1 GROUP BY t1.country ORDER BY COUNT ( * ) DESC LIMIT 1	2-14583258-3
which country has both 2001 with less than 10 events and 2001 with more than 46 events ?	SELECT t1.country from 2001 as t1 WHERE t1.events < 10 INTERSECT SELECT t1.country from 2001 as t1 WHERE t1.events > 46	2-14583258-3
return the country and player of 2001 with the five lowest rank .	SELECT t1.country , t1.player from 2001 as t1 ORDER BY t1.rank LIMIT 5	2-14583258-3
show the player , country , and player of all the 2001 .	SELECT t1.player , t1.country , t1.player from 2001 as t1	2-14583258-3
return the country of 2001 for which the player is not 10 ?	SELECT t1.country from 2001 as t1 WHERE t1.player ! = 10	2-14583258-3
list the player , country and the country of the 2001 .	SELECT t1.player , t1.country , t1.country from 2001 as t1	2-14583258-3
