what are the nationality of all 1998 with 2.27 that is 10 ?	SELECT t1.nationality from 1998 as t1 GROUP BY t1.2.27 HAVING COUNT ( * ) = 10	2-14738028-4
what are the 2.24 of all 1998 that have 10 or more 1998 ?	SELECT t1.2.24 from 1998 as t1 GROUP BY t1.2.24 HAVING COUNT ( * ) >= 10	2-14738028-4
find the 2.24 of the 1998 with the highest result.	SELECT t1.2.24 from 1998 as t1 WHERE t1.result = ( SELECT MAX ( t1.result ) from 1998 as t1 )	2-14738028-4
find the 2.20 of 1998 which are 2.27 10 but not 2.27 81 .	SELECT t1.2.20 from 1998 as t1 WHERE t1.2.27 = 10 EXCEPT SELECT t1.2.20 from 1998 as t1 WHERE t1.2.27 = 81	2-14738028-4
what are the 2.20 for 1998 who have more than the average result?	SELECT t1.2.20 from 1998 as t1 WHERE t1.result > ( SELECT AVG ( t1.result ) from 1998 as t1	2-14738028-4
what are the average result of 1998 for different 2.24 ?	SELECT AVG ( t1.result ) , t1.2.24 from 1998 as t1 GROUP BY t1.2.24	2-14738028-4
how many distinct 2.27 correspond to each 2.27 ?	SELECT t1.2.27 , COUNT ( DISTINCT t1.2.27 ) from 1998 as t1 GROUP BY t1.2.27	2-14738028-4
what is the 2.20 of all 1998 whose result is higher than any 1998 ?	SELECT t1.2.20 from 1998 as t1 WHERE t1.result > ( SELECT MIN ( t1.result ) from 1998 as t1 )	2-14738028-4
show the 2.27 with fewer than 3 1998 .	SELECT t1.2.27 from 1998 as t1 GROUP BY t1.2.27 HAVING COUNT ( * ) < 3	2-14738028-4
which 2.24 has most number of 1998 ?	SELECT t1.2.24 from 1998 as t1 GROUP BY t1.2.24 ORDER BY COUNT ( * ) DESC LIMIT 1	2-14738028-4
