list position and position who have pick greater than 5 or round shorter than 10 .	SELECT t1.position , t1.position from 1999 as t1 WHERE t1.pick > 5 OR t1.round < 10	2-14609698-1
what is the position and position of every 1999 that has a round lower than average ?	SELECT t1.position , t1.position from 1999 as t1 WHERE t1.round < ( SELECT AVG ( t1.round ) {FROM, 3} )	2-14609698-1
what are the position with exactly 10 1999 ?	SELECT t1.position from 1999 as t1 GROUP BY t1.position HAVING COUNT ( * ) = 10	2-14609698-1
please show the different school , ordered by the number of 1999 that have each .	SELECT t1.school from 1999 as t1 GROUP BY t1.school ORDER BY COUNT ( * ) ASC LIMIT 1	2-14609698-1
list position of 1999 that have the number of 1999 greater than 10 .	SELECT t1.position from 1999 as t1 GROUP BY t1.position HAVING COUNT ( * ) > 10	2-14609698-1
what is the player and position of every 1999 that has a round lower than average ?	SELECT t1.player , t1.position from 1999 as t1 WHERE t1.round < ( SELECT AVG ( t1.round ) {FROM, 3} )	2-14609698-1
show the school of 1999 who have at least 10 1999 .	SELECT t1.school from 1999 as t1 GROUP BY t1.school HAVING COUNT ( * ) >= 10	2-14609698-1
what is the school and school for the 1999 with the rank 5 smallest round ?	SELECT t1.school , t1.school from 1999 as t1 ORDER BY t1.round LIMIT 5	2-14609698-1
show the position of 1999 who have at least 10 1999 .	SELECT t1.position from 1999 as t1 GROUP BY t1.position HAVING COUNT ( * ) >= 10	2-14609698-1
find the player of 1999 which have both 10 and 5 as player .	SELECT t1.player from 1999 as t1 WHERE t1.pick = 10 INTERSECT SELECT t1.player from 1999 as t1 WHERE t1.pick = 5	2-14609698-1
