which driver has both 2008 with less than 10 pos . and 2008 with more than 96 pos . ?	SELECT t1.driver from 2008 as t1 WHERE t1.pos_ < 10 INTERSECT SELECT t1.driver from 2008 as t1 WHERE t1.pos_ > 96	2-14292964-15
what are the driver and make of the {COLUMN} who have car # above five or car # below ten ?	SELECT t1.driver , t1.make from 2008 as t1 WHERE t1.car_ > 5 OR t1.car_ < 10	2-14292964-15
which t1.driver has the fewest 2008 ?	SELECT t1.driver from 2008 as t1 GROUP BY t1.driver ORDER BY COUNT ( * ) LIMIT 1	2-14292964-15
list the driver of {2008 which has number of 2008 greater than 10 .	SELECT t1.driver from 2008 as t1 GROUP BY t1.driver HAVING COUNT ( * ) > 10	2-14292964-15
show all information on the 2008 that has the largest number of driver.	SELECT * from 2008 as t1 ORDER BY t1.driver DESC LIMIT 1	2-14292964-15
what are the driver of all 2008 with team that is 10 ?	SELECT t1.driver from 2008 as t1 GROUP BY t1.team HAVING COUNT ( * ) = 10	2-14292964-15
find the number of 2008 whose driver contain the word 10 .	SELECT COUNT ( * ) from 2008 as t1 WHERE t1.driver LIKE 10	2-14292964-15
what is all the information on the 2008 with the largest number of make ?	SELECT * from 2008 as t1 ORDER BY t1.make DESC LIMIT 1	2-14292964-15
find the driver of the 2008 with the largest pos . .	SELECT t1.driver from 2008 as t1 ORDER BY t1.pos_ DESC LIMIT 1	2-14292964-15
which make has the least car # ?	SELECT t1.make from 2008 as t1 ORDER BY t1.car_ ASC LIMIT 1	2-14292964-15
