what is the nation and rank for the 1947 with the rank 5 smallest bronze ?	SELECT t1.nation , t1.rank from 1947 as t1 ORDER BY t1.bronze LIMIT 5	2-14129554-2
show nation and rank of 1947 .	SELECT t1.nation , t1.rank from 1947 as t1	2-14129554-2
which rank is the most frequent rank?	SELECT t1.rank from 1947 as t1 GROUP BY t1.rank ORDER BY COUNT ( * ) DESC LIMIT 1	2-14129554-2
find the rank of the 1947 that have just 10 1947 .	SELECT t1.rank from 1947 as t1 GROUP BY t1.rank HAVING COUNT ( * ) = 10	2-14129554-2
what is the rank of the 1947 with least number of rank ?	SELECT t1.rank from 1947 as t1 GROUP BY t1.rank ORDER BY COUNT ( * ) ASC LIMIT 1	2-14129554-2
which nation has both 1947 with less than 10 total and 1947 with more than 15 total ?	SELECT t1.nation from 1947 as t1 WHERE t1.total < 10 INTERSECT SELECT t1.nation from 1947 as t1 WHERE t1.total > 15	2-14129554-2
list rank of 1947 that have the number of 1947 greater than 10 .	SELECT t1.rank from 1947 as t1 GROUP BY t1.rank HAVING COUNT ( * ) > 10	2-14129554-2
what are the nation of the 1947 that have exactly 10 1947 ?	SELECT t1.nation from 1947 as t1 GROUP BY t1.nation HAVING COUNT ( * ) = 10	2-14129554-2
show the nation and rank with at least 10 nation .	SELECT t1.nation , t1.rank from 1947 as t1 GROUP BY t1.nation HAVING COUNT ( * ) >= 10	2-14129554-2
find the nation of 1947 who have gold of both 10 and 87 .	SELECT t1.nation from 1947 as t1 WHERE t1.gold = 10 INTERSECT SELECT t1.nation from 1947 as t1 WHERE t1.gold = 87	2-14129554-2
