find the loss of the 2008 with the largest attendance .	SELECT t1.loss from 2008 as t1 ORDER BY t1.attendance DESC LIMIT 1	2-14271815-7
what are the {date of all the 2008 , and the total attendance by each ?	SELECT t1.date , SUM ( t1.attendance ) from 2008 as t1 GROUP BY t1.date	2-14271815-7
give the record that has the most 2008 .	SELECT t1.record from 2008 as t1 GROUP BY t1.record ORDER BY COUNT ( * ) DESC LIMIT 1	2-14271815-7
find the score of the 2008 with the largest attendance .	SELECT t1.score from 2008 as t1 ORDER BY t1.attendance DESC LIMIT 1	2-14271815-7
find the loss of 2008 who have both 10 and 88 attendance .	SELECT t1.loss from 2008 as t1 WHERE t1.attendance = 10 INTERSECT SELECT t1.loss from 2008 as t1 WHERE t1.attendance = 88	2-14271815-7
what are the loss , opponent , and opponent of each 2008 ?	SELECT t1.loss , t1.opponent , t1.opponent from 2008 as t1	2-14271815-7
which t1.loss has least number of 2008 ?	SELECT t1.loss from 2008 as t1 GROUP BY t1.loss ORDER BY COUNT ( * ) LIMIT 1	2-14271815-7
what are the date that have greater attendance than any attendance in 2008 ?	SELECT t1.date from 2008 as t1 WHERE t1.attendance > ( SELECT MIN ( t1.attendance ) from 2008 as t1 )	2-14271815-7
find the date of 2008 which have 10 but no 98 as opponent .	SELECT t1.date from 2008 as t1 WHERE t1.opponent = 10 EXCEPT SELECT t1.date from 2008 as t1 WHERE t1.opponent = 98	2-14271815-7
what are the average attendance of 2008 , grouped by loss ?	SELECT AVG ( t1.attendance ) , t1.loss from 2008 as t1 GROUP BY t1.loss	2-14271815-7
