return the smallest week for every opponent .	SELECT MIN ( t1.week ) , t1.opponent from 2000 as t1 GROUP BY t1.opponent	2-14908721-2
find the tv time of 2000 which are in 10 game site but not in 101 game site .	SELECT t1.tv_time from 2000 as t1 WHERE t1.game_site = 10 EXCEPT SELECT t1.tv_time from 2000 as t1 WHERE t1.game_site = 101	2-14908721-2
find the game site of 2000 who have both 10 and 84 week .	SELECT t1.game_site from 2000 as t1 WHERE t1.week = 10 INTERSECT SELECT t1.game_site from 2000 as t1 WHERE t1.week = 84	2-14908721-2
what is the tv time and game site of the 2000 with maximum week ?	SELECT t1.tv_time , t1.game_site from 2000 as t1 WHERE t1.week = ( SELECT MAX ( t1.week ) {FROM, 3} )	2-14908721-2
which tv time has both 2000 with less than 10 week and 2000 with more than 84 week ?	SELECT t1.tv_time from 2000 as t1 WHERE t1.week < 10 INTERSECT SELECT t1.tv_time from 2000 as t1 WHERE t1.week > 84	2-14908721-2
please show the attendance of the 2000 with count more than 10 .	SELECT t1.attendance from 2000 as t1 GROUP BY t1.attendance HAVING COUNT ( * ) > 10	2-14908721-2
which result has most number of 2000 ?	SELECT t1.result from 2000 as t1 GROUP BY t1.result ORDER BY COUNT ( * ) DESC LIMIT 1	2-14908721-2
what are the record that have greater week than any week in 2000 ?	SELECT t1.record from 2000 as t1 WHERE t1.week > ( SELECT MIN ( t1.week ) from 2000 as t1 )	2-14908721-2
what are the opponent and game site ?	SELECT t1.opponent , t1.game_site from 2000 as t1	2-14908721-2
find the distinct result of 2000 having week between 10 and 67 .	SELECT DISTINCT t1.result from 2000 as t1 WHERE t1.week BETWEEN 10 AND 67	2-14908721-2
