what are the distinct nation with rank between 10 and 16 ?	SELECT DISTINCT t1.nation from 1980 as t1 WHERE t1.rank BETWEEN 10 AND 16	2-15826103-2
find the nation of 1980 who have bronze of both 10 and 20 .	SELECT t1.nation from 1980 as t1 WHERE t1.bronze = 10 INTERSECT SELECT t1.nation from 1980 as t1 WHERE t1.bronze = 20	2-15826103-2
what are the distinct COLUMN_NAME,0} of every 1980 that has a greater gold than some 1980 with 10 {COLUMN_NAME_2} ?	SELECT DISTINCT t1.nation from 1980 as t1 WHERE t1.gold > ( SELECT MIN ( t1.nation ) from 1980 as t1 WHERE t1.nation = 10 )	2-15826103-2
Return all columns in 1980 .	SELECT * FROM 1980	2-15826103-2
how many 1980 are there in nation 10 or 38 ?	SELECT COUNT ( * ) from 1980 as t1 WHERE t1.nation = 10 OR t1.nation = 38	2-15826103-2
please show the different nation , ordered by the number of 1980 that have each .	SELECT t1.nation from 1980 as t1 GROUP BY t1.nation ORDER BY COUNT ( * ) ASC LIMIT 1	2-15826103-2
what are the nation , nation , and nation of each 1980 ?	SELECT t1.nation , t1.nation , t1.nation from 1980 as t1	2-15826103-2
return the nation of the largest gold.	SELECT t1.nation from 1980 as t1 ORDER BY t1.gold DESC LIMIT 1	2-15826103-2
what is the nation and nation for the 1980 with the rank 5 smallest silver ?	SELECT t1.nation , t1.nation from 1980 as t1 ORDER BY t1.silver LIMIT 5	2-15826103-2
what is the nation of all 1980 whose silver is higher than any 1980 ?	SELECT t1.nation from 1980 as t1 WHERE t1.silver > ( SELECT MIN ( t1.silver ) from 1980 as t1 )	2-15826103-2
