what is the t1.position of 1990 that has fewest number of 1990 ?	SELECT t1.position from 1990 as t1 GROUP BY t1.position ORDER BY COUNT ( * ) LIMIT 1	2-15352703-1
what are the player of all 1990 with position that is 10 ?	SELECT t1.player from 1990 as t1 GROUP BY t1.position HAVING COUNT ( * ) = 10	2-15352703-1
find the position of the 1990 which have position 10 but not 47 .	SELECT t1.position from 1990 as t1 WHERE t1.position = 10 EXCEPT SELECT t1.position from 1990 as t1 WHERE t1.position = 47	2-15352703-1
which t1.position has least number of 1990 ?	SELECT t1.position from 1990 as t1 GROUP BY t1.position ORDER BY COUNT ( * ) LIMIT 1	2-15352703-1
find the player of 1990 who have more than 10 1990 .	SELECT t1.player from 1990 as t1 GROUP BY t1.player HAVING COUNT ( * ) > 10	2-15352703-1
show position for all 1990 whose round are greater than the average .	SELECT t1.position from 1990 as t1 WHERE t1.round > ( SELECT AVG ( t1.round ) from 1990 as t1	2-15352703-1
find the player of the 1990 that have just 10 1990 .	SELECT t1.player from 1990 as t1 GROUP BY t1.player HAVING COUNT ( * ) = 10	2-15352703-1
what are all the player and position?	SELECT t1.player , t1.position from 1990 as t1	2-15352703-1
find the position of 1990 who have both 10 and 91 round .	SELECT t1.position from 1990 as t1 WHERE t1.round = 10 INTERSECT SELECT t1.position from 1990 as t1 WHERE t1.round = 91	2-15352703-1
find the college and position of the 1990 whose round is lower than the average round of all 1990 .	SELECT t1.college , t1.position from 1990 as t1 WHERE t1.round < ( SELECT AVG ( t1.round ) {FROM, 3} )	2-15352703-1
