what is the opponent and date of the 2008 with the top 5 smallest week ?	SELECT t1.opponent , t1.date from 2008 as t1 ORDER BY t1.week LIMIT 5	2-15013564-4
what are the record more than 10 2008 have ?	SELECT t1.record from 2008 as t1 GROUP BY t1.record HAVING COUNT ( * ) > 10	2-15013564-4
which time ( et ) have an average week over 10 ?	SELECT t1.time_ from 2008 as t1 GROUP BY t1.time_ HAVING AVG ( t1.week ) >= 10	2-15013564-4
what is the minimum week in each tv network ?	SELECT MIN ( t1.week ) , t1.tv_network from 2008 as t1 GROUP BY t1.tv_network	2-15013564-4
find the distinct tv network of 2008 having week between 10 and 15 .	SELECT DISTINCT t1.tv_network from 2008 as t1 WHERE t1.week BETWEEN 10 AND 15	2-15013564-4
what are the stadium , results , and opponent of each 2008 ?	SELECT t1.stadium , t1.results , t1.opponent from 2008 as t1	2-15013564-4
count the number of 2008 that have an results containing 10 .	SELECT COUNT ( * ) from 2008 as t1 WHERE t1.results LIKE 10	2-15013564-4
show the stadium and opponent with at least 10 tv network .	SELECT t1.stadium , t1.opponent from 2008 as t1 GROUP BY t1.tv_network HAVING COUNT ( * ) >= 10	2-15013564-4
what are the record of all 2008 with record that is 10 ?	SELECT t1.record from 2008 as t1 GROUP BY t1.record HAVING COUNT ( * ) = 10	2-15013564-4
return the different opponent of 2008 , in ascending order of frequency .	SELECT t1.opponent from 2008 as t1 GROUP BY t1.opponent ORDER BY COUNT ( * ) ASC LIMIT 1	2-15013564-4
