what is the team and team of the 1958 with maximum lost ?	SELECT t1.team , t1.team from 1958 as t1 WHERE t1.lost = ( SELECT MAX ( t1.lost ) {FROM, 3} )	2-15447701-4
what is the t1.team of 1958 that has fewest number of 1958 ?	SELECT t1.team from 1958 as t1 GROUP BY t1.team ORDER BY COUNT ( * ) LIMIT 1	2-15447701-4
show the team of 1958 who have at least 10 1958 .	SELECT t1.team from 1958 as t1 GROUP BY t1.team HAVING COUNT ( * ) >= 10	2-15447701-4
which team has both 1958 with less than 10 points and 1958 with more than 22 points ?	SELECT t1.team from 1958 as t1 WHERE t1.points < 10 INTERSECT SELECT t1.team from 1958 as t1 WHERE t1.points > 22	2-15447701-4
what are the team of all 1958 that have 10 or more 1958 ?	SELECT t1.team from 1958 as t1 GROUP BY t1.team HAVING COUNT ( * ) >= 10	2-15447701-4
which team has the least draw ?	SELECT t1.team from 1958 as t1 ORDER BY t1.draw ASC LIMIT 1	2-15447701-4
what is the team and team for the 1958 with the rank 5 smallest draw ?	SELECT t1.team , t1.team from 1958 as t1 ORDER BY t1.draw LIMIT 5	2-15447701-4
show the team and the number of unique team containing each team .	SELECT t1.team , COUNT ( DISTINCT t1.team ) from 1958 as t1 GROUP BY t1.team	2-15447701-4
what are the team and team of 1958 with 10 or more team ?	SELECT t1.team , t1.team from 1958 as t1 GROUP BY t1.team HAVING COUNT ( * ) >= 10	2-15447701-4
what is the team and team of the 1958 with maximum draw ?	SELECT t1.team , t1.team from 1958 as t1 WHERE t1.draw = ( SELECT MAX ( t1.draw ) {FROM, 3} )	2-15447701-4
