what are the score of all 2008 with 1st prize ( $ ) that is 10 ?	SELECT t1.score from 2008 as t1 GROUP BY t1.1st_prize_ HAVING COUNT ( * ) = 10	2-15346009-1
what is the score of the 2008 with the largest purse ( $ ) ?	SELECT t1.score from 2008 as t1 WHERE t1.purse_ = ( SELECT MAX ( t1.purse_ ) from 2008 as t1 )	2-15346009-1
what are the winner and date of 2008 with 10 or more date ?	SELECT t1.winner , t1.date from 2008 as t1 GROUP BY t1.date HAVING COUNT ( * ) >= 10	2-15346009-1
which t1.score has least number of 2008 ?	SELECT t1.score from 2008 as t1 GROUP BY t1.score ORDER BY COUNT ( * ) LIMIT 1	2-15346009-1
find the location and location of the 2008 whose purse ( $ ) is lower than the average purse ( $ ) of all 2008 .	SELECT t1.location , t1.location from 2008 as t1 WHERE t1.purse_ < ( SELECT AVG ( t1.purse_ ) {FROM, 3} )	2-15346009-1
find all location that have fewer than three in 2008 .	SELECT t1.location from 2008 as t1 GROUP BY t1.location HAVING COUNT ( * ) < 3	2-15346009-1
which tournament have less than 3 in 2008 ?	SELECT t1.tournament from 2008 as t1 GROUP BY t1.tournament HAVING COUNT ( * ) < 3	2-15346009-1
Show everything on 2008	SELECT * FROM 2008	2-15346009-1
show the location and tournament with at least 10 location .	SELECT t1.location , t1.tournament from 2008 as t1 GROUP BY t1.location HAVING COUNT ( * ) >= 10	2-15346009-1
find the date of 2008 which have both 10 and 28 as date .	SELECT t1.date from 2008 as t1 WHERE t1.purse_ = 10 INTERSECT SELECT t1.date from 2008 as t1 WHERE t1.purse_ = 28	2-15346009-1
