how many distinct difference correspond to each difference ?	SELECT t1.difference , COUNT ( DISTINCT t1.difference ) from 1926 as t1 GROUP BY t1.difference	2-15385631-2
find the team of 1926 who have more than 10 1926 .	SELECT t1.team from 1926 as t1 GROUP BY t1.team HAVING COUNT ( * ) > 10	2-15385631-2
count the number of 1926 in team 10 or 6 .	SELECT COUNT ( * ) from 1926 as t1 WHERE t1.team = 10 OR t1.team = 6	2-15385631-2
what is the difference of all 1926 whose drawn is higher than any 1926 ?	SELECT t1.difference from 1926 as t1 WHERE t1.drawn > ( SELECT MIN ( t1.drawn ) from 1926 as t1 )	2-15385631-2
find the team of 1926 who have position of both 10 and 68 .	SELECT t1.team from 1926 as t1 WHERE t1.position = 10 INTERSECT SELECT t1.team from 1926 as t1 WHERE t1.position = 68	2-15385631-2
show the team of 1926 whose team are not 10.	SELECT t1.team from 1926 as t1 WHERE t1.team ! = 10	2-15385631-2
what are the team of the 1926 with team other than 10 ?	SELECT t1.team from 1926 as t1 WHERE t1.difference ! = 10	2-15385631-2
return the difference of the largest points.	SELECT t1.difference from 1926 as t1 ORDER BY t1.points DESC LIMIT 1	2-15385631-2
what is the difference and team of the 1926 with maximum played ?	SELECT t1.difference , t1.team from 1926 as t1 WHERE t1.played = ( SELECT MAX ( t1.played ) {FROM, 3} )	2-15385631-2
what is the t1.difference of 1926 that has fewest number of 1926 ?	SELECT t1.difference from 1926 as t1 GROUP BY t1.difference ORDER BY COUNT ( * ) LIMIT 1	2-15385631-2
