how many 2005 are there that have more than {VALUE},0 nation ?	SELECT COUNT ( * ) from 2005 as t1 GROUP BY t1.nation HAVING COUNT ( * ) > 10 	2-15103574-1
return the nation of the 2005 with the fewest total .	SELECT t1.nation from 2005 as t1 ORDER BY t1.total ASC LIMIT 1	2-15103574-1
what is the nation and nation of the 2005 with maximum gold ?	SELECT t1.nation , t1.nation from 2005 as t1 WHERE t1.gold = ( SELECT MAX ( t1.gold ) {FROM, 3} )	2-15103574-1
which nation has most number of 2005 ?	SELECT t1.nation from 2005 as t1 GROUP BY t1.nation ORDER BY COUNT ( * ) DESC LIMIT 1	2-15103574-1
what are the nation of the 2005 that have exactly 10 2005 ?	SELECT t1.nation from 2005 as t1 GROUP BY t1.nation HAVING COUNT ( * ) = 10	2-15103574-1
what is the nation of 2005 with the maximum bronze across all 2005 ?	SELECT t1.nation from 2005 as t1 WHERE t1.bronze = ( SELECT MAX ( t1.bronze ) from 2005 as t1 )	2-15103574-1
what are the nation and nation ?	SELECT t1.nation , t1.nation from 2005 as t1	2-15103574-1
find all nation that have fewer than three in 2005 .	SELECT t1.nation from 2005 as t1 GROUP BY t1.nation HAVING COUNT ( * ) < 3	2-15103574-1
find the nation and nation of the 2005 with at least 10 nation .	SELECT t1.nation , t1.nation from 2005 as t1 GROUP BY t1.nation HAVING COUNT ( * ) >= 10	2-15103574-1
show the nation of the 2005 that has the greatest number of 2005 .	SELECT t1.nation from 2005 as t1 GROUP BY t1.nation ORDER BY COUNT ( * ) DESC LIMIT 1	2-15103574-1
