what are the date of all 1946 with date that is 10 ?	SELECT t1.date from 1946 as t1 GROUP BY t1.date HAVING COUNT ( * ) = 10	2-15124803-1
what is the result of the 1946 with the minimum attendance ?	SELECT t1.result from 1946 as t1 ORDER BY t1.attendance ASC LIMIT 1	2-15124803-1
list the date which average week is above 10 .	SELECT t1.date from 1946 as t1 GROUP BY t1.date HAVING AVG ( t1.week ) >= 10	2-15124803-1
what is the minimum attendance in each result ?	SELECT MIN ( t1.attendance ) , t1.result from 1946 as t1 GROUP BY t1.result	2-15124803-1
find the date of 1946 who have week of both 10 and 54 .	SELECT t1.date from 1946 as t1 WHERE t1.week = 10 INTERSECT SELECT t1.date from 1946 as t1 WHERE t1.week = 54	2-15124803-1
return the maximum and minimum attendance across all 1946 .	SELECT MAX ( t1.attendance ) , MIN ( t1.attendance ) from 1946 as t1	2-15124803-1
which opponent has the least attendance ?	SELECT t1.opponent from 1946 as t1 ORDER BY t1.attendance ASC LIMIT 1	2-15124803-1
what is the opponent and date of the 1946 with the top 5 smallest attendance ?	SELECT t1.opponent , t1.date from 1946 as t1 ORDER BY t1.attendance LIMIT 5	2-15124803-1
which opponent has both 1946 with less than 10 week and 1946 with more than 37 week ?	SELECT t1.opponent from 1946 as t1 WHERE t1.week < 10 INTERSECT SELECT t1.opponent from 1946 as t1 WHERE t1.week > 37	2-15124803-1
what are the distinct COLUMN_NAME,0} of 1946 with week higher than any 1946 from 10 {COLUMN_NAME_2} .	SELECT DISTINCT t1.date from 1946 as t1 WHERE t1.week > ( SELECT MIN ( t1.date ) from 1946 as t1 WHERE t1.opponent = 10 )	2-15124803-1
