show all time/retired and corresponding number of 2005 in the ascending order of the numbers.	SELECT t1.time/retired , COUNT ( * ) from 2005 as t1 GROUP BY t1.time/retired ORDER BY COUNT ( * )	2-1574545-2
what are the driver of 2005 whose time/retired is not 10 ?	SELECT t1.driver from 2005 as t1 WHERE t1.time/retired ! = 10	2-1574545-2
give the maximum and minimum laps of all 2005 .	SELECT MAX ( t1.laps ) , MIN ( t1.laps ) from 2005 as t1	2-1574545-2
show the time/retired of the 2005 that has the most 2005 .	SELECT t1.time/retired from 2005 as t1 GROUP BY t1.time/retired ORDER BY COUNT ( * ) DESC LIMIT 1	2-1574545-2
which driver has both 2005 with less than 10 grid and 2005 with more than 62 grid ?	SELECT t1.driver from 2005 as t1 WHERE t1.grid < 10 INTERSECT SELECT t1.driver from 2005 as t1 WHERE t1.grid > 62	2-1574545-2
what are the constructor of all 2005 with time/retired that is 10 ?	SELECT t1.constructor from 2005 as t1 GROUP BY t1.time/retired HAVING COUNT ( * ) = 10	2-1574545-2
what is the constructor and constructor of every 2005 that has a laps lower than average ?	SELECT t1.constructor , t1.constructor from 2005 as t1 WHERE t1.laps < ( SELECT AVG ( t1.laps ) {FROM, 3} )	2-1574545-2
list all information about 2005 .	SELECT * FROM 2005	2-1574545-2
which t1.constructor has the smallest amount of 2005?	SELECT t1.constructor from 2005 as t1 GROUP BY t1.constructor ORDER BY COUNT ( * ) LIMIT 1	2-1574545-2
list all information about 2005 .	SELECT * FROM 2005	2-1574545-2
