select the average lost of each 1933 's difference .	SELECT AVG ( t1.lost ) , t1.difference from 1933 as t1 GROUP BY t1.difference	2-15367861-2
find the difference of 1933 which are in 10 difference but not in 44 difference .	SELECT t1.difference from 1933 as t1 WHERE t1.difference = 10 EXCEPT SELECT t1.difference from 1933 as t1 WHERE t1.difference = 44	2-15367861-2
give the team that has the most 1933 .	SELECT t1.team from 1933 as t1 GROUP BY t1.team ORDER BY COUNT ( * ) DESC LIMIT 1	2-15367861-2
what is the t1.team of 1933 that has fewest number of 1933 ?	SELECT t1.team from 1933 as t1 GROUP BY t1.team ORDER BY COUNT ( * ) LIMIT 1	2-15367861-2
what are the maximum and minimum position across all 1933 ?	SELECT MAX ( t1.position ) , MIN ( t1.position ) from 1933 as t1	2-15367861-2
find the difference of 1933 which are in 10 team but not in 57 team .	SELECT t1.difference from 1933 as t1 WHERE t1.team = 10 EXCEPT SELECT t1.difference from 1933 as t1 WHERE t1.team = 57	2-15367861-2
what are the difference , difference , and team for each 1933 ?	SELECT t1.difference , t1.difference , t1.team from 1933 as t1	2-15367861-2
what is the difference and difference of every 1933 that has a points lower than average ?	SELECT t1.difference , t1.difference from 1933 as t1 WHERE t1.points < ( SELECT AVG ( t1.points ) {FROM, 3} )	2-15367861-2
what are the team , team , and difference for each 1933 ?	SELECT t1.team , t1.team , t1.difference from 1933 as t1	2-15367861-2
find the difference who has exactly 10 1933 .	SELECT t1.difference from 1933 as t1 GROUP BY t1.difference HAVING COUNT ( * ) = 10	2-15367861-2
