what are the player of all 1970 with position that is 10 ?	SELECT t1.player from 1970 as t1 GROUP BY t1.position HAVING COUNT ( * ) = 10	2-15451468-1
what is the player of all 1970 whose pick is higher than any 1970 ?	SELECT t1.player from 1970 as t1 WHERE t1.pick > ( SELECT MIN ( t1.pick ) from 1970 as t1 )	2-15451468-1
please show the player of the 1970 that have at least 10 records .	SELECT t1.player from 1970 as t1 GROUP BY t1.player HAVING COUNT ( * ) >= 10	2-15451468-1
find the player of 1970 who have both 10 and 23 pick .	SELECT t1.player from 1970 as t1 WHERE t1.pick = 10 INTERSECT SELECT t1.player from 1970 as t1 WHERE t1.pick = 23	2-15451468-1
what is the t1.player of 1970 that has fewest number of 1970 ?	SELECT t1.player from 1970 as t1 GROUP BY t1.player ORDER BY COUNT ( * ) LIMIT 1	2-15451468-1
what is all the information on the 1970 with the largest number of position ?	SELECT * from 1970 as t1 ORDER BY t1.position DESC LIMIT 1	2-15451468-1
what are the distinct player with round between 10 and 41 ?	SELECT DISTINCT t1.player from 1970 as t1 WHERE t1.round BETWEEN 10 AND 41	2-15451468-1
what is all the information on the 1970 with the largest number of position ?	SELECT * from 1970 as t1 ORDER BY t1.position DESC LIMIT 1	2-15451468-1
Show everything on 1970	SELECT * FROM 1970	2-15451468-1
show the college and their total round of 1970 .	SELECT t1.college , SUM ( t1.round ) from 1970 as t1 GROUP BY t1.college	2-15451468-1
