find the distinct opponent of 1993 having week between 10 and 10 .	SELECT DISTINCT t1.opponent from 1993 as t1 WHERE t1.week BETWEEN 10 AND 10	2-15345444-1
give the maximum and minimum week of all 1993 .	SELECT MAX ( t1.week ) , MIN ( t1.week ) from 1993 as t1	2-15345444-1
give the maximum and minimum week of all 1993 .	SELECT MAX ( t1.week ) , MIN ( t1.week ) from 1993 as t1	2-15345444-1
what is the maximum and mininum week {COLUMN} for all 1993 ?	SELECT MAX ( t1.week ) , MIN ( t1.week ) from 1993 as t1	2-15345444-1
return the smallest week for every result .	SELECT MIN ( t1.week ) , t1.result from 1993 as t1 GROUP BY t1.result	2-15345444-1
which t1.opponent has the smallest amount of 1993?	SELECT t1.opponent from 1993 as t1 GROUP BY t1.opponent ORDER BY COUNT ( * ) LIMIT 1	2-15345444-1
find all date that have fewer than three in 1993 .	SELECT t1.date from 1993 as t1 GROUP BY t1.date HAVING COUNT ( * ) < 3	2-15345444-1
which t1.date has least number of 1993 ?	SELECT t1.date from 1993 as t1 GROUP BY t1.date ORDER BY COUNT ( * ) LIMIT 1	2-15345444-1
what are the date of the 1993 with date other than 10 ?	SELECT t1.date from 1993 as t1 WHERE t1.attendance ! = 10	2-15345444-1
find the opponent of the 1993 with the highest week .	SELECT t1.opponent from 1993 as t1 ORDER BY t1.week DESC LIMIT 1	2-15345444-1
