what is the t1.team of 1963 that has fewest number of 1963 ?	SELECT t1.team from 1963 as t1 GROUP BY t1.team ORDER BY COUNT ( * ) LIMIT 1	2-15244400-2
list all information about 1963 .	SELECT * FROM 1963	2-15244400-2
what are the team of all 1963 with team that is 10 ?	SELECT t1.team from 1963 as t1 GROUP BY t1.team HAVING COUNT ( * ) = 10	2-15244400-2
what are the difference of all 1963 with team that is 10 ?	SELECT t1.difference from 1963 as t1 GROUP BY t1.team HAVING COUNT ( * ) = 10	2-15244400-2
list the team which average against is above 10 .	SELECT t1.team from 1963 as t1 GROUP BY t1.team HAVING AVG ( t1.against ) >= 10	2-15244400-2
what are the difference , team , and difference of each 1963 ?	SELECT t1.difference , t1.team , t1.team from 1963 as t1	2-15244400-2
Return all columns in 1963 .	SELECT * FROM 1963	2-15244400-2
what is the difference and team of the 1963 with maximum played ?	SELECT t1.difference , t1.team from 1963 as t1 WHERE t1.played = ( SELECT MAX ( t1.played ) {FROM, 3} )	2-15244400-2
find the number of 1963 whose team contain the word 10 .	SELECT COUNT ( * ) from 1963 as t1 WHERE t1.team LIKE 10	2-15244400-2
what are the distinct team with played between 10 and 95 ?	SELECT DISTINCT t1.team from 1963 as t1 WHERE t1.played BETWEEN 10 AND 95	2-15244400-2
