what is the player of the most common 2008 in all player ?	SELECT t1.player from 2008 as t1 GROUP BY t1.player ORDER BY COUNT ( * ) DESC LIMIT 1	2-15013564-2
find the position of 2008 which have both 10 and 58 as position .	SELECT t1.position from 2008 as t1 WHERE t1.round = 10 INTERSECT SELECT t1.position from 2008 as t1 WHERE t1.round = 58	2-15013564-2
return the maximum and minimum pick across all 2008 .	SELECT MAX ( t1.pick ) , MIN ( t1.pick ) from 2008 as t1	2-15013564-2
what are the school/club team of all 2008 that have 10 or more 2008 ?	SELECT t1.school/club_team from 2008 as t1 GROUP BY t1.school/club_team HAVING COUNT ( * ) >= 10	2-15013564-2
find the player for all 2008 who have more than the average round .	SELECT t1.player from 2008 as t1 WHERE t1.round > ( SELECT AVG ( t1.round ) from 2008 as t1	2-15013564-2
which school/club team has both 2008 with less than 10 round and 2008 with more than 38 round ?	SELECT t1.school/club_team from 2008 as t1 WHERE t1.round < 10 INTERSECT SELECT t1.school/club_team from 2008 as t1 WHERE t1.round > 38	2-15013564-2
list all position which have round higher than the average .	SELECT t1.position from 2008 as t1 WHERE t1.round > ( SELECT AVG ( t1.round ) from 2008 as t1	2-15013564-2
which t1.position has least number of 2008 ?	SELECT t1.position from 2008 as t1 GROUP BY t1.position ORDER BY COUNT ( * ) LIMIT 1	2-15013564-2
what is the school/club team of the 2008 with the largest pick ?	SELECT t1.school/club_team from 2008 as t1 WHERE t1.pick = ( SELECT MAX ( t1.pick ) from 2008 as t1 )	2-15013564-2
please show the player of the 2008 with count more than 10 .	SELECT t1.player from 2008 as t1 GROUP BY t1.player HAVING COUNT ( * ) > 10	2-15013564-2
