find the result of the 2001 with the largest week .	SELECT t1.result from 2001 as t1 ORDER BY t1.week DESC LIMIT 1	2-15486062-1
what are the attendance and attendance of each 2001 ?	SELECT t1.attendance , t1.attendance from 2001 as t1	2-15486062-1
what is the date and attendance of the 2001 with the top 5 smallest week ?	SELECT t1.date , t1.attendance from 2001 as t1 ORDER BY t1.week LIMIT 5	2-15486062-1
what are the opponent of all 2001 that have 10 or more 2001 ?	SELECT t1.opponent from 2001 as t1 GROUP BY t1.opponent HAVING COUNT ( * ) >= 10	2-15486062-1
what are the date of the 2001 that have exactly 10 2001 ?	SELECT t1.date from 2001 as t1 GROUP BY t1.date HAVING COUNT ( * ) = 10	2-15486062-1
what are the attendance of all 2001 with opponent that is 10 ?	SELECT t1.attendance from 2001 as t1 GROUP BY t1.opponent HAVING COUNT ( * ) = 10	2-15486062-1
what are all the result and date?	SELECT t1.result , t1.date from 2001 as t1	2-15486062-1
which date have an average week over 10 ?	SELECT t1.date from 2001 as t1 GROUP BY t1.date HAVING AVG ( t1.week ) >= 10	2-15486062-1
show the result of the 2001 that has the greatest number of 2001 .	SELECT t1.result from 2001 as t1 GROUP BY t1.result ORDER BY COUNT ( * ) DESC LIMIT 1	2-15486062-1
Return all columns in 2001 .	SELECT * FROM 2001	2-15486062-1
