show opponent for all 1983 whose attendance are greater than the average .	SELECT t1.opponent from 1983 as t1 WHERE t1.attendance > ( SELECT AVG ( t1.attendance ) from 1983 as t1	2-15378712-1
show the opponent shared by more than 10 1983 .	SELECT t1.opponent from 1983 as t1 GROUP BY t1.opponent HAVING COUNT ( * ) > 10	2-15378712-1
what are the date for all 1983 , and what is the total {week for each ?	SELECT t1.date , SUM ( t1.week ) from 1983 as t1 GROUP BY t1.date	2-15378712-1
give the date that has the most 1983 .	SELECT t1.date from 1983 as t1 GROUP BY t1.date ORDER BY COUNT ( * ) DESC LIMIT 1	2-15378712-1
find the result of 1983 which have both 10 and 26 as result .	SELECT t1.result from 1983 as t1 WHERE t1.week = 10 INTERSECT SELECT t1.result from 1983 as t1 WHERE t1.week = 26	2-15378712-1
show the opponent with fewer than 3 1983 .	SELECT t1.opponent from 1983 as t1 GROUP BY t1.opponent HAVING COUNT ( * ) < 3	2-15378712-1
what is the date and opponent for the 1983 with the rank 5 smallest attendance ?	SELECT t1.date , t1.opponent from 1983 as t1 ORDER BY t1.attendance LIMIT 5	2-15378712-1
find the opponent of the 1983 who has the largest number of 1983 .	SELECT t1.opponent from 1983 as t1 GROUP BY t1.opponent ORDER BY COUNT ( * ) DESC LIMIT 1	2-15378712-1
show the opponent of the 1983 that has the most 1983 .	SELECT t1.opponent from 1983 as t1 GROUP BY t1.opponent ORDER BY COUNT ( * ) DESC LIMIT 1	2-15378712-1
what are the result that have greater attendance than any attendance in 1983 ?	SELECT t1.result from 1983 as t1 WHERE t1.attendance > ( SELECT MIN ( t1.attendance ) from 1983 as t1 )	2-15378712-1
