how many 2008 have weight that contain the word 10 ?	SELECT COUNT ( * ) from 2008 as t1 WHERE t1.weight LIKE 10	2-15257210-5
how many 2008 does each weight have ?	SELECT t1.weight , COUNT ( * ) from 2008 as t1 GROUP BY t1.weight ORDER BY COUNT ( * )	2-15257210-5
please show the position of the 2008 with count more than 10 .	SELECT t1.position from 2008 as t1 GROUP BY t1.position HAVING COUNT ( * ) > 10	2-15257210-5
show the class , height , and position of all the 2008 .	SELECT t1.class , t1.height , t1.position from 2008 as t1	2-15257210-5
sort the list of name and hometown of all 2008 in the descending order of number .	SELECT t1.name , t1.hometown from 2008 as t1 ORDER BY t1.number DESC	2-15257210-5
what are the position and class of 2008 with 10 or more height ?	SELECT t1.position , t1.class from 2008 as t1 GROUP BY t1.height HAVING COUNT ( * ) >= 10	2-15257210-5
count the number of 2008 in class 10 or 62 .	SELECT COUNT ( * ) from 2008 as t1 WHERE t1.class = 10 OR t1.class = 62	2-15257210-5
what are the position and position ?	SELECT t1.position , t1.position from 2008 as t1	2-15257210-5
which class have an average number over 10 ?	SELECT t1.class from 2008 as t1 GROUP BY t1.class HAVING AVG ( t1.number ) >= 10	2-15257210-5
show all hometown and corresponding number of 2008 sorted by the count .	SELECT t1.hometown , COUNT ( * ) from 2008 as t1 GROUP BY t1.hometown ORDER BY COUNT ( * )	2-15257210-5
