what are the rank of 2008 with total above the average total across all 2008 ?	SELECT t1.rank from 2008 as t1 WHERE t1.total > ( SELECT AVG ( t1.total ) from 2008 as t1	2-16880519-3
what is the rank of 2008 with the maximum total across all 2008 ?	SELECT t1.rank from 2008 as t1 WHERE t1.total = ( SELECT MAX ( t1.total ) from 2008 as t1 )	2-16880519-3
find the nation of 2008 which have 10 but no 85 as nation .	SELECT t1.nation from 2008 as t1 WHERE t1.nation = 10 EXCEPT SELECT t1.nation from 2008 as t1 WHERE t1.nation = 85	2-16880519-3
what are the nation of the 2008 that have exactly 10 2008 ?	SELECT t1.nation from 2008 as t1 GROUP BY t1.nation HAVING COUNT ( * ) = 10	2-16880519-3
how many 2008 are there that have more than {VALUE},0 nation ?	SELECT COUNT ( * ) from 2008 as t1 GROUP BY t1.nation HAVING COUNT ( * ) > 10 	2-16880519-3
what are total bronze for each nation ?	SELECT t1.nation , SUM ( t1.bronze ) from 2008 as t1 GROUP BY t1.nation	2-16880519-3
what are the rank for 2008 who have more than the average total?	SELECT t1.rank from 2008 as t1 WHERE t1.total > ( SELECT AVG ( t1.total ) from 2008 as t1	2-16880519-3
how many nation did each 2008 do, ordered by number of nation ?	SELECT t1.nation , COUNT ( * ) from 2008 as t1 GROUP BY t1.nation ORDER BY COUNT ( * )	2-16880519-3
find the nation of the 2008 with the highest gold .	SELECT t1.nation from 2008 as t1 ORDER BY t1.gold DESC LIMIT 1	2-16880519-3
what are the nation of all 2008 that have 10 or more 2008 ?	SELECT t1.nation from 2008 as t1 GROUP BY t1.nation HAVING COUNT ( * ) >= 10	2-16880519-3
