find the distinct player of 2000 having total between 10 and 22 .	SELECT DISTINCT t1.player from 2000 as t1 WHERE t1.total BETWEEN 10 AND 22	2-16514630-2
what are the finish of all 2000 with to par that is 10 ?	SELECT t1.finish from 2000 as t1 GROUP BY t1.to_par HAVING COUNT ( * ) = 10	2-16514630-2
show the player and their total total of 2000 .	SELECT t1.player , SUM ( t1.total ) from 2000 as t1 GROUP BY t1.player	2-16514630-2
what are the average total of 2000 for different player ?	SELECT AVG ( t1.total ) , t1.player from 2000 as t1 GROUP BY t1.player	2-16514630-2
find the year ( s ) won who has exactly 10 2000 .	SELECT t1.year_ from 2000 as t1 GROUP BY t1.year_ HAVING COUNT ( * ) = 10	2-16514630-2
find the number of 2000 whose country contain the word 10 .	SELECT COUNT ( * ) from 2000 as t1 WHERE t1.country LIKE 10	2-16514630-2
which to par has most number of 2000 ?	SELECT t1.to_par from 2000 as t1 GROUP BY t1.to_par ORDER BY COUNT ( * ) DESC LIMIT 1	2-16514630-2
find the country of the 2000 that is most frequent across all country .	SELECT t1.country from 2000 as t1 GROUP BY t1.country ORDER BY COUNT ( * ) DESC LIMIT 1	2-16514630-2
show the to par , year ( s ) won , and year ( s ) won of all the 2000 .	SELECT t1.to_par , t1.year_ , t1.year_ from 2000 as t1	2-16514630-2
which country have an average total over 10 ?	SELECT t1.country from 2000 as t1 GROUP BY t1.country HAVING AVG ( t1.total ) >= 10	2-16514630-2
