how many 2008 are there in date 10 or 95 ?	SELECT COUNT ( * ) from 2008 as t1 WHERE t1.date = 10 OR t1.date = 95	2-16898777-4
show record and the number of distinct record in each record .	SELECT t1.record , COUNT ( DISTINCT t1.record ) from 2008 as t1 GROUP BY t1.record	2-16898777-4
what is the final score of the 2008 with the largest week ?	SELECT t1.final_score from 2008 as t1 WHERE t1.week = ( SELECT MAX ( t1.week ) from 2008 as t1 )	2-16898777-4
find the date of 2008 which have both 10 and 89 as date .	SELECT t1.date from 2008 as t1 WHERE t1.week = 10 INTERSECT SELECT t1.date from 2008 as t1 WHERE t1.week = 89	2-16898777-4
which date have less than 3 in 2008 ?	SELECT t1.date from 2008 as t1 GROUP BY t1.date HAVING COUNT ( * ) < 3	2-16898777-4
list attendance and record who have week greater than 5 or week shorter than 10 .	SELECT t1.attendance , t1.record from 2008 as t1 WHERE t1.week > 5 OR t1.week < 10	2-16898777-4
Return all columns in 2008 .	SELECT * FROM 2008	2-16898777-4
what is the record and location of the 2008 with maximum week ?	SELECT t1.record , t1.location from 2008 as t1 WHERE t1.week = ( SELECT MAX ( t1.week ) {FROM, 3} )	2-16898777-4
what are the final score of 2008 whose location are not 10 ?	SELECT t1.final_score from 2008 as t1 WHERE t1.location ! = 10	2-16898777-4
what is the location of 2008 with the maximum week across all 2008 ?	SELECT t1.location from 2008 as t1 WHERE t1.week = ( SELECT MAX ( t1.week ) from 2008 as t1 )	2-16898777-4
