what are the distinct bike with grid between 10 and 57 ?	SELECT DISTINCT t1.bike from 2008 as t1 WHERE t1.grid BETWEEN 10 AND 57	2-16159039-3
what are the time and rider of each 2008 , listed in descending order by laps ?	SELECT t1.time , t1.rider from 2008 as t1 ORDER BY t1.laps DESC	2-16159039-3
find the time and rider of the 2008 with at least 10 rider .	SELECT t1.time , t1.rider from 2008 as t1 GROUP BY t1.rider HAVING COUNT ( * ) >= 10	2-16159039-3
how many 2008 are there in rider 10 or 82 ?	SELECT COUNT ( * ) from 2008 as t1 WHERE t1.rider = 10 OR t1.rider = 82	2-16159039-3
list the rider which average laps is above 10 .	SELECT t1.rider from 2008 as t1 GROUP BY t1.rider HAVING AVG ( t1.laps ) >= 10	2-16159039-3
what are the rider and bike of the {COLUMN} who have grid above five or laps below ten ?	SELECT t1.rider , t1.bike from 2008 as t1 WHERE t1.grid > 5 OR t1.laps < 10	2-16159039-3
what is the bike of the 2008 with the minimum grid ?	SELECT t1.bike from 2008 as t1 ORDER BY t1.grid ASC LIMIT 1	2-16159039-3
what are all the bike and bike?	SELECT t1.bike , t1.bike from 2008 as t1	2-16159039-3
what are all the time and rider?	SELECT t1.time , t1.rider from 2008 as t1	2-16159039-3
find the rider of the 2008 that have just 10 2008 .	SELECT t1.rider from 2008 as t1 GROUP BY t1.rider HAVING COUNT ( * ) = 10	2-16159039-3
