what are the score for all 2003 , and what is the total {money ( $ ) for each ?	SELECT t1.score , SUM ( t1.money_ ) from 2003 as t1 GROUP BY t1.score	2-16292316-7
find the distinct COLUMN_NAME,0} of all 2003 that have money ( $ ) higher than some 2003 from 10 {COLUMN_NAME_2} .	SELECT DISTINCT t1.to_par from 2003 as t1 WHERE t1.money_ > ( SELECT MIN ( t1.to_par ) from 2003 as t1 WHERE t1.to_par = 10 )	2-16292316-7
what is the t1.to_par of 2003 that has fewest number of 2003 ?	SELECT t1.to_par from 2003 as t1 GROUP BY t1.to_par ORDER BY COUNT ( * ) LIMIT 1	2-16292316-7
which country has most number of 2003 ?	SELECT t1.country from 2003 as t1 GROUP BY t1.country ORDER BY COUNT ( * ) DESC LIMIT 1	2-16292316-7
show the to par with fewer than 3 2003 .	SELECT t1.to_par from 2003 as t1 GROUP BY t1.to_par HAVING COUNT ( * ) < 3	2-16292316-7
what is the score and to par of the 2003 with the top 5 smallest money ( $ ) ?	SELECT t1.score , t1.to_par from 2003 as t1 ORDER BY t1.money_ LIMIT 5	2-16292316-7
return the smallest money ( $ ) for every to par .	SELECT MIN ( t1.money_ ) , t1.to_par from 2003 as t1 GROUP BY t1.to_par	2-16292316-7
find the place and player of the 2003 whose money ( $ ) is lower than the average money ( $ ) of all 2003 .	SELECT t1.place , t1.player from 2003 as t1 WHERE t1.money_ < ( SELECT AVG ( t1.money_ ) {FROM, 3} )	2-16292316-7
what are the distinct COLUMN_NAME,0} of 2003 with money ( $ ) higher than any 2003 from 10 {COLUMN_NAME_2} .	SELECT DISTINCT t1.place from 2003 as t1 WHERE t1.money_ > ( SELECT MIN ( t1.place ) from 2003 as t1 WHERE t1.country = 10 )	2-16292316-7
Show everything on 2003	SELECT * FROM 2003	2-16292316-7
