what is the place of the 2005 with the minimum score ?	SELECT t1.place from 2005 as t1 ORDER BY t1.score ASC LIMIT 1	2-16225902-4
which player have less than 3 in 2005 ?	SELECT t1.player from 2005 as t1 GROUP BY t1.player HAVING COUNT ( * ) < 3	2-16225902-4
count the number of 2005 in player 10 or 35 .	SELECT COUNT ( * ) from 2005 as t1 WHERE t1.player = 10 OR t1.player = 35	2-16225902-4
show the country shared by more than 10 2005 .	SELECT t1.country from 2005 as t1 GROUP BY t1.country HAVING COUNT ( * ) > 10	2-16225902-4
list the player and player of all 2005 sorted by score in descending order .	SELECT t1.player , t1.player from 2005 as t1 ORDER BY t1.score DESC	2-16225902-4
Return all columns in 2005 .	SELECT * FROM 2005	2-16225902-4
Return all columns in 2005 .	SELECT * FROM 2005	2-16225902-4
what is the to par and country of the 2005 with maximum score ?	SELECT t1.to_par , t1.country from 2005 as t1 WHERE t1.score = ( SELECT MAX ( t1.score ) {FROM, 3} )	2-16225902-4
show the player of 2005 who have at least 10 2005 .	SELECT t1.player from 2005 as t1 GROUP BY t1.player HAVING COUNT ( * ) >= 10	2-16225902-4
please show the country of the 2005 that have at least 10 records .	SELECT t1.country from 2005 as t1 GROUP BY t1.country HAVING COUNT ( * ) >= 10	2-16225902-4
