what is all the information on the 2008 with the largest number of venue ?	SELECT * from 2008 as t1 ORDER BY t1.venue DESC LIMIT 1	2-16330909-4
what are the date and time of the {COLUMN} who have match no . above five or match no . below ten ?	SELECT t1.date , t1.time from 2008 as t1 WHERE t1.match_no_ > 5 OR t1.match_no_ < 10	2-16330909-4
how many 2008 are there in venue 10 or 96 ?	SELECT COUNT ( * ) from 2008 as t1 WHERE t1.venue = 10 OR t1.venue = 96	2-16330909-4
what are the score , venue , and score for each 2008 ?	SELECT t1.score , t1.venue , t1.score from 2008 as t1	2-16330909-4
what are the venue for 2008 who have more than the average match no .?	SELECT t1.venue from 2008 as t1 WHERE t1.match_no_ > ( SELECT AVG ( t1.match_no_ ) from 2008 as t1	2-16330909-4
what is the match report and date of the 2008 with the top 5 smallest match no . ?	SELECT t1.match_report , t1.date from 2008 as t1 ORDER BY t1.match_no_ LIMIT 5	2-16330909-4
what are the distinct date with match no . between 10 and 58 ?	SELECT DISTINCT t1.date from 2008 as t1 WHERE t1.match_no_ BETWEEN 10 AND 58	2-16330909-4
find the venue and time of the 2008 with at least 10 venue .	SELECT t1.venue , t1.time from 2008 as t1 GROUP BY t1.venue HAVING COUNT ( * ) >= 10	2-16330909-4
what are the date more than 10 2008 have ?	SELECT t1.date from 2008 as t1 GROUP BY t1.date HAVING COUNT ( * ) > 10	2-16330909-4
find the distinct time of 2008 having match no . between 10 and 48 .	SELECT DISTINCT t1.time from 2008 as t1 WHERE t1.match_no_ BETWEEN 10 AND 48	2-16330909-4
