how many team did each 2001 do, ordered by number of team ?	SELECT t1.team , COUNT ( * ) from 2001 as t1 GROUP BY t1.team ORDER BY COUNT ( * )	2-16788123-1
what are the team of all 2001 with team that is 10 ?	SELECT t1.team from 2001 as t1 GROUP BY t1.team HAVING COUNT ( * ) = 10	2-16788123-1
show the team and their total losses of 2001 .	SELECT t1.team , SUM ( t1.losses ) from 2001 as t1 GROUP BY t1.team	2-16788123-1
what are the team of all 2001 that have 10 or more 2001 ?	SELECT t1.team from 2001 as t1 GROUP BY t1.team HAVING COUNT ( * ) >= 10	2-16788123-1
what is all the information on the 2001 with the largest number of team ?	SELECT * from 2001 as t1 ORDER BY t1.team DESC LIMIT 1	2-16788123-1
please list the team and team of 2001 in descending order of draws .	SELECT t1.team , t1.team from 2001 as t1 ORDER BY t1.draws DESC	2-16788123-1
find the team and team of the 2001 whose scored is lower than the average scored of all 2001 .	SELECT t1.team , t1.team from 2001 as t1 WHERE t1.scored < ( SELECT AVG ( t1.scored ) {FROM, 3} )	2-16788123-1
which team has most number of 2001 ?	SELECT t1.team from 2001 as t1 GROUP BY t1.team ORDER BY COUNT ( * ) DESC LIMIT 1	2-16788123-1
find the team of the 2001 with the highest conceded .	SELECT t1.team from 2001 as t1 ORDER BY t1.conceded DESC LIMIT 1	2-16788123-1
which team is the most frequent team?	SELECT t1.team from 2001 as t1 GROUP BY t1.team ORDER BY COUNT ( * ) DESC LIMIT 1	2-16788123-1
