what is the rank and rank of the 1953 with maximum total ?	SELECT t1.rank , t1.rank from 1953 as t1 WHERE t1.total = ( SELECT MAX ( t1.total ) {FROM, 3} )	2-16869142-1
find the nation of 1953 which are nation 10 but not nation 61 .	SELECT t1.nation from 1953 as t1 WHERE t1.nation = 10 EXCEPT SELECT t1.nation from 1953 as t1 WHERE t1.nation = 61	2-16869142-1
which nation have an average total over 10 ?	SELECT t1.nation from 1953 as t1 GROUP BY t1.nation HAVING AVG ( t1.total ) >= 10	2-16869142-1
what are the rank of all 1953 with nation that is 10 ?	SELECT t1.rank from 1953 as t1 GROUP BY t1.nation HAVING COUNT ( * ) = 10	2-16869142-1
what is the rank of the 1953 who has the highest number of 1953 ?	SELECT t1.rank from 1953 as t1 GROUP BY t1.rank ORDER BY COUNT ( * ) DESC LIMIT 1	2-16869142-1
find the rank of 1953 who have both 10 and 40 silver .	SELECT t1.rank from 1953 as t1 WHERE t1.silver = 10 INTERSECT SELECT t1.rank from 1953 as t1 WHERE t1.silver = 40	2-16869142-1
what is the count of 1953 with more than 10 rank ?	SELECT COUNT ( * ) from 1953 as t1 GROUP BY t1.rank HAVING COUNT ( * ) > 10 	2-16869142-1
find the nation of 1953 whose bronze is higher than the average bronze .	SELECT t1.nation from 1953 as t1 WHERE t1.bronze > ( SELECT AVG ( t1.bronze ) from 1953 as t1	2-16869142-1
what are the nation that have greater gold than any gold in 1953 ?	SELECT t1.nation from 1953 as t1 WHERE t1.gold > ( SELECT MIN ( t1.gold ) from 1953 as t1 )	2-16869142-1
find the rank of 1953 whose silver is higher than the average silver .	SELECT t1.rank from 1953 as t1 WHERE t1.silver > ( SELECT AVG ( t1.silver ) from 1953 as t1	2-16869142-1
