what are the player and place of each 2005 ?	SELECT t1.player , t1.place from 2005 as t1	2-16225902-7
Show everything on 2005	SELECT * FROM 2005	2-16225902-7
list all information about 2005 .	SELECT * FROM 2005	2-16225902-7
Return all columns in 2005 .	SELECT * FROM 2005	2-16225902-7
which country has the least money ( £ ) ?	SELECT t1.country from 2005 as t1 ORDER BY t1.money_ ASC LIMIT 1	2-16225902-7
what is the player and country of the 2005 with maximum money ( £ ) ?	SELECT t1.player , t1.country from 2005 as t1 WHERE t1.money_ = ( SELECT MAX ( t1.money_ ) {FROM, 3} )	2-16225902-7
what are the country of all 2005 that have 10 or more 2005 ?	SELECT t1.country from 2005 as t1 GROUP BY t1.country HAVING COUNT ( * ) >= 10	2-16225902-7
what are the place and to par of 2005 with 10 or more country ?	SELECT t1.place , t1.to_par from 2005 as t1 GROUP BY t1.country HAVING COUNT ( * ) >= 10	2-16225902-7
show the country of the 2005 that has the most 2005 .	SELECT t1.country from 2005 as t1 GROUP BY t1.country ORDER BY COUNT ( * ) DESC LIMIT 1	2-16225902-7
show score and score of 2005 .	SELECT t1.score , t1.score from 2005 as t1	2-16225902-7
