what are the rider , rider , and rider of each 2008 ?	SELECT t1.rider , t1.rider , t1.time from 2008 as t1	2-16295105-3
return the manufacturer of the largest laps.	SELECT t1.manufacturer from 2008 as t1 ORDER BY t1.laps DESC LIMIT 1	2-16295105-3
find the time of 2008 which have 10 but no 4 as time .	SELECT t1.time from 2008 as t1 WHERE t1.time = 10 EXCEPT SELECT t1.time from 2008 as t1 WHERE t1.time = 4	2-16295105-3
count the number of 2008 that have an rider containing 10 .	SELECT COUNT ( * ) from 2008 as t1 WHERE t1.rider LIKE 10	2-16295105-3
what are the time of 2008 , sorted by their frequency?	SELECT t1.time from 2008 as t1 GROUP BY t1.time ORDER BY COUNT ( * ) ASC LIMIT 1	2-16295105-3
show the time of the 2008 that has the greatest number of 2008 .	SELECT t1.time from 2008 as t1 GROUP BY t1.time ORDER BY COUNT ( * ) DESC LIMIT 1	2-16295105-3
show all time and the total grid for each .	SELECT t1.time , SUM ( t1.grid ) from 2008 as t1 GROUP BY t1.time	2-16295105-3
show the manufacturer , time , and manufacturer of all the 2008 .	SELECT t1.manufacturer , t1.time , t1.manufacturer from 2008 as t1	2-16295105-3
find the rider of 2008 which are in 10 manufacturer but not in 38 manufacturer .	SELECT t1.rider from 2008 as t1 WHERE t1.manufacturer = 10 EXCEPT SELECT t1.rider from 2008 as t1 WHERE t1.manufacturer = 38	2-16295105-3
show the time of 2008 whose manufacturer are not 10.	SELECT t1.time from 2008 as t1 WHERE t1.manufacturer ! = 10	2-16295105-3
