which entrant is the most frequent entrant?	SELECT t1.entrant from 1994 as t1 GROUP BY t1.entrant ORDER BY COUNT ( * ) DESC LIMIT 1	2-16873670-1
how many 1994 does each entrant have ?	SELECT t1.entrant , COUNT ( * ) from 1994 as t1 GROUP BY t1.entrant ORDER BY COUNT ( * )	2-16873670-1
what is the minimum laps in each drivers ?	SELECT MIN ( t1.laps ) , t1.drivers from 1994 as t1 GROUP BY t1.drivers	2-16873670-1
which drivers has most number of 1994 ?	SELECT t1.drivers from 1994 as t1 GROUP BY t1.drivers ORDER BY COUNT ( * ) DESC LIMIT 1	2-16873670-1
which t1.drivers has the fewest 1994 ?	SELECT t1.drivers from 1994 as t1 GROUP BY t1.drivers ORDER BY COUNT ( * ) LIMIT 1	2-16873670-1
what are the entrant for all 1994 , and what is the total {laps for each ?	SELECT t1.entrant , SUM ( t1.laps ) from 1994 as t1 GROUP BY t1.entrant	2-16873670-1
how many 1994 ' class have the word 10 in them ?	SELECT COUNT ( * ) from 1994 as t1 WHERE t1.class LIKE 10	2-16873670-1
return each entrant with the number of 1994 in ascending order of the number of entrant .	SELECT t1.entrant , COUNT ( * ) from 1994 as t1 GROUP BY t1.entrant ORDER BY COUNT ( * )	2-16873670-1
what are the class and pos . of the {COLUMN} who have laps above five or laps below ten ?	SELECT t1.class , t1.pos_ from 1994 as t1 WHERE t1.laps > 5 OR t1.laps < 10	2-16873670-1
list the class which average laps is above 10 .	SELECT t1.class from 1994 as t1 GROUP BY t1.class HAVING AVG ( t1.laps ) >= 10	2-16873670-1
