what are the average week of 2001 for different result ?	SELECT AVG ( t1.week ) , t1.result from 2001 as t1 GROUP BY t1.result	2-16351975-2
find the number of 2001 whose attendance contain the word 10 .	SELECT COUNT ( * ) from 2001 as t1 WHERE t1.attendance LIKE 10	2-16351975-2
which date has both 2001 with less than 10 week and 2001 with more than 95 week ?	SELECT t1.date from 2001 as t1 WHERE t1.week < 10 INTERSECT SELECT t1.date from 2001 as t1 WHERE t1.week > 95	2-16351975-2
which record has the least week ?	SELECT t1.record from 2001 as t1 ORDER BY t1.week ASC LIMIT 1	2-16351975-2
find the date and attendance of the 2001 whose week is lower than the average week of all 2001 .	SELECT t1.date , t1.attendance from 2001 as t1 WHERE t1.week < ( SELECT AVG ( t1.week ) {FROM, 3} )	2-16351975-2
show all game site and corresponding number of 2001 in the ascending order of the numbers.	SELECT t1.game_site , COUNT ( * ) from 2001 as t1 GROUP BY t1.game_site ORDER BY COUNT ( * )	2-16351975-2
which result have an average week over 10 ?	SELECT t1.result from 2001 as t1 GROUP BY t1.result HAVING AVG ( t1.week ) >= 10	2-16351975-2
find the opponent which have exactly 10 2001 .	SELECT t1.opponent from 2001 as t1 GROUP BY t1.opponent HAVING COUNT ( * ) = 10	2-16351975-2
what is the record of the 2001 with the smallest week ?	SELECT t1.record from 2001 as t1 ORDER BY t1.week ASC LIMIT 1	2-16351975-2
count the number of 2001 in record 10 or 26 .	SELECT COUNT ( * ) from 2001 as t1 WHERE t1.record = 10 OR t1.record = 26	2-16351975-2
