which date have an average attendance over 10 ?	SELECT t1.date from 1975 as t1 GROUP BY t1.date HAVING AVG ( t1.attendance ) >= 10	2-16710940-2
find the date of 1975 which have both 10 and 61 as date .	SELECT t1.date from 1975 as t1 WHERE t1.week = 10 INTERSECT SELECT t1.date from 1975 as t1 WHERE t1.week = 61	2-16710940-2
show the opponent of 1975 who have at least 10 1975 .	SELECT t1.opponent from 1975 as t1 GROUP BY t1.opponent HAVING COUNT ( * ) >= 10	2-16710940-2
show the opponent of the 1975 that has the greatest number of 1975 .	SELECT t1.opponent from 1975 as t1 GROUP BY t1.opponent ORDER BY COUNT ( * ) DESC LIMIT 1	2-16710940-2
what is all the information on the 1975 with the largest number of result ?	SELECT * from 1975 as t1 ORDER BY t1.result DESC LIMIT 1	2-16710940-2
what are the opponent of the 1975 with opponent other than 10 ?	SELECT t1.opponent from 1975 as t1 WHERE t1.date ! = 10	2-16710940-2
find the result of 1975 which have both 10 and 97 as result .	SELECT t1.result from 1975 as t1 WHERE t1.attendance = 10 INTERSECT SELECT t1.result from 1975 as t1 WHERE t1.attendance = 97	2-16710940-2
list opponent and opponent who have week greater than 5 or week shorter than 10 .	SELECT t1.opponent , t1.opponent from 1975 as t1 WHERE t1.week > 5 OR t1.week < 10	2-16710940-2
find the result of the 1975 with the largest week .	SELECT t1.result from 1975 as t1 ORDER BY t1.week DESC LIMIT 1	2-16710940-2
find the opponent who has exactly 10 1975 .	SELECT t1.opponent from 1975 as t1 GROUP BY t1.opponent HAVING COUNT ( * ) = 10	2-16710940-2
