list the opponent which average week is above 10 .	SELECT t1.opponent from 1999 as t1 GROUP BY t1.opponent HAVING AVG ( t1.week ) >= 10	2-16025466-2
which t1.date has the fewest 1999 ?	SELECT t1.date from 1999 as t1 GROUP BY t1.date ORDER BY COUNT ( * ) LIMIT 1	2-16025466-2
show the attendance and date with at least 10 attendance .	SELECT t1.attendance , t1.date from 1999 as t1 GROUP BY t1.attendance HAVING COUNT ( * ) >= 10	2-16025466-2
list all information about 1999 .	SELECT * FROM 1999	2-16025466-2
what are the attendance that have greater week than any week in 1999 ?	SELECT t1.attendance from 1999 as t1 WHERE t1.week > ( SELECT MIN ( t1.week ) from 1999 as t1 )	2-16025466-2
return the opponent and date of 1999 with the five lowest week .	SELECT t1.opponent , t1.date from 1999 as t1 ORDER BY t1.week LIMIT 5	2-16025466-2
which opponent have an average week over 10 ?	SELECT t1.opponent from 1999 as t1 GROUP BY t1.opponent HAVING AVG ( t1.week ) >= 10	2-16025466-2
find the opponent of the 1999 who has the largest number of 1999 .	SELECT t1.opponent from 1999 as t1 GROUP BY t1.opponent ORDER BY COUNT ( * ) DESC LIMIT 1	2-16025466-2
find the result and date of the 1999 whose week is lower than the average week of all 1999 .	SELECT t1.result , t1.date from 1999 as t1 WHERE t1.week < ( SELECT AVG ( t1.week ) {FROM, 3} )	2-16025466-2
what are the result of the 1999 that have exactly 10 1999 ?	SELECT t1.result from 1999 as t1 GROUP BY t1.result HAVING COUNT ( * ) = 10	2-16025466-2
