find the number of 1998 whose attendance contain the word 10 .	SELECT COUNT ( * ) from 1998 as t1 WHERE t1.attendance LIKE 10	2-16778258-2
what are the date and attendance ?	SELECT t1.date , t1.attendance from 1998 as t1	2-16778258-2
what is the maximum and mininum week {COLUMN} for all 1998 ?	SELECT MAX ( t1.week ) , MIN ( t1.week ) from 1998 as t1	2-16778258-2
what are the average week of 1998 , grouped by date ?	SELECT AVG ( t1.week ) , t1.date from 1998 as t1 GROUP BY t1.date	2-16778258-2
which result has the least week ?	SELECT t1.result from 1998 as t1 ORDER BY t1.week ASC LIMIT 1	2-16778258-2
give the t1.opponent with the fewest 1998 .	SELECT t1.opponent from 1998 as t1 GROUP BY t1.opponent ORDER BY COUNT ( * ) LIMIT 1	2-16778258-2
return the result of 1998 that do not have the result 10 .	SELECT t1.result from 1998 as t1 WHERE t1.result ! = 10	2-16778258-2
what are the distinct COLUMN_NAME,0} of every 1998 that has a greater week than some 1998 with 10 {COLUMN_NAME_2} ?	SELECT DISTINCT t1.result from 1998 as t1 WHERE t1.week > ( SELECT MIN ( t1.result ) from 1998 as t1 WHERE t1.date = 10 )	2-16778258-2
how many 1998 are there that have more than {VALUE},0 date ?	SELECT COUNT ( * ) from 1998 as t1 GROUP BY t1.date HAVING COUNT ( * ) > 10 	2-16778258-2
find the date who has exactly 10 1998 .	SELECT t1.date from 1998 as t1 GROUP BY t1.date HAVING COUNT ( * ) = 10	2-16778258-2
