which date is the most frequent date?	SELECT t1.date from 1960 as t1 GROUP BY t1.date ORDER BY COUNT ( * ) DESC LIMIT 1	2-16351892-4
what are the opponent more than 10 1960 have ?	SELECT t1.opponent from 1960 as t1 GROUP BY t1.opponent HAVING COUNT ( * ) > 10	2-16351892-4
what are the result and result of 1960 with 10 or more opponent ?	SELECT t1.result , t1.result from 1960 as t1 GROUP BY t1.opponent HAVING COUNT ( * ) >= 10	2-16351892-4
how many different date correspond to each result ?	SELECT t1.result , COUNT ( DISTINCT t1.date ) from 1960 as t1 GROUP BY t1.result	2-16351892-4
what is the opponent of the 1960 with the largest week ?	SELECT t1.opponent from 1960 as t1 WHERE t1.week = ( SELECT MAX ( t1.week ) from 1960 as t1 )	2-16351892-4
which date has both 1960 with less than 10 attendance and 1960 with more than 63 attendance ?	SELECT t1.date from 1960 as t1 WHERE t1.attendance < 10 INTERSECT SELECT t1.date from 1960 as t1 WHERE t1.attendance > 63	2-16351892-4
what are the date of all 1960 with date that is 10 ?	SELECT t1.date from 1960 as t1 GROUP BY t1.date HAVING COUNT ( * ) = 10	2-16351892-4
how many 1960 does each date have ?	SELECT t1.date , COUNT ( * ) from 1960 as t1 GROUP BY t1.date ORDER BY COUNT ( * )	2-16351892-4
show date and the number of distinct opponent in each date .	SELECT t1.date , COUNT ( DISTINCT t1.opponent ) from 1960 as t1 GROUP BY t1.date	2-16351892-4
which date has both 1960 with less than 10 week and 1960 with more than 29 week ?	SELECT t1.date from 1960 as t1 WHERE t1.week < 10 INTERSECT SELECT t1.date from 1960 as t1 WHERE t1.week > 29	2-16351892-4
