what are the rank and nation of the {COLUMN} who have bronze above five or silver below ten ?	SELECT t1.rank , t1.nation from 1954 as t1 WHERE t1.bronze > 5 OR t1.silver < 10	2-16853051-1
return the smallest total for every rank .	SELECT MIN ( t1.total ) , t1.rank from 1954 as t1 GROUP BY t1.rank	2-16853051-1
what are the nation and nation ?	SELECT t1.nation , t1.nation from 1954 as t1	2-16853051-1
what are the distinct COLUMN_NAME,0} of every 1954 that has a greater silver than some 1954 with 10 {COLUMN_NAME_2} ?	SELECT DISTINCT t1.rank from 1954 as t1 WHERE t1.silver > ( SELECT MIN ( t1.rank ) from 1954 as t1 WHERE t1.rank = 10 )	2-16853051-1
find the rank of 1954 which have both 10 and 19 as rank .	SELECT t1.rank from 1954 as t1 WHERE t1.bronze = 10 INTERSECT SELECT t1.rank from 1954 as t1 WHERE t1.bronze = 19	2-16853051-1
which rank has both 1954 with less than 10 bronze and 1954 with more than 31 bronze ?	SELECT t1.rank from 1954 as t1 WHERE t1.bronze < 10 INTERSECT SELECT t1.rank from 1954 as t1 WHERE t1.bronze > 31	2-16853051-1
show the rank and their total bronze of 1954 .	SELECT t1.rank , SUM ( t1.bronze ) from 1954 as t1 GROUP BY t1.rank	2-16853051-1
what is the rank of all 1954 whose silver is higher than any 1954 ?	SELECT t1.rank from 1954 as t1 WHERE t1.silver > ( SELECT MIN ( t1.silver ) from 1954 as t1 )	2-16853051-1
what are the nation of all 1954 with nation that is 10 ?	SELECT t1.nation from 1954 as t1 GROUP BY t1.nation HAVING COUNT ( * ) = 10	2-16853051-1
show the rank and the number of unique rank containing each rank .	SELECT t1.rank , COUNT ( DISTINCT t1.rank ) from 1954 as t1 GROUP BY t1.rank	2-16853051-1
