what is the maximum and mininum lane {COLUMN} for all 2008 ?	SELECT MAX ( t1.lane ) , MIN ( t1.lane ) from 2008 as t1	2-16194679-2
find the distinct mark of 2008 having lane between 10 and 4 .	SELECT DISTINCT t1.mark from 2008 as t1 WHERE t1.lane BETWEEN 10 AND 4	2-16194679-2
what are the mark more than 10 2008 have ?	SELECT t1.mark from 2008 as t1 GROUP BY t1.mark HAVING COUNT ( * ) > 10	2-16194679-2
which t1.name has least number of 2008 ?	SELECT t1.name from 2008 as t1 GROUP BY t1.name ORDER BY COUNT ( * ) LIMIT 1	2-16194679-2
which country have less than 3 in 2008 ?	SELECT t1.country from 2008 as t1 GROUP BY t1.country HAVING COUNT ( * ) < 3	2-16194679-2
show the name of the 2008 that has the greatest number of 2008 .	SELECT t1.name from 2008 as t1 GROUP BY t1.name ORDER BY COUNT ( * ) DESC LIMIT 1	2-16194679-2
what is the name and country of every 2008 that has a heat lower than average ?	SELECT t1.name , t1.country from 2008 as t1 WHERE t1.heat < ( SELECT AVG ( t1.heat ) {FROM, 3} )	2-16194679-2
show mark for all 2008 whose lane are greater than the average .	SELECT t1.mark from 2008 as t1 WHERE t1.lane > ( SELECT AVG ( t1.lane ) from 2008 as t1	2-16194679-2
find the distinct name of 2008 having heat between 10 and 89 .	SELECT DISTINCT t1.name from 2008 as t1 WHERE t1.heat BETWEEN 10 AND 89	2-16194679-2
how many 2008 are there in mark 10 or 82 ?	SELECT COUNT ( * ) from 2008 as t1 WHERE t1.mark = 10 OR t1.mark = 82	2-16194679-2
