what is the player of the 1989 with the largest score ?	SELECT t1.player from 1989 as t1 WHERE t1.score = ( SELECT MAX ( t1.score ) from 1989 as t1 )	2-17231086-3
find the country of the 1989 with the largest score .	SELECT t1.country from 1989 as t1 ORDER BY t1.score DESC LIMIT 1	2-17231086-3
find the to par of 1989 which are country 10 but not country 14 .	SELECT t1.to_par from 1989 as t1 WHERE t1.country = 10 EXCEPT SELECT t1.to_par from 1989 as t1 WHERE t1.country = 14	2-17231086-3
please show the different place , ordered by the number of 1989 that have each .	SELECT t1.place from 1989 as t1 GROUP BY t1.place ORDER BY COUNT ( * ) ASC LIMIT 1	2-17231086-3
what is the place of all 1989 whose score is higher than any 1989 ?	SELECT t1.place from 1989 as t1 WHERE t1.score > ( SELECT MIN ( t1.score ) from 1989 as t1 )	2-17231086-3
what is the country and country of the 1989 with maximum score ?	SELECT t1.country , t1.country from 1989 as t1 WHERE t1.score = ( SELECT MAX ( t1.score ) {FROM, 3} )	2-17231086-3
what is the player of highest score ?	SELECT t1.player from 1989 as t1 ORDER BY t1.score DESC LIMIT 1	2-17231086-3
what are the distinct COLUMN_NAME,0} of every 1989 that has a greater score than some 1989 with 10 {COLUMN_NAME_2} ?	SELECT DISTINCT t1.country from 1989 as t1 WHERE t1.score > ( SELECT MIN ( t1.country ) from 1989 as t1 WHERE t1.country = 10 )	2-17231086-3
find the distinct COLUMN_NAME,0} of all 1989 that have score higher than some 1989 from 10 {COLUMN_NAME_2} .	SELECT DISTINCT t1.player from 1989 as t1 WHERE t1.score > ( SELECT MIN ( t1.player ) from 1989 as t1 WHERE t1.to_par = 10 )	2-17231086-3
find the to par of 1989 which are in 10 country but not in 90 country .	SELECT t1.to_par from 1989 as t1 WHERE t1.country = 10 EXCEPT SELECT t1.to_par from 1989 as t1 WHERE t1.country = 90	2-17231086-3
