give the maximum and minimum money ( $ ) of all 2003 .	SELECT MAX ( t1.money_ ) , MIN ( t1.money_ ) from 2003 as t1	2-17991356-7
what are the distinct COLUMN_NAME,0} of every 2003 that has a greater money ( $ ) than some 2003 with 10 {COLUMN_NAME_2} ?	SELECT DISTINCT t1.player from 2003 as t1 WHERE t1.money_ > ( SELECT MIN ( t1.player ) from 2003 as t1 WHERE t1.country = 10 )	2-17991356-7
what are all the player and player?	SELECT t1.player , t1.player from 2003 as t1	2-17991356-7
what is the player of 2003 with the maximum money ( $ ) across all 2003 ?	SELECT t1.player from 2003 as t1 WHERE t1.money_ = ( SELECT MAX ( t1.money_ ) from 2003 as t1 )	2-17991356-7
what are the {place of all the 2003 , and the total money ( $ ) by each ?	SELECT t1.place , SUM ( t1.money_ ) from 2003 as t1 GROUP BY t1.place	2-17991356-7
return the place of the 2003 that has the fewest corresponding place .	SELECT t1.place from 2003 as t1 GROUP BY t1.place ORDER BY COUNT ( * ) ASC LIMIT 1	2-17991356-7
show the score with fewer than 3 2003 .	SELECT t1.score from 2003 as t1 GROUP BY t1.score HAVING COUNT ( * ) < 3	2-17991356-7
what are the distinct COLUMN_NAME,0} of every 2003 that has a greater money ( $ ) than some 2003 with 10 {COLUMN_NAME_2} ?	SELECT DISTINCT t1.score from 2003 as t1 WHERE t1.money_ > ( SELECT MIN ( t1.score ) from 2003 as t1 WHERE t1.score = 10 )	2-17991356-7
what is the place of the 2003 with least number of place ?	SELECT t1.place from 2003 as t1 GROUP BY t1.place ORDER BY COUNT ( * ) ASC LIMIT 1	2-17991356-7
what are the score of all 2003 with to par that is 10 ?	SELECT t1.score from 2003 as t1 GROUP BY t1.to_par HAVING COUNT ( * ) = 10	2-17991356-7
