list the time of the 2008 whose bike is not 10 .	SELECT t1.time from 2008 as t1 WHERE t1.bike ! = 10	2-17004028-1
return the time and time of 2008 with the five lowest laps .	SELECT t1.time , t1.time from 2008 as t1 ORDER BY t1.laps LIMIT 5	2-17004028-1
what is the rider of the 2008 with least number of rider ?	SELECT t1.rider from 2008 as t1 GROUP BY t1.rider ORDER BY COUNT ( * ) ASC LIMIT 1	2-17004028-1
which t1.bike has the fewest 2008 ?	SELECT t1.bike from 2008 as t1 GROUP BY t1.bike ORDER BY COUNT ( * ) LIMIT 1	2-17004028-1
show the rider of 2008 whose rider are not 10.	SELECT t1.rider from 2008 as t1 WHERE t1.rider ! = 10	2-17004028-1
return the bike of 2008 that do not have the rider 10 .	SELECT t1.bike from 2008 as t1 WHERE t1.rider ! = 10	2-17004028-1
what is the time of the 2008 with the smallest grid ?	SELECT t1.time from 2008 as t1 ORDER BY t1.grid ASC LIMIT 1	2-17004028-1
Return all columns in 2008 .	SELECT * FROM 2008	2-17004028-1
list the bike of {2008 which has number of 2008 greater than 10 .	SELECT t1.bike from 2008 as t1 GROUP BY t1.bike HAVING COUNT ( * ) > 10	2-17004028-1
find the rider of 2008 whose grid is more than the average grid of 2008 .	SELECT t1.rider from 2008 as t1 WHERE t1.grid > ( SELECT AVG ( t1.grid ) from 2008 as t1	2-17004028-1
