what are the dates of all 2007 that have 10 or more 2007 ?	SELECT t1.dates from 2007 as t1 GROUP BY t1.dates HAVING COUNT ( * ) >= 10	2-17032444-1
find the dates of 2007 which have 10 but no 64 as tournament .	SELECT t1.dates from 2007 as t1 WHERE t1.tournament = 10 EXCEPT SELECT t1.dates from 2007 as t1 WHERE t1.tournament = 64	2-17032444-1
what are the dates and winner of all 2007 sorted by decreasing owgr pts ?	SELECT t1.dates , t1.winner from 2007 as t1 ORDER BY t1.owgr_pts DESC	2-17032444-1
what are the tournament of all 2007 with tournament that is 10 ?	SELECT t1.tournament from 2007 as t1 GROUP BY t1.tournament HAVING COUNT ( * ) = 10	2-17032444-1
list dates and dates who have prize fund ( ￥ ) greater than 5 or prize fund ( ￥ ) shorter than 10 .	SELECT t1.dates , t1.dates from 2007 as t1 WHERE t1.prize_fund_ > 5 OR t1.prize_fund_ < 10	2-17032444-1
how many 2007 are there that have more than {VALUE},0 winner ?	SELECT COUNT ( * ) from 2007 as t1 GROUP BY t1.winner HAVING COUNT ( * ) > 10 	2-17032444-1
show winner and winner of 2007 .	SELECT t1.winner , t1.winner from 2007 as t1	2-17032444-1
show the dates and their total prize fund ( ￥ ) of 2007 .	SELECT t1.dates , SUM ( t1.prize_fund_ ) from 2007 as t1 GROUP BY t1.dates	2-17032444-1
show the winner and their total prize fund ( ￥ ) of 2007 .	SELECT t1.winner , SUM ( t1.prize_fund_ ) from 2007 as t1 GROUP BY t1.winner	2-17032444-1
how many 2007 are there in winner 10 or 33 ?	SELECT COUNT ( * ) from 2007 as t1 WHERE t1.winner = 10 OR t1.winner = 33	2-17032444-1
