select the average q1 order of each 2005 's driver .	SELECT AVG ( t1.q1_order ) , t1.driver from 2005 as t1 GROUP BY t1.driver	2-1706942-1
what is all the information on the 2005 with the largest number of q1 time ?	SELECT * from 2005 as t1 ORDER BY t1.q1_time DESC LIMIT 1	2-1706942-1
how many 2005 are there that have more than {VALUE},0 q1 time ?	SELECT COUNT ( * ) from 2005 as t1 GROUP BY t1.q1_time HAVING COUNT ( * ) > 10 	2-1706942-1
sort the list of constructor and driver of all 2005 in the descending order of q1 pos .	SELECT t1.constructor , t1.driver from 2005 as t1 ORDER BY t1.q1_pos DESC	2-1706942-1
which constructor has most number of 2005 ?	SELECT t1.constructor from 2005 as t1 GROUP BY t1.constructor ORDER BY COUNT ( * ) DESC LIMIT 1	2-1706942-1
Show everything on 2005	SELECT * FROM 2005	2-1706942-1
which constructor has both 2005 with less than 10 q1 order and 2005 with more than 29 q1 order ?	SELECT t1.constructor from 2005 as t1 WHERE t1.q1_order < 10 INTERSECT SELECT t1.constructor from 2005 as t1 WHERE t1.q1_order > 29	2-1706942-1
count the number of 2005 that have an q1 time containing 10 .	SELECT COUNT ( * ) from 2005 as t1 WHERE t1.q1_time LIKE 10	2-1706942-1
show the q1 time with fewer than 3 2005 .	SELECT t1.q1_time from 2005 as t1 GROUP BY t1.q1_time HAVING COUNT ( * ) < 3	2-1706942-1
count the number of 2005 in driver 10 or 49 .	SELECT COUNT ( * ) from 2005 as t1 WHERE t1.driver = 10 OR t1.driver = 49	2-1706942-1
