please list the nation and nation of 1993 in descending order of bronze .	SELECT t1.nation , t1.nation from 1993 as t1 ORDER BY t1.bronze DESC	2-17084661-3
what is the rank and nation of every 1993 that has a total lower than average ?	SELECT t1.rank , t1.nation from 1993 as t1 WHERE t1.total < ( SELECT AVG ( t1.total ) {FROM, 3} )	2-17084661-3
find the rank that have 10 1993 .	SELECT t1.rank from 1993 as t1 GROUP BY t1.rank HAVING COUNT ( * ) = 10	2-17084661-3
how many different rank correspond to each rank ?	SELECT t1.rank , COUNT ( DISTINCT t1.rank ) from 1993 as t1 GROUP BY t1.rank	2-17084661-3
what is all the information on the 1993 with the largest number of nation ?	SELECT * from 1993 as t1 ORDER BY t1.nation DESC LIMIT 1	2-17084661-3
find the rank of 1993 who have bronze of both 10 and 47 .	SELECT t1.rank from 1993 as t1 WHERE t1.bronze = 10 INTERSECT SELECT t1.rank from 1993 as t1 WHERE t1.bronze = 47	2-17084661-3
how many 1993 are there that have more than {VALUE},0 rank ?	SELECT COUNT ( * ) from 1993 as t1 GROUP BY t1.rank HAVING COUNT ( * ) > 10 	2-17084661-3
what is the nation and rank of every 1993 that has a gold lower than average ?	SELECT t1.nation , t1.rank from 1993 as t1 WHERE t1.gold < ( SELECT AVG ( t1.gold ) {FROM, 3} )	2-17084661-3
find all nation that have fewer than three in 1993 .	SELECT t1.nation from 1993 as t1 GROUP BY t1.nation HAVING COUNT ( * ) < 3	2-17084661-3
how many 1993 have nation that contains 10 ?	SELECT COUNT ( * ) from 1993 as t1 WHERE t1.nation LIKE 10	2-17084661-3
