find the country of 1995 who have both 10 and 93 score .	SELECT t1.country from 1995 as t1 WHERE t1.score = 10 INTERSECT SELECT t1.country from 1995 as t1 WHERE t1.score = 93	2-17162214-2
what are the average score of 1995 for different player ?	SELECT AVG ( t1.score ) , t1.player from 1995 as t1 GROUP BY t1.player	2-17162214-2
find the place of 1995 who have both 10 and 66 score .	SELECT t1.place from 1995 as t1 WHERE t1.score = 10 INTERSECT SELECT t1.place from 1995 as t1 WHERE t1.score = 66	2-17162214-2
please show the place of the 1995 that have at least 10 records .	SELECT t1.place from 1995 as t1 GROUP BY t1.place HAVING COUNT ( * ) >= 10	2-17162214-2
what is the country of the 1995 with the largest score ?	SELECT t1.country from 1995 as t1 WHERE t1.score = ( SELECT MAX ( t1.score ) from 1995 as t1 )	2-17162214-2
which to par has both 1995 with less than 10 score and 1995 with more than 20 score ?	SELECT t1.to_par from 1995 as t1 WHERE t1.score < 10 INTERSECT SELECT t1.to_par from 1995 as t1 WHERE t1.score > 20	2-17162214-2
what is the minimum score in each to par ?	SELECT MIN ( t1.score ) , t1.to_par from 1995 as t1 GROUP BY t1.to_par	2-17162214-2
what are the player and place of each 1995 ?	SELECT t1.player , t1.place from 1995 as t1	2-17162214-2
return the maximum and minimum score across all 1995 .	SELECT MAX ( t1.score ) , MIN ( t1.score ) from 1995 as t1	2-17162214-2
which to par have less than 3 in 1995 ?	SELECT t1.to_par from 1995 as t1 GROUP BY t1.to_par HAVING COUNT ( * ) < 3	2-17162214-2
