find the to par of 1988 which are in 10 place but not in 26 place .	SELECT t1.to_par from 1988 as t1 WHERE t1.place = 10 EXCEPT SELECT t1.to_par from 1988 as t1 WHERE t1.place = 26	2-17231125-4
show the place of 1988 who have at least 10 1988 .	SELECT t1.place from 1988 as t1 GROUP BY t1.place HAVING COUNT ( * ) >= 10	2-17231125-4
what are the place and place of 1988 with 10 or more player ?	SELECT t1.place , t1.place from 1988 as t1 GROUP BY t1.player HAVING COUNT ( * ) >= 10	2-17231125-4
what are the place that have greater score than any score in 1988 ?	SELECT t1.place from 1988 as t1 WHERE t1.score > ( SELECT MIN ( t1.score ) from 1988 as t1 )	2-17231125-4
find the to par of 1988 who have more than 10 1988 .	SELECT t1.to_par from 1988 as t1 GROUP BY t1.to_par HAVING COUNT ( * ) > 10	2-17231125-4
what is the player of the 1988 with least number of player ?	SELECT t1.player from 1988 as t1 GROUP BY t1.player ORDER BY COUNT ( * ) ASC LIMIT 1	2-17231125-4
find the player of the 1988 with the highest score .	SELECT t1.player from 1988 as t1 ORDER BY t1.score DESC LIMIT 1	2-17231125-4
what is the to par of highest score ?	SELECT t1.to_par from 1988 as t1 ORDER BY t1.score DESC LIMIT 1	2-17231125-4
how many 1988 have country that contains 10 ?	SELECT COUNT ( * ) from 1988 as t1 WHERE t1.country LIKE 10	2-17231125-4
list to par of 1988 that have the number of 1988 greater than 10 .	SELECT t1.to_par from 1988 as t1 GROUP BY t1.to_par HAVING COUNT ( * ) > 10	2-17231125-4
