list country of 1998 that have the number of 1998 greater than 10 .	SELECT t1.country from 1998 as t1 GROUP BY t1.country HAVING COUNT ( * ) > 10	2-17162166-4
what are the to par that have greater score than any score in 1998 ?	SELECT t1.to_par from 1998 as t1 WHERE t1.score > ( SELECT MIN ( t1.score ) from 1998 as t1 )	2-17162166-4
how many 1998 ' country have the word 10 in them ?	SELECT COUNT ( * ) from 1998 as t1 WHERE t1.country LIKE 10	2-17162166-4
return the player and country of 1998 with the five lowest score .	SELECT t1.player , t1.country from 1998 as t1 ORDER BY t1.score LIMIT 5	2-17162166-4
what are the player for 1998 that have an score greater than the average .	SELECT t1.player from 1998 as t1 WHERE t1.score > ( SELECT AVG ( t1.score ) from 1998 as t1	2-17162166-4
what is the to par and place of the 1998 with the top 5 smallest score ?	SELECT t1.to_par , t1.place from 1998 as t1 ORDER BY t1.score LIMIT 5	2-17162166-4
display the player , country , and country for each 1998 .	SELECT t1.player , t1.country , t1.country from 1998 as t1	2-17162166-4
return the different player of 1998 , in ascending order of frequency .	SELECT t1.player from 1998 as t1 GROUP BY t1.player ORDER BY COUNT ( * ) ASC LIMIT 1	2-17162166-4
what is the place of the 1998 with the smallest score ?	SELECT t1.place from 1998 as t1 ORDER BY t1.score ASC LIMIT 1	2-17162166-4
find the place of the 1998 with the highest score .	SELECT t1.place from 1998 as t1 ORDER BY t1.score DESC LIMIT 1	2-17162166-4
