return the smallest attendance for every opponent .	SELECT MIN ( t1.attendance ) , t1.opponent from 1975 as t1 GROUP BY t1.opponent	2-17924362-1
list date of 1975 that have the number of 1975 greater than 10 .	SELECT t1.date from 1975 as t1 GROUP BY t1.date HAVING COUNT ( * ) > 10	2-17924362-1
what is the record and game site of the 1975 with maximum week ?	SELECT t1.record , t1.game_site from 1975 as t1 WHERE t1.week = ( SELECT MAX ( t1.week ) {FROM, 3} )	2-17924362-1
how many distinct date correspond to each opponent ?	SELECT t1.opponent , COUNT ( DISTINCT t1.date ) from 1975 as t1 GROUP BY t1.opponent	2-17924362-1
what are the record of 1975 whose date are not 10 ?	SELECT t1.record from 1975 as t1 WHERE t1.date ! = 10	2-17924362-1
find the result of the 1975 which have opponent 10 but not 37 .	SELECT t1.result from 1975 as t1 WHERE t1.opponent = 10 EXCEPT SELECT t1.result from 1975 as t1 WHERE t1.opponent = 37	2-17924362-1
what are the record of all 1975 with record that is 10 ?	SELECT t1.record from 1975 as t1 GROUP BY t1.record HAVING COUNT ( * ) = 10	2-17924362-1
return the date of the largest attendance.	SELECT t1.date from 1975 as t1 ORDER BY t1.attendance DESC LIMIT 1	2-17924362-1
what are the record , date , and record of each 1975 ?	SELECT t1.record , t1.date , t1.record from 1975 as t1	2-17924362-1
list the date of {1975 which has number of 1975 greater than 10 .	SELECT t1.date from 1975 as t1 GROUP BY t1.date HAVING COUNT ( * ) > 10	2-17924362-1
