find the number of 1979 that have more than 10 to par .	SELECT COUNT ( * ) from 1979 as t1 GROUP BY t1.to_par HAVING COUNT ( * ) > 10 	2-17245444-6
which player have less than 3 in 1979 ?	SELECT t1.player from 1979 as t1 GROUP BY t1.player HAVING COUNT ( * ) < 3	2-17245444-6
what is the score of highest money ( $ ) ?	SELECT t1.score from 1979 as t1 ORDER BY t1.money_ DESC LIMIT 1	2-17245444-6
which to par has both 1979 with less than 10 money ( $ ) and 1979 with more than 92 money ( $ ) ?	SELECT t1.to_par from 1979 as t1 WHERE t1.money_ < 10 INTERSECT SELECT t1.to_par from 1979 as t1 WHERE t1.money_ > 92	2-17245444-6
list all information about 1979 .	SELECT * FROM 1979	2-17245444-6
what are the average money ( $ ) of 1979 for different to par ?	SELECT AVG ( t1.money_ ) , t1.to_par from 1979 as t1 GROUP BY t1.to_par	2-17245444-6
what are the average money ( $ ) of 1979 , grouped by to par ?	SELECT AVG ( t1.money_ ) , t1.to_par from 1979 as t1 GROUP BY t1.to_par	2-17245444-6
what are the country that have greater money ( $ ) than any money ( $ ) in 1979 ?	SELECT t1.country from 1979 as t1 WHERE t1.money_ > ( SELECT MIN ( t1.money_ ) from 1979 as t1 )	2-17245444-6
count the number of 1979 that have an player containing 10 .	SELECT COUNT ( * ) from 1979 as t1 WHERE t1.player LIKE 10	2-17245444-6
find the country of the 1979 that have just 10 1979 .	SELECT t1.country from 1979 as t1 GROUP BY t1.country HAVING COUNT ( * ) = 10	2-17245444-6
