how many distinct opponent correspond to each opponent ?	SELECT t1.opponent , COUNT ( DISTINCT t1.opponent ) from 1970 as t1 GROUP BY t1.opponent	2-17794610-1
count the number of 1970 in record 10 or 1 .	SELECT COUNT ( * ) from 1970 as t1 WHERE t1.record = 10 OR t1.record = 1	2-17794610-1
find the distinct record of 1970 having week between 10 and 58 .	SELECT DISTINCT t1.record from 1970 as t1 WHERE t1.week BETWEEN 10 AND 58	2-17794610-1
list the date and date of all 1970 sorted by week in descending order .	SELECT t1.date , t1.date from 1970 as t1 ORDER BY t1.week DESC	2-17794610-1
how many 1970 are there in game site 10 or 60 ?	SELECT COUNT ( * ) from 1970 as t1 WHERE t1.game_site = 10 OR t1.game_site = 60	2-17794610-1
which date have less than 3 in 1970 ?	SELECT t1.date from 1970 as t1 GROUP BY t1.date HAVING COUNT ( * ) < 3	2-17794610-1
give the t1.date with the fewest 1970 .	SELECT t1.date from 1970 as t1 GROUP BY t1.date ORDER BY COUNT ( * ) LIMIT 1	2-17794610-1
find the distinct game site of 1970 having attendance between 10 and 9 .	SELECT DISTINCT t1.game_site from 1970 as t1 WHERE t1.attendance BETWEEN 10 AND 9	2-17794610-1
what is the count of 1970 with more than 10 record ?	SELECT COUNT ( * ) from 1970 as t1 GROUP BY t1.record HAVING COUNT ( * ) > 10 	2-17794610-1
find the game site of 1970 which have 10 but no 54 as game site .	SELECT t1.game_site from 1970 as t1 WHERE t1.game_site = 10 EXCEPT SELECT t1.game_site from 1970 as t1 WHERE t1.game_site = 54	2-17794610-1
