return the country of 1991 that do not have the player 10 .	SELECT t1.country from 1991 as t1 WHERE t1.player ! = 10	2-17162268-2
return the to par of the largest total.	SELECT t1.to_par from 1991 as t1 ORDER BY t1.total DESC LIMIT 1	2-17162268-2
what are the distinct COLUMN_NAME,0} of every 1991 that has a greater total than some 1991 with 10 {COLUMN_NAME_2} ?	SELECT DISTINCT t1.country from 1991 as t1 WHERE t1.total > ( SELECT MIN ( t1.country ) from 1991 as t1 WHERE t1.finish = 10 )	2-17162268-2
find the finish that have 10 1991 .	SELECT t1.finish from 1991 as t1 GROUP BY t1.finish HAVING COUNT ( * ) = 10	2-17162268-2
return the finish of the 1991 that has the fewest corresponding finish .	SELECT t1.finish from 1991 as t1 GROUP BY t1.finish ORDER BY COUNT ( * ) ASC LIMIT 1	2-17162268-2
give the t1.year_ with the fewest 1991 .	SELECT t1.year_ from 1991 as t1 GROUP BY t1.year_ ORDER BY COUNT ( * ) LIMIT 1	2-17162268-2
what are the distinct COLUMN_NAME,0} of every 1991 that has a greater total than some 1991 with 10 {COLUMN_NAME_2} ?	SELECT DISTINCT t1.player from 1991 as t1 WHERE t1.total > ( SELECT MIN ( t1.player ) from 1991 as t1 WHERE t1.player = 10 )	2-17162268-2
what are the to par of all 1991 with year ( s ) won that is 10 ?	SELECT t1.to_par from 1991 as t1 GROUP BY t1.year_ HAVING COUNT ( * ) = 10	2-17162268-2
what is the count of 1991 with more than 10 to par ?	SELECT COUNT ( * ) from 1991 as t1 GROUP BY t1.to_par HAVING COUNT ( * ) > 10 	2-17162268-2
which player have less than 3 in 1991 ?	SELECT t1.player from 1991 as t1 GROUP BY t1.player HAVING COUNT ( * ) < 3	2-17162268-2
