how many 1972 are there that have more than {VALUE},0 status ?	SELECT COUNT ( * ) from 1972 as t1 GROUP BY t1.status HAVING COUNT ( * ) > 10 	2-17020783-1
find the distinct COLUMN_NAME,0} of all 1972 that have against higher than some 1972 from 10 {COLUMN_NAME_2} .	SELECT DISTINCT t1.status from 1972 as t1 WHERE t1.against > ( SELECT MIN ( t1.status ) from 1972 as t1 WHERE t1.opposing_team = 10 )	2-17020783-1
list the date of {1972 which has number of 1972 greater than 10 .	SELECT t1.date from 1972 as t1 GROUP BY t1.date HAVING COUNT ( * ) > 10	2-17020783-1
what are the venue for 1972 that have an against greater than the average .	SELECT t1.venue from 1972 as t1 WHERE t1.against > ( SELECT AVG ( t1.against ) from 1972 as t1	2-17020783-1
what are the date for 1972 who have more than the average against?	SELECT t1.date from 1972 as t1 WHERE t1.against > ( SELECT AVG ( t1.against ) from 1972 as t1	2-17020783-1
list venue and opposing team who have against greater than 5 or against shorter than 10 .	SELECT t1.venue , t1.opposing_team from 1972 as t1 WHERE t1.against > 5 OR t1.against < 10	2-17020783-1
which venue has both 1972 with less than 10 against and 1972 with more than 91 against ?	SELECT t1.venue from 1972 as t1 WHERE t1.against < 10 INTERSECT SELECT t1.venue from 1972 as t1 WHERE t1.against > 91	2-17020783-1
list all information about 1972 .	SELECT * FROM 1972	2-17020783-1
what are the venue for 1972 that have an against greater than the average .	SELECT t1.venue from 1972 as t1 WHERE t1.against > ( SELECT AVG ( t1.against ) from 1972 as t1	2-17020783-1
what are the date , date , and date of each 1972 ?	SELECT t1.date , t1.date , t1.opposing_team from 1972 as t1	2-17020783-1
