what are the 2011 , 2012 , and 2011 of each coolbrands ?	SELECT t1.2011 , t1.2012 , t1.2010 from coolbrands as t1	2-17513566-1
what are the distinct 2011 with rank between 10 and 7 ?	SELECT DISTINCT t1.2011 from coolbrands as t1 WHERE t1.rank BETWEEN 10 AND 7	2-17513566-1
which 2010 have an average rank over 10 ?	SELECT t1.2010 from coolbrands as t1 GROUP BY t1.2010 HAVING AVG ( t1.rank ) >= 10	2-17513566-1
show the 2010 , 2011 , and 2008 of all the coolbrands .	SELECT t1.2010 , t1.2011 , t1.2008 from coolbrands as t1	2-17513566-1
find the 2012 of the coolbrands with the highest rank.	SELECT t1.2012 from coolbrands as t1 WHERE t1.rank = ( SELECT MAX ( t1.rank ) from coolbrands as t1 )	2-17513566-1
what are the 2013 of all coolbrands with 2013 that is 10 ?	SELECT t1.2013 from coolbrands as t1 GROUP BY t1.2013 HAVING COUNT ( * ) = 10	2-17513566-1
return the maximum and minimum rank across all coolbrands .	SELECT MAX ( t1.rank ) , MIN ( t1.rank ) from coolbrands as t1	2-17513566-1
find the 2009 of coolbrands which are 2011 10 but not 2011 9 .	SELECT t1.2009 from coolbrands as t1 WHERE t1.2011 = 10 EXCEPT SELECT t1.2009 from coolbrands as t1 WHERE t1.2011 = 9	2-17513566-1
what are the 2009 of all coolbrands with 2013 that is 10 ?	SELECT t1.2009 from coolbrands as t1 GROUP BY t1.2013 HAVING COUNT ( * ) = 10	2-17513566-1
which 2012 has most number of coolbrands ?	SELECT t1.2012 from coolbrands as t1 GROUP BY t1.2012 ORDER BY COUNT ( * ) DESC LIMIT 1	2-17513566-1
