what are total grid for each rider ?	SELECT t1.rider , SUM ( t1.grid ) from 2008 as t1 GROUP BY t1.rider	2-17564943-2
what are the rider and time of 2008 with 10 or more time ?	SELECT t1.rider , t1.time from 2008 as t1 GROUP BY t1.time HAVING COUNT ( * ) >= 10	2-17564943-2
what is the rider and rider of the 2008 with maximum laps ?	SELECT t1.rider , t1.rider from 2008 as t1 WHERE t1.laps = ( SELECT MAX ( t1.laps ) {FROM, 3} )	2-17564943-2
what are the rider of all 2008 that have 10 or more 2008 ?	SELECT t1.rider from 2008 as t1 GROUP BY t1.rider HAVING COUNT ( * ) >= 10	2-17564943-2
what is the minimum grid in each bike ?	SELECT MIN ( t1.grid ) , t1.bike from 2008 as t1 GROUP BY t1.bike	2-17564943-2
what is the bike of the 2008 who has the highest number of 2008 ?	SELECT t1.bike from 2008 as t1 GROUP BY t1.bike ORDER BY COUNT ( * ) DESC LIMIT 1	2-17564943-2
what are the distinct time with laps between 10 and 48 ?	SELECT DISTINCT t1.time from 2008 as t1 WHERE t1.laps BETWEEN 10 AND 48	2-17564943-2
what are the bike more than 10 2008 have ?	SELECT t1.bike from 2008 as t1 GROUP BY t1.bike HAVING COUNT ( * ) > 10	2-17564943-2
what are the distinct rider with laps between 10 and 22 ?	SELECT DISTINCT t1.rider from 2008 as t1 WHERE t1.laps BETWEEN 10 AND 22	2-17564943-2
what is the count of 2008 with more than 10 time ?	SELECT COUNT ( * ) from 2008 as t1 GROUP BY t1.time HAVING COUNT ( * ) > 10 	2-17564943-2
