what is the country and to par of the 1991 with the top 5 smallest money ( $ ) ?	SELECT t1.country , t1.to_par from 1991 as t1 ORDER BY t1.money_ LIMIT 5	2-18130923-3
what are the country and place of each 1991 ?	SELECT t1.country , t1.place from 1991 as t1	2-18130923-3
Return all columns in 1991 .	SELECT * FROM 1991	2-18130923-3
what are the country and place of 1991 with 10 or more country ?	SELECT t1.country , t1.place from 1991 as t1 GROUP BY t1.country HAVING COUNT ( * ) >= 10	2-18130923-3
find the to par of the 1991 with the highest money ( $ ) .	SELECT t1.to_par from 1991 as t1 ORDER BY t1.money_ DESC LIMIT 1	2-18130923-3
list the score which average money ( $ ) is above 10 .	SELECT t1.score from 1991 as t1 GROUP BY t1.score HAVING AVG ( t1.money_ ) >= 10	2-18130923-3
show the player and the number of 1991 for each player in the ascending order.	SELECT t1.player , COUNT ( * ) from 1991 as t1 GROUP BY t1.player ORDER BY COUNT ( * )	2-18130923-3
what is the country and to par of the 1991 with the top 5 smallest money ( $ ) ?	SELECT t1.country , t1.to_par from 1991 as t1 ORDER BY t1.money_ LIMIT 5	2-18130923-3
find the distinct to par of 1991 having money ( $ ) between 10 and 78 .	SELECT DISTINCT t1.to_par from 1991 as t1 WHERE t1.money_ BETWEEN 10 AND 78	2-18130923-3
find the score and place of the 1991 with at least 10 to par .	SELECT t1.score , t1.place from 1991 as t1 GROUP BY t1.to_par HAVING COUNT ( * ) >= 10	2-18130923-3
