what is the place and place of every 1984 that has a money ( $ ) lower than average ?	SELECT t1.place , t1.place from 1984 as t1 WHERE t1.money_ < ( SELECT AVG ( t1.money_ ) {FROM, 3} )	2-18155811-3
how many 1984 are there that have more than {VALUE},0 score ?	SELECT COUNT ( * ) from 1984 as t1 GROUP BY t1.score HAVING COUNT ( * ) > 10 	2-18155811-3
list the to par which average money ( $ ) is above 10 .	SELECT t1.to_par from 1984 as t1 GROUP BY t1.to_par HAVING AVG ( t1.money_ ) >= 10	2-18155811-3
please show the different country , ordered by the number of 1984 that have each .	SELECT t1.country from 1984 as t1 GROUP BY t1.country ORDER BY COUNT ( * ) ASC LIMIT 1	2-18155811-3
list player and place who have money ( $ ) greater than 5 or money ( $ ) shorter than 10 .	SELECT t1.player , t1.place from 1984 as t1 WHERE t1.money_ > 5 OR t1.money_ < 10	2-18155811-3
what is the place and score of the 1984 with maximum money ( $ ) ?	SELECT t1.place , t1.score from 1984 as t1 WHERE t1.money_ = ( SELECT MAX ( t1.money_ ) {FROM, 3} )	2-18155811-3
list the player which average money ( $ ) is above 10 .	SELECT t1.player from 1984 as t1 GROUP BY t1.player HAVING AVG ( t1.money_ ) >= 10	2-18155811-3
count the number of 1984 in place 10 or 84 .	SELECT COUNT ( * ) from 1984 as t1 WHERE t1.place = 10 OR t1.place = 84	2-18155811-3
please show the place of the 1984 with count more than 10 .	SELECT t1.place from 1984 as t1 GROUP BY t1.place HAVING COUNT ( * ) > 10	2-18155811-3
find the score for all 1984 who have more than the average money ( $ ) .	SELECT t1.score from 1984 as t1 WHERE t1.money_ > ( SELECT AVG ( t1.money_ ) from 1984 as t1	2-18155811-3
