which year ( s ) won has the least to par ?	SELECT t1.year_ from 1999 as t1 ORDER BY t1.to_par ASC LIMIT 1	2-18044375-3
what are the player and country of the {COLUMN} who have to par above five or total below ten ?	SELECT t1.player , t1.country from 1999 as t1 WHERE t1.to_par > 5 OR t1.total < 10	2-18044375-3
how many 1999 correspond to each country? show the result in ascending order.	SELECT t1.country , COUNT ( * ) from 1999 as t1 GROUP BY t1.country ORDER BY COUNT ( * )	2-18044375-3
which player has both 1999 with less than 10 to par and 1999 with more than 21 to par ?	SELECT t1.player from 1999 as t1 WHERE t1.to_par < 10 INTERSECT SELECT t1.player from 1999 as t1 WHERE t1.to_par > 21	2-18044375-3
list the player of {1999 which has number of 1999 greater than 10 .	SELECT t1.player from 1999 as t1 GROUP BY t1.player HAVING COUNT ( * ) > 10	2-18044375-3
find the player of 1999 which have 10 but no 18 as country .	SELECT t1.player from 1999 as t1 WHERE t1.country = 10 EXCEPT SELECT t1.player from 1999 as t1 WHERE t1.country = 18	2-18044375-3
Show everything on 1999	SELECT * FROM 1999	2-18044375-3
what are the year ( s ) won of 1999 whose year ( s ) won are not 10 ?	SELECT t1.year_ from 1999 as t1 WHERE t1.year_ ! = 10	2-18044375-3
what is the maximum and mininum to par {COLUMN} for all 1999 ?	SELECT MAX ( t1.to_par ) , MIN ( t1.to_par ) from 1999 as t1	2-18044375-3
show all year ( s ) won and corresponding number of 1999 sorted by the count .	SELECT t1.year_ , COUNT ( * ) from 1999 as t1 GROUP BY t1.year_ ORDER BY COUNT ( * )	2-18044375-3
