how many team did each 2008 do, ordered by number of team ?	SELECT t1.team , COUNT ( * ) from 2008 as t1 GROUP BY t1.team ORDER BY COUNT ( * )	2-18183510-18
find the team of 2008 which have 10 but no 31 as team .	SELECT t1.team from 2008 as t1 WHERE t1.team = 10 EXCEPT SELECT t1.team from 2008 as t1 WHERE t1.team = 31	2-18183510-18
show team for all 2008 whose p ap 2008 are greater than the average .	SELECT t1.team from 2008 as t1 WHERE t1.p_ap_2008 > ( SELECT AVG ( t1.p_ap_2008 ) from 2008 as t1	2-18183510-18
return each team with the number of 2008 in ascending order of the number of team .	SELECT t1.team , COUNT ( * ) from 2008 as t1 GROUP BY t1.team ORDER BY COUNT ( * )	2-18183510-18
count the number of 2008 that have an team containing 10 .	SELECT COUNT ( * ) from 2008 as t1 WHERE t1.team LIKE 10	2-18183510-18
what is all the information on the 2008 with the largest number of team ?	SELECT * from 2008 as t1 ORDER BY t1.team DESC LIMIT 1	2-18183510-18
which team have less than 3 in 2008 ?	SELECT t1.team from 2008 as t1 GROUP BY t1.team HAVING COUNT ( * ) < 3	2-18183510-18
what are the team with exactly 10 2008 ?	SELECT t1.team from 2008 as t1 GROUP BY t1.team HAVING COUNT ( * ) = 10	2-18183510-18
return the team of the largest p 2007.	SELECT t1.team from 2008 as t1 ORDER BY t1.p_2007 DESC LIMIT 1	2-18183510-18
what is the team of the 2008 with the largest p 2007 ?	SELECT t1.team from 2008 as t1 WHERE t1.p_2007 = ( SELECT MAX ( t1.p_2007 ) from 2008 as t1 )	2-18183510-18
