find the venue and venue of the 2006 whose round is lower than the average round of all 2006 .	SELECT t1.venue , t1.venue from 2006 as t1 WHERE t1.round < ( SELECT AVG ( t1.round ) {FROM, 3} )	2-18838673-1
find the opponent who has exactly 10 2006 .	SELECT t1.opponent from 2006 as t1 GROUP BY t1.opponent HAVING COUNT ( * ) = 10	2-18838673-1
list venue of 2006 that have the number of 2006 greater than 10 .	SELECT t1.venue from 2006 as t1 GROUP BY t1.venue HAVING COUNT ( * ) > 10	2-18838673-1
find the venue of 2006 which are in 10 opponent but not in 38 opponent .	SELECT t1.venue from 2006 as t1 WHERE t1.opponent = 10 EXCEPT SELECT t1.venue from 2006 as t1 WHERE t1.opponent = 38	2-18838673-1
what is the venue and opponent for the 2006 with the rank 5 smallest opp . ?	SELECT t1.venue , t1.opponent from 2006 as t1 ORDER BY t1.opp_ LIMIT 5	2-18838673-1
which opponent have an average round over 10 ?	SELECT t1.opponent from 2006 as t1 GROUP BY t1.opponent HAVING AVG ( t1.round ) >= 10	2-18838673-1
list result and result who have round greater than 5 or round shorter than 10 .	SELECT t1.result , t1.result from 2006 as t1 WHERE t1.round > 5 OR t1.round < 10	2-18838673-1
what is the opponent of the most common 2006 in all opponent ?	SELECT t1.opponent from 2006 as t1 GROUP BY t1.opponent ORDER BY COUNT ( * ) DESC LIMIT 1	2-18838673-1
what are the opponent with exactly 10 2006 ?	SELECT t1.opponent from 2006 as t1 GROUP BY t1.opponent HAVING COUNT ( * ) = 10	2-18838673-1
which opponent has the least opp . ?	SELECT t1.opponent from 2006 as t1 ORDER BY t1.opp_ ASC LIMIT 1	2-18838673-1
