list team and team who have scored greater than 5 or scored shorter than 10 .	SELECT t1.team , t1.team from 1999 as t1 WHERE t1.scored > 5 OR t1.scored < 10	2-18597302-1
return the smallest scored for every team .	SELECT MIN ( t1.scored ) , t1.team from 1999 as t1 GROUP BY t1.team	2-18597302-1
return the team of the 1999 with the fewest losses .	SELECT t1.team from 1999 as t1 ORDER BY t1.losses ASC LIMIT 1	2-18597302-1
what are the team and team ?	SELECT t1.team , t1.team from 1999 as t1	2-18597302-1
what is all the information on the 1999 with the largest number of team ?	SELECT * from 1999 as t1 ORDER BY t1.team DESC LIMIT 1	2-18597302-1
how many 1999 are there for each team ? list the smallest count first .	SELECT t1.team , COUNT ( * ) from 1999 as t1 GROUP BY t1.team ORDER BY COUNT ( * )	2-18597302-1
give the t1.team with the fewest 1999 .	SELECT t1.team from 1999 as t1 GROUP BY t1.team ORDER BY COUNT ( * ) LIMIT 1	2-18597302-1
how many 1999 are there for each team ? list the smallest count first .	SELECT t1.team , COUNT ( * ) from 1999 as t1 GROUP BY t1.team ORDER BY COUNT ( * )	2-18597302-1
find the team and team of the 1999 with at least 10 team .	SELECT t1.team , t1.team from 1999 as t1 GROUP BY t1.team HAVING COUNT ( * ) >= 10	2-18597302-1
what is the team of 1999 with the maximum wins across all 1999 ?	SELECT t1.team from 1999 as t1 WHERE t1.wins = ( SELECT MAX ( t1.wins ) from 1999 as t1 )	2-18597302-1
