find the position and college of the 1965 with at least 10 position .	SELECT t1.position , t1.college from 1965 as t1 GROUP BY t1.position HAVING COUNT ( * ) >= 10	2-18652198-12
which player have less than 3 in 1965 ?	SELECT t1.player from 1965 as t1 GROUP BY t1.player HAVING COUNT ( * ) < 3	2-18652198-12
list the position which average pick is above 10 .	SELECT t1.position from 1965 as t1 GROUP BY t1.position HAVING AVG ( t1.pick ) >= 10	2-18652198-12
count the number of 1965 in player 10 or 5 .	SELECT COUNT ( * ) from 1965 as t1 WHERE t1.player = 10 OR t1.player = 5	2-18652198-12
find the position of 1965 which are team 10 but not team 9 .	SELECT t1.position from 1965 as t1 WHERE t1.team = 10 EXCEPT SELECT t1.position from 1965 as t1 WHERE t1.team = 9	2-18652198-12
please show the position of the 1965 with count more than 10 .	SELECT t1.position from 1965 as t1 GROUP BY t1.position HAVING COUNT ( * ) > 10	2-18652198-12
how many 1965 are there in team 10 or 76 ?	SELECT COUNT ( * ) from 1965 as t1 WHERE t1.team = 10 OR t1.team = 76	2-18652198-12
find the player of the 1965 that is most frequent across all player .	SELECT t1.player from 1965 as t1 GROUP BY t1.player ORDER BY COUNT ( * ) DESC LIMIT 1	2-18652198-12
what is all the information on the 1965 with the largest number of team ?	SELECT * from 1965 as t1 ORDER BY t1.team DESC LIMIT 1	2-18652198-12
how many 1965 have player that contain the word 10 ?	SELECT COUNT ( * ) from 1965 as t1 WHERE t1.player LIKE 10	2-18652198-12
