give the speed that has the most 2008 .	SELECT t1.speed from 2008 as t1 GROUP BY t1.speed ORDER BY COUNT ( * ) DESC LIMIT 1	2-18649514-3
find the speed of 2008 who have rank of both 10 and 48 .	SELECT t1.speed from 2008 as t1 WHERE t1.rank = 10 INTERSECT SELECT t1.speed from 2008 as t1 WHERE t1.rank = 48	2-18649514-3
find the distinct COLUMN_NAME,0} of all 2008 that have rank higher than some 2008 from 10 {COLUMN_NAME_2} .	SELECT DISTINCT t1.time from 2008 as t1 WHERE t1.rank > ( SELECT MIN ( t1.time ) from 2008 as t1 WHERE t1.team = 10 )	2-18649514-3
what are the rider that have greater rank than any rank in 2008 ?	SELECT t1.rider from 2008 as t1 WHERE t1.rank > ( SELECT MIN ( t1.rank ) from 2008 as t1 )	2-18649514-3
find the team of 2008 which are in 10 speed but not in 86 speed .	SELECT t1.team from 2008 as t1 WHERE t1.speed = 10 EXCEPT SELECT t1.team from 2008 as t1 WHERE t1.speed = 86	2-18649514-3
find the team of 2008 who have more than 10 2008 .	SELECT t1.team from 2008 as t1 GROUP BY t1.team HAVING COUNT ( * ) > 10	2-18649514-3
show all rider and corresponding number of 2008 in the ascending order of the numbers.	SELECT t1.rider , COUNT ( * ) from 2008 as t1 GROUP BY t1.rider ORDER BY COUNT ( * )	2-18649514-3
what are the rider , rider , and speed of each 2008 ?	SELECT t1.rider , t1.rider , t1.speed from 2008 as t1	2-18649514-3
what is the time of the 2008 with the minimum rank ?	SELECT t1.time from 2008 as t1 ORDER BY t1.rank ASC LIMIT 1	2-18649514-3
return the speed of the 2008 that has the fewest corresponding speed .	SELECT t1.speed from 2008 as t1 GROUP BY t1.speed ORDER BY COUNT ( * ) ASC LIMIT 1	2-18649514-3
