find the number of 1965 that have more than 10 player .	SELECT COUNT ( * ) from 1965 as t1 GROUP BY t1.player HAVING COUNT ( * ) > 10 	2-18652198-4
show player for all 1965 whose pick are greater than the average .	SELECT t1.player from 1965 as t1 WHERE t1.pick > ( SELECT AVG ( t1.pick ) from 1965 as t1	2-18652198-4
show all information on the 1965 that has the largest number of player.	SELECT * from 1965 as t1 ORDER BY t1.player DESC LIMIT 1	2-18652198-4
which player is the most frequent player?	SELECT t1.player from 1965 as t1 GROUP BY t1.player ORDER BY COUNT ( * ) DESC LIMIT 1	2-18652198-4
which position have greater pick than that of any pick in 1965 ?	SELECT t1.position from 1965 as t1 WHERE t1.pick > ( SELECT MIN ( t1.pick ) from 1965 as t1 )	2-18652198-4
list team of 1965 that have the number of 1965 greater than 10 .	SELECT t1.team from 1965 as t1 GROUP BY t1.team HAVING COUNT ( * ) > 10	2-18652198-4
return each position with the number of 1965 in ascending order of the number of position .	SELECT t1.position , COUNT ( * ) from 1965 as t1 GROUP BY t1.position ORDER BY COUNT ( * )	2-18652198-4
Return all columns in 1965 .	SELECT * FROM 1965	2-18652198-4
find the player and college of the 1965 with at least 10 position .	SELECT t1.player , t1.college from 1965 as t1 GROUP BY t1.position HAVING COUNT ( * ) >= 10	2-18652198-4
Return all columns in 1965 .	SELECT * FROM 1965	2-18652198-4
