list the country of origin * of {2008 which has number of 2008 greater than 10 .	SELECT t1.country_of_origin_* from 2008 as t1 GROUP BY t1.country_of_origin_* HAVING COUNT ( * ) > 10	2-18991234-3
what are the {country of origin * of all the 2008 , and the total pick by each ?	SELECT t1.country_of_origin_* , SUM ( t1.pick ) from 2008 as t1 GROUP BY t1.country_of_origin_*	2-18991234-3
what are the {country of origin * of all the 2008 , and the total pick by each ?	SELECT t1.country_of_origin_* , SUM ( t1.pick ) from 2008 as t1 GROUP BY t1.country_of_origin_*	2-18991234-3
give the college that has the most 2008 .	SELECT t1.college from 2008 as t1 GROUP BY t1.college ORDER BY COUNT ( * ) DESC LIMIT 1	2-18991234-3
find the college of 2008 which have both 10 and 1 as college .	SELECT t1.college from 2008 as t1 WHERE t1.pick = 10 INTERSECT SELECT t1.college from 2008 as t1 WHERE t1.pick = 1	2-18991234-3
find the pba team of the 2008 that have just 10 2008 .	SELECT t1.pba_team from 2008 as t1 GROUP BY t1.pba_team HAVING COUNT ( * ) = 10	2-18991234-3
what is the t1.player of 2008 that has fewest number of 2008 ?	SELECT t1.player from 2008 as t1 GROUP BY t1.player ORDER BY COUNT ( * ) LIMIT 1	2-18991234-3
what are the pba team and college of each 2008 ?	SELECT t1.pba_team , t1.college from 2008 as t1	2-18991234-3
show the country of origin * of the 2008 that has the most 2008 .	SELECT t1.country_of_origin_* from 2008 as t1 GROUP BY t1.country_of_origin_* ORDER BY COUNT ( * ) DESC LIMIT 1	2-18991234-3
what are the country of origin * of all 2008 with college that is 10 ?	SELECT t1.country_of_origin_* from 2008 as t1 GROUP BY t1.college HAVING COUNT ( * ) = 10	2-18991234-3
