what are the to par and to par of each 1981 , listed in descending order by money ( $ ) ?	SELECT t1.to_par , t1.to_par from 1981 as t1 ORDER BY t1.money_ DESC	2-18168735-3
show the score and their total money ( $ ) of 1981 .	SELECT t1.score , SUM ( t1.money_ ) from 1981 as t1 GROUP BY t1.score	2-18168735-3
show the country and the corresponding number of 1981 sorted by the number of country in ascending order .	SELECT t1.country , COUNT ( * ) from 1981 as t1 GROUP BY t1.country ORDER BY COUNT ( * )	2-18168735-3
show place and place of 1981 .	SELECT t1.place , t1.place from 1981 as t1	2-18168735-3
find the number of 1981 whose to par contain the word 10 .	SELECT COUNT ( * ) from 1981 as t1 WHERE t1.to_par LIKE 10	2-18168735-3
what is the maximum and mininum money ( $ ) {COLUMN} for all 1981 ?	SELECT MAX ( t1.money_ ) , MIN ( t1.money_ ) from 1981 as t1	2-18168735-3
show player and the number of distinct place in each player .	SELECT t1.player , COUNT ( DISTINCT t1.place ) from 1981 as t1 GROUP BY t1.player	2-18168735-3
show all information on the 1981 that has the largest number of score.	SELECT * from 1981 as t1 ORDER BY t1.score DESC LIMIT 1	2-18168735-3
what is the t1.place of 1981 that has fewest number of 1981 ?	SELECT t1.place from 1981 as t1 GROUP BY t1.place ORDER BY COUNT ( * ) LIMIT 1	2-18168735-3
what is the to par and place of the 1981 with maximum money ( $ ) ?	SELECT t1.to_par , t1.place from 1981 as t1 WHERE t1.money_ = ( SELECT MAX ( t1.money_ ) {FROM, 3} )	2-18168735-3
