show the date of the 1975 that has the most 1975 .	SELECT t1.date from 1975 as t1 GROUP BY t1.date ORDER BY COUNT ( * ) DESC LIMIT 1	2-18908447-2
what are the result for 1975 who have more than the average week?	SELECT t1.result from 1975 as t1 WHERE t1.week > ( SELECT AVG ( t1.week ) from 1975 as t1	2-18908447-2
return the maximum and minimum week across all 1975 .	SELECT MAX ( t1.week ) , MIN ( t1.week ) from 1975 as t1	2-18908447-2
what is the t1.result of 1975 that has fewest number of 1975 ?	SELECT t1.result from 1975 as t1 GROUP BY t1.result ORDER BY COUNT ( * ) LIMIT 1	2-18908447-2
find the opponent of the 1975 which have result 10 but not 53 .	SELECT t1.opponent from 1975 as t1 WHERE t1.result = 10 EXCEPT SELECT t1.opponent from 1975 as t1 WHERE t1.result = 53	2-18908447-2
what are the average week of 1975 for different date ?	SELECT AVG ( t1.week ) , t1.date from 1975 as t1 GROUP BY t1.date	2-18908447-2
what are the result for all 1975 , and what is the total {week for each ?	SELECT t1.result , SUM ( t1.week ) from 1975 as t1 GROUP BY t1.result	2-18908447-2
count the number of 1975 in opponent 10 or 89 .	SELECT COUNT ( * ) from 1975 as t1 WHERE t1.opponent = 10 OR t1.opponent = 89	2-18908447-2
what are the distinct COLUMN_NAME,0} of every 1975 that has a greater attendance than some 1975 with 10 {COLUMN_NAME_2} ?	SELECT DISTINCT t1.opponent from 1975 as t1 WHERE t1.attendance > ( SELECT MIN ( t1.opponent ) from 1975 as t1 WHERE t1.opponent = 10 )	2-18908447-2
what is the date of the 1975 with the largest attendance ?	SELECT t1.date from 1975 as t1 WHERE t1.attendance = ( SELECT MAX ( t1.attendance ) from 1975 as t1 )	2-18908447-2
