what is the channel of the most common 2002 in all channel ?	SELECT t1.channel from 2002 as t1 GROUP BY t1.channel ORDER BY COUNT ( * ) DESC LIMIT 1	2-18988532-2
return the different stadium of 2002 , in ascending order of frequency .	SELECT t1.stadium from 2002 as t1 GROUP BY t1.stadium ORDER BY COUNT ( * ) ASC LIMIT 1	2-18988532-2
find the distinct result of 2002 having week between 10 and 22 .	SELECT DISTINCT t1.result from 2002 as t1 WHERE t1.week BETWEEN 10 AND 22	2-18988532-2
find the stadium of 2002 whose week is more than the average week of 2002 .	SELECT t1.stadium from 2002 as t1 WHERE t1.week > ( SELECT AVG ( t1.week ) from 2002 as t1	2-18988532-2
return the channel and attendance of 2002 with the five lowest week .	SELECT t1.channel , t1.attendance from 2002 as t1 ORDER BY t1.week LIMIT 5	2-18988532-2
list the result of {2002 which has number of 2002 greater than 10 .	SELECT t1.result from 2002 as t1 GROUP BY t1.result HAVING COUNT ( * ) > 10	2-18988532-2
show the attendance , attendance , and opponent of all the 2002 .	SELECT t1.attendance , t1.attendance , t1.opponent from 2002 as t1	2-18988532-2
please show the opponent of the 2002 that have at least 10 records .	SELECT t1.opponent from 2002 as t1 GROUP BY t1.opponent HAVING COUNT ( * ) >= 10	2-18988532-2
find the stadium of 2002 who have week of both 10 and 86 .	SELECT t1.stadium from 2002 as t1 WHERE t1.week = 10 INTERSECT SELECT t1.stadium from 2002 as t1 WHERE t1.week = 86	2-18988532-2
how many 2002 have attendance that contain the word 10 ?	SELECT COUNT ( * ) from 2002 as t1 WHERE t1.attendance LIKE 10	2-18988532-2
