what are the name and nationality of the {COLUMN} who have result above five or result below ten ?	SELECT t1.name , t1.nationality from athletics as t1 WHERE t1.result > 5 OR t1.result < 10	2-18569185-4
which name have an average result over 10 ?	SELECT t1.name from athletics as t1 GROUP BY t1.name HAVING AVG ( t1.result ) >= 10	2-18569185-4
what are the 4.45 of all athletics with 4.55 that is 10 ?	SELECT t1.4.45 from athletics as t1 GROUP BY t1.4.55 HAVING COUNT ( * ) = 10	2-18569185-4
what is the 4.45 and name of the athletics with maximum result ?	SELECT t1.4.45 , t1.name from athletics as t1 WHERE t1.result = ( SELECT MAX ( t1.result ) {FROM, 3} )	2-18569185-4
what are the 4.30 of all athletics that have 10 or more athletics ?	SELECT t1.4.30 from athletics as t1 GROUP BY t1.4.30 HAVING COUNT ( * ) >= 10	2-18569185-4
what are the 4.30 of all athletics with name that is 10 ?	SELECT t1.4.30 from athletics as t1 GROUP BY t1.name HAVING COUNT ( * ) = 10	2-18569185-4
how many athletics are there in 4.30 10 or 74 ?	SELECT COUNT ( * ) from athletics as t1 WHERE t1.4.30 = 10 OR t1.4.30 = 74	2-18569185-4
what are the distinct COLUMN_NAME,0} of athletics with result higher than any athletics from 10 {COLUMN_NAME_2} .	SELECT DISTINCT t1.4.55 from athletics as t1 WHERE t1.result > ( SELECT MIN ( t1.4.55 ) from athletics as t1 WHERE t1.4.45 = 10 )	2-18569185-4
what are the distinct 4.30 with result between 10 and 8 ?	SELECT DISTINCT t1.4.30 from athletics as t1 WHERE t1.result BETWEEN 10 AND 8	2-18569185-4
return the smallest result for every 4.55 .	SELECT MIN ( t1.result ) , t1.4.55 from athletics as t1 GROUP BY t1.4.55	2-18569185-4
