what are the average 180s of 2009 for different name ?	SELECT AVG ( t1.180s ) , t1.name from 2009 as t1 GROUP BY t1.name	2-18968744-17
find all name that have fewer than three in 2009 .	SELECT t1.name from 2009 as t1 GROUP BY t1.name HAVING COUNT ( * ) < 3	2-18968744-17
list the name which average lwat is above 10 .	SELECT t1.name from 2009 as t1 GROUP BY t1.name HAVING AVG ( t1.lwat ) >= 10	2-18968744-17
find the name of 2009 who have 140 + of both 10 and 20 .	SELECT t1.name from 2009 as t1 WHERE t1.140_+ = 10 INTERSECT SELECT t1.name from 2009 as t1 WHERE t1.140_+ = 20	2-18968744-17
list name of 2009 that have the number of 2009 greater than 10 .	SELECT t1.name from 2009 as t1 GROUP BY t1.name HAVING COUNT ( * ) > 10	2-18968744-17
find the name who has exactly 10 2009 .	SELECT t1.name from 2009 as t1 GROUP BY t1.name HAVING COUNT ( * ) = 10	2-18968744-17
which name has both 2009 with less than 10 140 + and 2009 with more than 101 140 + ?	SELECT t1.name from 2009 as t1 WHERE t1.140_+ < 10 INTERSECT SELECT t1.name from 2009 as t1 WHERE t1.140_+ > 101	2-18968744-17
which name has most number of 2009 ?	SELECT t1.name from 2009 as t1 GROUP BY t1.name ORDER BY COUNT ( * ) DESC LIMIT 1	2-18968744-17
which name have greater 180s than that of any 180s in 2009 ?	SELECT t1.name from 2009 as t1 WHERE t1.180s > ( SELECT MIN ( t1.180s ) from 2009 as t1 )	2-18968744-17
find the name of the 2009 with the largest 140 + .	SELECT t1.name from 2009 as t1 ORDER BY t1.140_+ DESC LIMIT 1	2-18968744-17
