what is the t1.player of 2005 that has fewest number of 2005 ?	SELECT t1.player from 2005 as t1 GROUP BY t1.player ORDER BY COUNT ( * ) LIMIT 1	2-18695319-1
find the position which have exactly 10 2005 .	SELECT t1.position from 2005 as t1 GROUP BY t1.position HAVING COUNT ( * ) = 10	2-18695319-1
find the position of 2005 which are position 10 but not position 41 .	SELECT t1.position from 2005 as t1 WHERE t1.position = 10 EXCEPT SELECT t1.position from 2005 as t1 WHERE t1.position = 41	2-18695319-1
what are the player for 2005 that have an pick # greater than the average .	SELECT t1.player from 2005 as t1 WHERE t1.pick_ > ( SELECT AVG ( t1.pick_ ) from 2005 as t1	2-18695319-1
which college have an average round over 10 ?	SELECT t1.college from 2005 as t1 GROUP BY t1.college HAVING AVG ( t1.round ) >= 10	2-18695319-1
give the maximum and minimum pick # of all 2005 .	SELECT MAX ( t1.pick_ ) , MIN ( t1.pick_ ) from 2005 as t1	2-18695319-1
return the position of 2005 that do not have the player 10 .	SELECT t1.position from 2005 as t1 WHERE t1.player ! = 10	2-18695319-1
show the player and player with at least 10 position .	SELECT t1.player , t1.player from 2005 as t1 GROUP BY t1.position HAVING COUNT ( * ) >= 10	2-18695319-1
what is the minimum pick # in each college ?	SELECT MIN ( t1.pick_ ) , t1.college from 2005 as t1 GROUP BY t1.college	2-18695319-1
how many 2005 have player that contains 10 ?	SELECT COUNT ( * ) from 2005 as t1 WHERE t1.player LIKE 10	2-18695319-1
