what is the rank and rank for the 1954 with the rank 5 smallest bronze ?	SELECT t1.rank , t1.rank from 1954 as t1 ORDER BY t1.bronze LIMIT 5	2-18527162-4
find the rank who has exactly 10 1954 .	SELECT t1.rank from 1954 as t1 GROUP BY t1.rank HAVING COUNT ( * ) = 10	2-18527162-4
what are the rank for 1954 who have more than the average total?	SELECT t1.rank from 1954 as t1 WHERE t1.total > ( SELECT AVG ( t1.total ) from 1954 as t1	2-18527162-4
give the nation that has the most 1954 .	SELECT t1.nation from 1954 as t1 GROUP BY t1.nation ORDER BY COUNT ( * ) DESC LIMIT 1	2-18527162-4
what are the nation that have greater gold than any gold in 1954 ?	SELECT t1.nation from 1954 as t1 WHERE t1.gold > ( SELECT MIN ( t1.gold ) from 1954 as t1 )	2-18527162-4
which rank have an average silver over 10 ?	SELECT t1.rank from 1954 as t1 GROUP BY t1.rank HAVING AVG ( t1.silver ) >= 10	2-18527162-4
display the rank , rank , and nation for each 1954 .	SELECT t1.rank , t1.rank , t1.nation from 1954 as t1	2-18527162-4
find the distinct nation of 1954 having total between 10 and 21 .	SELECT DISTINCT t1.nation from 1954 as t1 WHERE t1.total BETWEEN 10 AND 21	2-18527162-4
what is the minimum total in each nation ?	SELECT MIN ( t1.total ) , t1.nation from 1954 as t1 GROUP BY t1.nation	2-18527162-4
show the rank and the number of unique rank containing each rank .	SELECT t1.rank , COUNT ( DISTINCT t1.rank ) from 1954 as t1 GROUP BY t1.rank	2-18527162-4
