please show the country of the 2007 that have at least 10 records .	SELECT t1.country from 2007 as t1 GROUP BY t1.country HAVING COUNT ( * ) >= 10	2-18369370-4
which player has both 2007 with less than 10 money ( $ ) and 2007 with more than 101 money ( $ ) ?	SELECT t1.player from 2007 as t1 WHERE t1.money_ < 10 INTERSECT SELECT t1.player from 2007 as t1 WHERE t1.money_ > 101	2-18369370-4
find the distinct country of 2007 having money ( $ ) between 10 and 37 .	SELECT DISTINCT t1.country from 2007 as t1 WHERE t1.money_ BETWEEN 10 AND 37	2-18369370-4
list all information about 2007 .	SELECT * FROM 2007	2-18369370-4
what are the player of all 2007 with country that is 10 ?	SELECT t1.player from 2007 as t1 GROUP BY t1.country HAVING COUNT ( * ) = 10	2-18369370-4
show the player and the number of unique country containing each player .	SELECT t1.player , COUNT ( DISTINCT t1.country ) from 2007 as t1 GROUP BY t1.player	2-18369370-4
which t1.to_par has the fewest 2007 ?	SELECT t1.to_par from 2007 as t1 GROUP BY t1.to_par ORDER BY COUNT ( * ) LIMIT 1	2-18369370-4
what are the player and player of 2007 with 10 or more country ?	SELECT t1.player , t1.player from 2007 as t1 GROUP BY t1.country HAVING COUNT ( * ) >= 10	2-18369370-4
list all information about 2007 .	SELECT * FROM 2007	2-18369370-4
how many 2007 are there in player 10 or 88 ?	SELECT COUNT ( * ) from 2007 as t1 WHERE t1.player = 10 OR t1.player = 88	2-18369370-4
