find the player of 2008 which are player 10 but not player 52 .	SELECT t1.player from 2008 as t1 WHERE t1.player = 10 EXCEPT SELECT t1.player from 2008 as t1 WHERE t1.player = 52	2-18317531-1
which player has both 2008 with less than 10 180s and 2008 with more than 27 180s ?	SELECT t1.player from 2008 as t1 WHERE t1.180s < 10 INTERSECT SELECT t1.player from 2008 as t1 WHERE t1.180s > 27	2-18317531-1
show the player and the number of 2008 for each player in the ascending order.	SELECT t1.player , COUNT ( * ) from 2008 as t1 GROUP BY t1.player ORDER BY COUNT ( * )	2-18317531-1
which player is the most frequent player?	SELECT t1.player from 2008 as t1 GROUP BY t1.player ORDER BY COUNT ( * ) DESC LIMIT 1	2-18317531-1
find the number of 2008 that have more than 10 player .	SELECT COUNT ( * ) from 2008 as t1 GROUP BY t1.player HAVING COUNT ( * ) > 10 	2-18317531-1
what is the minimum high checkout in each player ?	SELECT MIN ( t1.high_checkout ) , t1.player from 2008 as t1 GROUP BY t1.player	2-18317531-1
find the player of the 2008 with the largest 100 + .	SELECT t1.player from 2008 as t1 ORDER BY t1.100_+ DESC LIMIT 1	2-18317531-1
what are the player of all 2008 that have 10 or more 2008 ?	SELECT t1.player from 2008 as t1 GROUP BY t1.player HAVING COUNT ( * ) >= 10	2-18317531-1
return the player of the largest legs lost.	SELECT t1.player from 2008 as t1 ORDER BY t1.legs_lost DESC LIMIT 1	2-18317531-1
Return all columns in 2008 .	SELECT * FROM 2008	2-18317531-1
