find the rider that have 10 2008 .	SELECT t1.rider from 2008 as t1 GROUP BY t1.rider HAVING COUNT ( * ) = 10	2-18145978-2
show the bike shared by more than 10 2008 .	SELECT t1.bike from 2008 as t1 GROUP BY t1.bike HAVING COUNT ( * ) > 10	2-18145978-2
which time is the most frequent time?	SELECT t1.time from 2008 as t1 GROUP BY t1.time ORDER BY COUNT ( * ) DESC LIMIT 1	2-18145978-2
what are the bike with exactly 10 2008 ?	SELECT t1.bike from 2008 as t1 GROUP BY t1.bike HAVING COUNT ( * ) = 10	2-18145978-2
list the time , bike and the bike of the 2008 .	SELECT t1.time , t1.bike , t1.bike from 2008 as t1	2-18145978-2
find the time and bike of the 2008 with at least 10 time .	SELECT t1.time , t1.bike from 2008 as t1 GROUP BY t1.time HAVING COUNT ( * ) >= 10	2-18145978-2
find the bike for all 2008 who have more than the average laps .	SELECT t1.bike from 2008 as t1 WHERE t1.laps > ( SELECT AVG ( t1.laps ) from 2008 as t1	2-18145978-2
show the bike and their total grid of 2008 .	SELECT t1.bike , SUM ( t1.grid ) from 2008 as t1 GROUP BY t1.bike	2-18145978-2
what are the rider of all 2008 with bike that is 10 ?	SELECT t1.rider from 2008 as t1 GROUP BY t1.bike HAVING COUNT ( * ) = 10	2-18145978-2
what is the count of 2008 with more than 10 time ?	SELECT COUNT ( * ) from 2008 as t1 GROUP BY t1.time HAVING COUNT ( * ) > 10 	2-18145978-2
