what are the distinct to par with total between 10 and 83 ?	SELECT DISTINCT t1.to_par from 1996 as t1 WHERE t1.total BETWEEN 10 AND 83	2-18096431-2
what are the to par and player of the {COLUMN} who have total above five or total below ten ?	SELECT t1.to_par , t1.player from 1996 as t1 WHERE t1.total > 5 OR t1.total < 10	2-18096431-2
what are the distinct finish with total between 10 and 49 ?	SELECT DISTINCT t1.finish from 1996 as t1 WHERE t1.total BETWEEN 10 AND 49	2-18096431-2
what are the year ( s ) won with exactly 10 1996 ?	SELECT t1.year_ from 1996 as t1 GROUP BY t1.year_ HAVING COUNT ( * ) = 10	2-18096431-2
list country and year ( s ) won who have total greater than 5 or total shorter than 10 .	SELECT t1.country , t1.year_ from 1996 as t1 WHERE t1.total > 5 OR t1.total < 10	2-18096431-2
list the finish of {1996 which has number of 1996 greater than 10 .	SELECT t1.finish from 1996 as t1 GROUP BY t1.finish HAVING COUNT ( * ) > 10	2-18096431-2
what are the year ( s ) won and year ( s ) won of each 1996 ?	SELECT t1.year_ , t1.year_ from 1996 as t1	2-18096431-2
which t1.year_ has the fewest 1996 ?	SELECT t1.year_ from 1996 as t1 GROUP BY t1.year_ ORDER BY COUNT ( * ) LIMIT 1	2-18096431-2
which player has the least total ?	SELECT t1.player from 1996 as t1 ORDER BY t1.total ASC LIMIT 1	2-18096431-2
please show the to par of the 1996 that have at least 10 records .	SELECT t1.to_par from 1996 as t1 GROUP BY t1.to_par HAVING COUNT ( * ) >= 10	2-18096431-2
