find the score of 1947 which have 10 but no 87 as record .	SELECT t1.score from 1947 as t1 WHERE t1.record = 10 EXCEPT SELECT t1.score from 1947 as t1 WHERE t1.record = 87	2-18546846-1
which date have an average week over 10 ?	SELECT t1.date from 1947 as t1 GROUP BY t1.date HAVING AVG ( t1.week ) >= 10	2-18546846-1
which opponent have greater week than that of any week in 1947 ?	SELECT t1.opponent from 1947 as t1 WHERE t1.week > ( SELECT MIN ( t1.week ) from 1947 as t1 )	2-18546846-1
list all information about 1947 .	SELECT * FROM 1947	2-18546846-1
what is the score of the 1947 with least number of score ?	SELECT t1.score from 1947 as t1 GROUP BY t1.score ORDER BY COUNT ( * ) ASC LIMIT 1	2-18546846-1
list the opponent of {1947 which has number of 1947 greater than 10 .	SELECT t1.opponent from 1947 as t1 GROUP BY t1.opponent HAVING COUNT ( * ) > 10	2-18546846-1
find the record who has exactly 10 1947 .	SELECT t1.record from 1947 as t1 GROUP BY t1.record HAVING COUNT ( * ) = 10	2-18546846-1
list the score which average week is above 10 .	SELECT t1.score from 1947 as t1 GROUP BY t1.score HAVING AVG ( t1.week ) >= 10	2-18546846-1
Return all columns in 1947 .	SELECT * FROM 1947	2-18546846-1
what are the record and result of all 1947 sorted by decreasing week ?	SELECT t1.record , t1.result from 1947 as t1 ORDER BY t1.week DESC	2-18546846-1
