find the county of the 1975 that have just 10 1975 .	SELECT t1.county from 1975 as t1 GROUP BY t1.county HAVING COUNT ( * ) = 10	2-18936933-1
what are the maximum and minimum rank across all 1975 ?	SELECT MAX ( t1.rank ) , MIN ( t1.rank ) from 1975 as t1	2-18936933-1
find the county of the 1975 that have just 10 1975 .	SELECT t1.county from 1975 as t1 GROUP BY t1.county HAVING COUNT ( * ) = 10	2-18936933-1
what is the county of all 1975 whose matches is higher than any 1975 ?	SELECT t1.county from 1975 as t1 WHERE t1.matches > ( SELECT MIN ( t1.matches ) from 1975 as t1 )	2-18936933-1
what are the average total of 1975 for different tally ?	SELECT AVG ( t1.total ) , t1.tally from 1975 as t1 GROUP BY t1.tally	2-18936933-1
show the county of the 1975 that has the most 1975 .	SELECT t1.county from 1975 as t1 GROUP BY t1.county ORDER BY COUNT ( * ) DESC LIMIT 1	2-18936933-1
what is the count of 1975 with more than 10 county ?	SELECT COUNT ( * ) from 1975 as t1 GROUP BY t1.county HAVING COUNT ( * ) > 10 	2-18936933-1
what is the county of all 1975 whose matches is higher than any 1975 ?	SELECT t1.county from 1975 as t1 WHERE t1.matches > ( SELECT MIN ( t1.matches ) from 1975 as t1 )	2-18936933-1
please list the county and county of 1975 in descending order of total .	SELECT t1.county , t1.county from 1975 as t1 ORDER BY t1.total DESC	2-18936933-1
how many 1975 are there in player 10 or 6 ?	SELECT COUNT ( * ) from 1975 as t1 WHERE t1.player = 10 OR t1.player = 6	2-18936933-1
