find the opponent of 2009 which have 10 but no 86 as opponent .	SELECT t1.opponent from 2009 as t1 WHERE t1.opponent = 10 EXCEPT SELECT t1.opponent from 2009 as t1 WHERE t1.opponent = 86	2-19008019-32
what are the average ! event of 2009 , grouped by surface ?	SELECT AVG ( t1.! ) , t1.surface from 2009 as t1 GROUP BY t1.surface	2-19008019-32
which result have less than 3 in 2009 ?	SELECT t1.result from 2009 as t1 GROUP BY t1.result HAVING COUNT ( * ) < 3	2-19008019-32
list opponent and result who have ! event greater than 5 or ! event shorter than 10 .	SELECT t1.opponent , t1.result from 2009 as t1 WHERE t1.! > 5 OR t1.! < 10	2-19008019-32
what are the winner , result , and winner of each 2009 ?	SELECT t1.winner , t1.result , t1.surface from 2009 as t1	2-19008019-32
list the winner and round of all 2009 sorted by ! event in descending order .	SELECT t1.winner , t1.round from 2009 as t1 ORDER BY t1.! DESC	2-19008019-32
what are the maximum and minimum ! event across all 2009 ?	SELECT MAX ( t1.! ) , MIN ( t1.! ) from 2009 as t1	2-19008019-32
find the surface that have 10 2009 .	SELECT t1.surface from 2009 as t1 GROUP BY t1.surface HAVING COUNT ( * ) = 10	2-19008019-32
please list the winner and winner of 2009 in descending order of ! event .	SELECT t1.winner , t1.winner from 2009 as t1 ORDER BY t1.! DESC	2-19008019-32
list the result and surface of all 2009 sorted by ! event in descending order .	SELECT t1.result , t1.surface from 2009 as t1 ORDER BY t1.! DESC	2-19008019-32
